date,mercury_dist,venus_dist,mars_dist,jupiter_dist,total,mercury_diff,venus_diff,mars_diff,jupiter_diff,total_diff
2019-03-27,1.85511998276123,1.5415112471796537,0.7122959759794135,1.2114183576690616,5.320345563589359,0.20544277980171816,0.49886227464831295,0.25953887266636627,-0.04028735263658071,0.24645668213742375
2019-03-28,1.8652554619238622,1.547732137382682,0.7174509883496529,1.21047409315527,5.340912680811467,0.20922523959305428,0.4884318904915209,0.2863973886533667,-0.04207706708922018,0.2525177590445642
2019-03-29,1.8754990738230295,1.553819329758459,0.7230830190259339,1.2094871152570443,5.361888537864466,0.2114574081315501,0.47793463360581817,0.31289912858688296,-0.043980404465760195,0.2575361612355086
2019-03-30,1.8857815079654425,1.559772049265759,0.7291847660429089,1.2084549444873736,5.3831932677614835,0.21225881011899309,0.46737652452070294,0.3389951927125975,-0.045994229464980795,0.2615739771668917
2019-03-31,1.896038824374621,1.5655895945581406,0.7357481277885629,1.2073751708172904,5.404751717538614,0.21174030836197394,0.45676334936675217,0.3646411550037467,-0.048115446989348894,0.26468908439652655
2019-04-01,1.9062120287068327,1.5712713358813832,0.7427642845125922,1.2062454530321192,5.426493102132928,0.21000399484648843,0.446100729192144,0.38979711780040593,-0.05034099062736434,0.2669351108856684
2019-04-02,1.9162466517687133,1.5768167143117036,0.7502237805047607,1.205063519318863,5.448350665904041,0.20714328160117412,0.435394225233835,0.41442774903139146,-0.05266776779315279,0.268361528844798
2019-04-03,1.9260923400545804,1.5822252427332884,0.7581166066298473,1.2038271694299087,5.470261358847624,0.2032431281753117,0.424649475479541,0.4385023020254913,-0.05509258948468796,0.26901383511734095
2019-04-04,1.9357024608958662,1.5874965080848153,0.7664322828052789,1.2025342780804211,5.492165529866381,0.19838034327466691,0.41387229430210104,0.4619946123271907,-0.05761211530974671,0.26893376060693913
2019-04-05,1.9450337245269396,1.59263017431323,0.7751599398898389,1.2011827990803172,5.514006637810326,0.1926239339640901,0.40306872798951876,0.4848830649777784,-0.060222820752528154,0.26815948844434073
2019-04-06,1.9540458233714324,1.597625985052011,0.7842884003641293,1.1997707691825552,5.535730977970128,0.18603546114790787,0.392245033113226,0.5071505273887101,-0.06292100981487282,0.26672584371611846
