name,value,min,max
G,0.022747069284651644,-0.02515908913332221,0.022747069284651644
A,0.008617128017470277,-0.018962536023054755,0.02840600687533934
F,-0.004946016044393486,-0.024106985746964682,0.021362621447106322
A,0.029547454431175346,-0.016198269293904,0.029547454431175346
