get_type,hash,hash_get,date,size
DUBS,0000000000000000000e93b3224e956ea82bdb0507fd181b5f174ce5e78851,dd,2019-02-12 18:42:29,1321146
DUBS,0000000000000000001f13b9b1ea30200cf21994515a2a63aee3cf925e306d,88,2019-02-12 15:10:54,1279750
DUBS,0000000000000000000f97b6d9832894b2876abd74d7b42aee9f64a1f7f87e,44,2019-02-12 12:50:44,1215579
DUBS,00000000000000000018a31f2e7f50ebba8f4a02f9588e97ddb67359f63e37,66,2019-02-12 03:01:37,1181764
DUBS,0000000000000000002942a2f32e9321d60c35294dc5110a02d6711d110d29,88,2019-02-12 01:17:26,1295276
