name,value,min,max
G,-0.0055571208738809386,-0.011555668175384115,0.02213508954527521
A,-0.014767103919566371,-0.014767103919566371,0.021012110032881504
F,-0.007469947584821557,-0.017434857034172357,0.03498656882657403
A,-0.013732880086708033,-0.013732880086708033,0.01943083439033111
