date,mercury_dist,venus_dist,mars_dist,jupiter_dist,total,mercury_diff,venus_diff,mars_diff,jupiter_diff,total_diff
2019-10-24,1.7863568199015822,1.5643628892334234,3.550437041123433,1.479185662314618,8.380342412573057,-0.09069410605996614,0.24225717107119174,0.2437004376811098,0.9200633256174933,0.29608296782693694
2019-10-25,1.780827256011854,1.5674136935039062,3.554664625811786,1.50024651460652,8.403152089934066,-0.11431098051326571,0.23953325789710597,0.23481052261075175,0.921437998844398,0.2800513338612181
2019-10-26,1.7741622601193878,1.5704264638953904,3.558731466909869,1.521335973984087,8.424656164908734,-0.13778341850792256,0.23654703585881673,0.225882425548212,0.9226895937657513,0.26402148460030733
2019-10-27,1.7663749263781268,1.5733979039938517,3.5626369685402777,1.542451155178901,8.444860954091157,-0.1609851650690223,0.23330199656429396,0.21692123197907964,0.9238149546714852,0.2480691888520346
2019-10-28,1.7574858844060852,1.576324796147342,3.566380655817811,1.5635891272874491,8.463780463658686,-0.18376044185603926,0.22980432400142534,0.20793366210985123,0.9248120849704804,0.2322888573357929
2019-10-29,1.747524954094424,1.5792040315135518,3.5699621903050542,1.584746953299951,8.481438129212982,-0.20591926116731896,0.22606256133621827,0.19892729458855135,0.9256807175060894,0.21679626209045066
2019-10-30,1.7365330312686353,1.5820326284784767,3.5733813669229235,1.6059217338554534,8.497868760525488,-0.2272326536051331,0.22208669787232263,0.18990953646705538,0.9264224994604623,0.2017310522381591
2019-10-31,1.72456419987087,1.584807735892059,3.5766380940624987,1.6271106444836732,8.513120674309102,-0.24742798527349605,0.2178869769592098,0.1808866901592857,0.9270407073918236,0.18725906252136168
2019-11-01,1.711688055283712,1.5875266231648624,3.5797323640676852,1.6483109592106082,8.527258001726867,-0.26618459291569746,0.21347286438880816,0.17186341861307242,0.9275396506327365,0.1735744586789259
2019-11-02,1.697992206717787,1.5901866628701173,3.5826642226069034,1.6695200588268653,8.540363151021673,-0.28313008218249347,0.20885245995624957,0.16284268360400606,0.9279240002651602,0.16090164198176687
2019-11-03,1.6835848970922644,1.5927853120221123,3.585433743202568,1.6907354273227182,8.552539379639663,-0.29783789873755695,0.2040323935335169,0.1538260322119269,0.9281982714005234,0.14949659356850192
