name,value,min,max
G,-0.016087627782903957,-0.016087627782903957,0.036154716381349594
A,-0.019281500311765565,-0.06633066330663306,0.030328311331403013
F,-0.01967944816392775,-0.024153632943971437,0.010604241696678729
A,-0.024206369557413177,-0.024206369557413177,0.0685897943158369
