name,value,min,max
G,-0.02568197433659547,-0.02568197433659547,0.036154716381349594
A,-0.05037413801535684,-0.06633066330663306,0.030328311331403013
F,-0.02352373068432667,-0.024153632943971437,0.010604241696678729
A,-0.04413611067313705,-0.04413611067313705,0.0685897943158369
