get_type,hash,hash_get,date,size
DUBS,0000000000000000001c4f2575f33139064f214a3b921b0c45225790ce712d,00,2018-11-12 22:58:44,886767
DUBS,00000000000000000013da30f52759345e332c75c9ca40450f08eb04a342c5,22,2018-11-12 22:45:36,903919
DUBS,0000000000000000001caabc9b13eb3e9ecc6512e8bc3def7b4883bf83d36a,88,2018-11-12 18:59:28,1229043
DUBS,0000000000000000000d675a895e2db332051e23c1c17d98612463c267717b,88,2018-11-12 16:13:06,1251626
DUBS,000000000000000000237c614f21c371ac4313990953bc7d5f5b43b2c8a4c0,99,2018-11-12 16:10:30,1171526
DUBS,00000000000000000003ed7ea5125f38189312e7358b90e4196cbec7fe406e,44,2018-11-12 15:40:19,1249508
DUBS,00000000000000000023cdd37be816a29e50e5d54e37288a847d5d5b2c584f,ee,2018-11-12 15:23:03,1189905
DUBS,00000000000000000017eafdc780b08a9a4aee3e6fc480366c054efa467a8f,dd,2018-11-12 15:07:57,1258501
DUBS,0000000000000000000b3994428d5824538c5be3f8e2eef343bfaddbfa7321,99,2018-11-12 11:20:52,330467
DUBS,0000000000000000002403d076e9ba72a389cbf8192ef49bab75c3fed57f61,33,2018-11-12 10:41:30,1246530
DUBS,0000000000000000000d1de64a8d0f774a11ee72add5b29064451c28e5e19b,22,2018-11-12 10:23:51,1196008
DUBS,0000000000000000001bb210154b130c5289d2e5e0a7bf5ae3d5d331477e2f,bb,2018-11-12 09:54:03,1188109
DUBS,0000000000000000000a74178cec5bb24cdb51a23e63a717cf11e8df74c0bb,44,2018-11-12 06:56:08,227529
DUBS,0000000000000000001085507a1b8048d1345a9cbefaba623a97cf14e8f2fd,66,2018-11-12 06:32:08,1226016
DUBS,0000000000000000001d74303cd4b53cecb15f3a38c98cf5edd410b92b0a77,00,2018-11-12 02:53:24,168464
