name,value,min,max
G,0.0012953280485747953,-0.006555418984326766,0.020246041816075477
A,0.0035695106927378095,-0.013503281171125647,0.021364354074694614
F,-0.0005419075144509344,-0.01284304447749085,0.017655691094194292
A,-0.002399577167018996,-0.01155818749008608,0.01462954223690427
