name,value,min,max
G,0.005534637488322058,-0.042875674199494784,0.01818567489217293
A,0.012367178276269097,-0.048010429656501485,0.031578000359863356
F,0.01714935689911612,-0.05195792675199584,0.031417458945548704
A,0.010868283942758739,-0.0338023380989253,0.030427168926253856
