date,mercury_dist,venus_dist,mars_dist,jupiter_dist,total,mercury_diff,venus_diff,mars_diff,jupiter_diff,total_diff
2019-03-08,1.8202449961805234,1.3992335722002243,0.7068282120882085,1.2247301219899334,5.151036902458889,-0.3123820771070353,0.6821990977819344,-0.21678149238830013,-0.02815908478298867,-0.18192862702174706
2019-03-09,1.8074978410288423,1.4078080099457997,0.7029821116615451,1.2241059319747845,5.142393894610971,-0.26351803382726363,0.6732201825286275,-0.19655893826108953,-0.027814330370609066,-0.13920332626139295
2019-03-10,1.7970565167878159,1.416266987227148,0.6995445195469459,1.2234869475381138,5.136354971100023,-0.21585029771802464,0.6641548283785096,-0.17568169867226163,-0.02758236626344486,-0.09726223261090473
2019-03-11,1.7888377214587607,1.4246094684419663,0.696527726380755,1.2228706836418262,5.132845599923308,-0.1699046383110566,0.6550081641306156,-0.15417633340745088,-0.027461137139040297,-0.056521543134119695
2019-03-12,1.782737583870769,1.4328344789843477,0.6939434162524492,1.2222546998456076,5.1317701789531736,-0.12610627580314254,0.6457849789042056,-0.1320738406713584,-0.02744865569000911,-0.01732061092713603
2019-03-13,1.7786363857479277,1.440941099773388,0.6918025815739887,1.221636597476832,5.1330166645721365,-0.08478281254187871,0.636489632233239,-0.10940956935848346,-0.027543060719870092,0.015304028842867823
2019-03-14,1.7764029633268945,1.448928460107991,0.6901154413641377,1.2210140149539952,5.1364608797530185,-0.04617085758297805,0.6271259226481788,-0.08622304452762071,-0.027742699423055878,0.042287185401398725
2019-03-15,1.775898667669811,1.4567957277009869,0.6888913642264798,1.220384620147395,5.141970379744673,-0.01042514964641009,0.6176968662104119,-0.06255772752570858,-0.028046259407321417,0.0676442194754008
2019-03-16,1.7769808139300889,1.464542094658746,0.6881387966657463,1.2197460983472916,5.149407803601873,0.022338589715236917,0.6082043781736424,-0.03846074316781291,-0.02845296442730082,0.09131477130231969
2019-03-17,1.77950559233408,1.4721667583126192,0.687865196288562,1.2190961343788593,5.158633681314121,0.0521186377099906,0.5986488687761151,-0.01398263011395905,-0.02896283520756998,0.11327294632286558
2019-03-18,1.783330448044934,1.4796688970774898,0.6880769686086367,1.2184323886626205,5.1695087023936805,0.07895594669689592,0.5890288527953312,0.011765449838410944,-0.029576959235945825,0.13352070311637745
