pred_price,direction,date
3.04,1.0,2018-12-27
3.04,-1.0,2019-01-05
3.16,1.0,2019-02-07
3.11,-1.0,2019-02-23
3.23,1.0,2019-03-19
3.20,-1.0,2019-04-08
3.26,1.0,2019-05-02
3.16,-1.0,2019-05-24
3.24,1.0,2019-06-14
3.19,-1.0,2019-07-04
3.30,1.0,2019-08-02
3.26,-1.0,2019-08-17
3.43,1.0,2019-09-13
3.41,-1.0,2019-09-28
3.53,1.0,2019-10-28
3.47,-1.0,2019-11-14
3.59,1.0,2019-12-07
3.55,-1.0,2019-12-27
3.63,1.0,2020-01-21
3.52,-1.0,2020-02-11
3.62,1.0,2020-03-04
3.57,-1.0,2020-03-27
3.61,1.0,2020-04-16
3.47,-1.0,2020-05-10
3.58,1.0,2020-05-31
3.53,-1.0,2020-06-21
3.60,1.0,2020-07-15
3.52,-1.0,2020-08-03
3.72,1.0,2020-09-02
3.71,-1.0,2020-09-12
3.82,1.0,2020-10-12
3.73,-1.0,2020-10-30
3.93,1.0,2020-11-27
3.92,-1.0,2020-12-10
