get_type,hash,hash_get,date,size
DUBS,00000000000000000007eed878624a29fb4ef29b49e3e0080313be104f0d90,88,2018-12-18 22:38:02,1203550
DUBS,000000000000000000247b941736612a394400baf88ee875faf8c8a1753cc2,11,2018-12-18 18:04:18,1129498
DUBS,0000000000000000000420775dd50b53cfd56909ed4d2400fc1b7699f238b3,00,2018-12-18 14:40:40,1263305
DUBS,0000000000000000001ffa144f12bad60d10d5cc423b320f3dc1513e30455b,ff,2018-12-18 10:36:19,1273619
DUBS,000000000000000000157907bd2a2162bcfc6bc35699a19b95b5d5e2689694,dd,2018-12-18 03:21:31,1292532
DUBS,00000000000000000003efe5223396b59bcbb8ed391edf4948ebd677926c62,99,2018-12-18 02:12:11,190019
DUBS,0000000000000000002692b6ae0959571ebf37cfb02b3b6dfd94fbf0de92ce,dd,2018-12-18 02:10:43,1080746
