pred_price,direction,date
473.41,1.0,2019-04-30
470.52,-1.0,2019-05-23
474.50,1.0,2019-06-20
474.14,-1.0,2019-07-05
474.78,1.0,2019-07-25
471.31,-1.0,2019-08-19
474.78,1.0,2019-09-14
474.07,-1.0,2019-10-04
474.51,1.0,2019-10-20
471.17,-1.0,2019-11-15
477.49,1.0,2020-01-19
474.87,-1.0,2020-02-10
479.86,1.0,2020-03-12
479.74,-1.0,2020-03-22
480.64,1.0,2020-04-13
476.59,-1.0,2020-05-09
480.11,1.0,2020-06-03
479.25,-1.0,2020-06-24
479.68,1.0,2020-07-10
475.88,-1.0,2020-08-05
480.32,1.0,2020-09-01
479.96,-1.0,2020-09-16
480.72,1.0,2020-10-06
476.98,-1.0,2020-10-31
481.45,1.0,2020-11-28
481.21,-1.0,2020-12-11
482.46,1.0,2021-01-04
479.07,-1.0,2021-01-27
483.65,1.0,2021-02-24
483.29,-1.0,2021-03-10
