pred_price,direction,date
117.22,1.0,2020-08-23
117.14,-1.0,2020-09-06
120.50,1.0,2020-11-16
119.71,-1.0,2020-12-16
119.98,1.0,2021-01-05
115.62,-1.0,2021-04-28
116.55,1.0,2021-07-02
116.33,-1.0,2021-07-19
118.59,1.0,2021-09-30
118.38,-1.0,2021-10-15
119.50,1.0,2021-11-15
119.47,-1.0,2021-11-24
120.53,1.0,2021-12-29
120.17,-1.0,2022-01-16
120.23,1.0,2022-01-25
113.13,-1.0,2022-05-31
