name,value,min,max
G,-0.00669699872286067,-0.00669699872286067,0.020094106440460946
A,0.004802788167290073,-0.004037055923848287,0.026598287626580897
F,-0.023845790220074492,-0.023845790220074492,0.030608904408555127
A,-0.016766621164992057,-0.016766621164992057,0.01782392610125383
