get_type,hash,hash_get,date,size
DUBS,00000000000000000003ce620854d03478dc4d49db2580761b3351f70f0d6f,88,2020-06-20 01:07:01,1434657
DUBS,00000000000000000000b5fada82636cca0786c2922b6cbf76ce74db888dfc,77,2020-06-20 08:56:55,51795
DUBS,0000000000000000000f8e32f68a07ed25c806173dcbbab5109ac6e705a600,77,2020-06-20 09:01:49,351397
DUBS,0000000000000000000c4a26012a6efe1edabe290bc9103fef373d5547baf7,11,2020-06-20 10:21:35,1046583
DUBS,00000000000000000009e3977d79cc8db3c37943012f89f64cb423f8cdf7b6,cc,2020-06-20 12:08:08,1238176
DUBS,0000000000000000000ee701aa2d841597e76cbdc644a87dbf9c695384d4ba,77,2020-06-20 17:23:00,1317891
DUBS,0000000000000000000d22912ab01634b04ff2bfea1e08baca318f6bb40bd6,bb,2020-06-20 19:28:29,1455522
DUBS,00000000000000000003f9ca33ba134df6f36c943713f87b0dec75dec489d7,bb,2020-06-20 19:55:52,1488153
DUBS,00000000000000000007e43e621531e1e9e7af5001d44207d8349f1616fa27,00,2020-06-20 21:46:34,1313091
DUBS,00000000000000000005c0644cec1236be7d0eedb4a734fa989861330ed989,66,2020-06-20 22:34:03,1357337
DUBS,00000000000000000009ca6e8d2d51684dc93f4b0e15207ff5245afb284b19,88,2020-06-20 22:40:50,1214758
