get_type,hash,hash_get,date,size
TRIPS,00000000000000000009b8dfc425a8b200b0ec24f9267259ca9ea2177b800,aaa,2020-03-16 06:03:25,1298873
DUBS,00000000000000000006cacbe0f063c3e42db8d65516321f3f68e55eec8a28,bb,2020-03-16 07:08:02,1242116
DUBS,0000000000000000000237a0593860349fb0a769af269561785806d92a60a1,cc,2020-03-16 07:49:38,1366371
DUBS,00000000000000000009ea607cd81085365ee807593c551633ebf2b5928cd4,99,2020-03-16 13:13:02,1177282
DUBS,00000000000000000000a115abaf7008b13a7c77f6457b93043f8a7f0f16ef,77,2020-03-16 22:00:12,1242272
DUBS,0000000000000000000bb5efb50771aeb503c8dab0bb0b482a6e35b0a322c6,44,2020-03-16 23:29:06,1154183
