get_type,hash,hash_get,date,size
DUBS,0000000000000000000c642d80ba55e35abc73b1f4fe989a21cb7680fe3e3f,55,2020-06-29 07:58:54,1357167
DUBS,0000000000000000000ce2b9d87a6ffa085f2a239934ed39b939560becabd8,aa,2020-06-29 08:17:29,1418735
DUBS,000000000000000000036223268ecc658d832be29650f41247e2747f83c1fd,88,2020-06-29 11:16:34,1659194
DUBS,0000000000000000000d0b2ca9344bead238cf66ba0f354b3ff08e95578ddd,55,2020-06-29 11:51:07,1306904
DUBS,000000000000000000065bd0072cf3ca5b04af8b428a6091cae3e8ea281236,33,2020-06-29 13:05:38,1319697
DUBS,000000000000000000021e7bbf4767f60094db4d120bd8cec6dc23e5c0afeb,22,2020-06-29 15:44:43,1329587
DUBS,0000000000000000000dcc5faf45e8e98a5197d4ab786985fc144d5754cda6,ff,2020-06-29 17:02:38,1344947
DUBS,000000000000000000052f69e8752889540c762ab03b53a2abe5b5f65d9ce9,66,2020-06-29 20:29:16,1281201
DUBS,000000000000000000104b813af0629b61310bb2249a2bf79f11be0a3f9746,ff,2020-06-29 21:05:46,1534349
