date,mercury_dist,venus_dist,mars_dist,jupiter_dist,total,mercury_diff,venus_diff,mars_diff,jupiter_diff,total_diff
2019-08-16,0.24863644422095296,1.4356516911600927,2.9062074553490977,0.37297802169341804,4.963473612423562,-0.6994346672817964,-0.09540494118514327,0.7674628453383414,0.07714274389660512,-0.3138539700408935
2019-08-17,0.2164454816146101,1.4345282784007114,2.919919053673769,0.37554173553325354,4.946434549222344,-0.6654739094402324,-0.08685792393613675,0.7615761257994047,0.1121656102728581,-0.2744292630208592
2019-08-18,0.18794027008152625,1.433516323448303,2.9335236856061364,0.37890431506368993,4.933884594199656,-0.5892795064974045,-0.07824043794151599,0.7556349474835891,0.14711695949132106,-0.20212818434613852
2019-08-19,0.16630872250713227,1.4326165876317043,2.9470203333877207,0.3830591851807418,4.929004828707299,-0.44718235697424985,-0.06956408894962991,0.7496372403415236,0.1817806398835387,-0.0785929620641512
2019-08-20,0.15569251675560036,1.431829682413025,2.9604079416240143,0.3879951722785395,4.935925313071179,-0.2194655696161687,-0.060840464075409134,0.7435809139749593,0.21595546137823324,0.08496792157100941
2019-08-21,0.1593595244270352,1.4311560691705092,2.9736854168527764,0.3936969615133815,4.9578979719637015,0.0756975123064892,-0.052081167222128834,0.7374638540077378,0.24946023976463003,0.2697746370515256
2019-08-22,0.17718011168056505,1.4305960582866342,2.9868516267690124,0.4001456384862111,4.994773435222423,0.36786782134140333,-0.04329787279771791,0.7312839030171191,0.282137490101613,0.45274742421427117
2019-08-23,0.20599168288419656,1.4301498075750427,2.9999053985295006,0.4073192814807899,5.04336617046953,0.5947531233014356,-0.034502376833606005,0.7250388094095882,0.3138556385911509,0.5966090666928894
2019-08-24,0.2421642622197321,1.4298173205012055,3.0128455164631256,0.4151935707674429,5.100020669951506,0.7467053561788074,-0.025706612932729734,0.7187261944178732,0.3445097692178995,0.6955893280756762
2019-08-25,0.28298805418517126,1.429598445267729,3.0256707198099373,0.42374238407320314,5.161999603336041,0.8427196699842818,-0.016922585418442233,0.7123435536964282,0.37402101851228936,0.7609613538552585
2019-08-26,0.3267044040076489,1.4294928765748676,3.0383797025395043,0.4329383521949875,5.227515335317008,0.9024303260829991,-0.008162162498181401,0.7058883728106248,0.4023348317594894,0.804385254546734
