pred_price,direction,date
97.43,-1.0,2020-08-09
97.90,1.0,2020-08-30
93.74,-1.0,2020-11-04
95.99,1.0,2020-12-27
95.25,-1.0,2021-01-22
103.87,1.0,2021-04-04
103.24,-1.0,2021-04-21
108.47,1.0,2021-06-12
103.90,-1.0,2021-07-26
104.75,1.0,2021-08-14
94.99,-1.0,2021-10-25
95.92,1.0,2021-11-23
93.95,-1.0,2022-01-10
100.65,1.0,2022-03-21
100.02,-1.0,2022-04-09
102.49,1.0,2022-05-15
99.25,-1.0,2022-07-12
