name,value,min,max
G,0.005750642358986813,-0.015928675345991627,0.03179681576952231
A,0.01264431006047273,-0.014900328881132907,0.01264431006047273
F,-0.002017332007387407,-0.04007715387912558,0.014871808814333365
A,0.010433801193463488,-0.07564890330896235,0.01180865494005423
