date,mercury_dist,venus_dist,mars_dist,jupiter_dist,total,mercury_diff,venus_diff,mars_diff,jupiter_diff,total_diff
2020-03-31,2.1875091165615874,0.7458642784133346,2.3954030199852183,3.8452916626529325,9.174068077613073,0.12418104022852469,-0.8811527286001998,-0.7787964559864172,0.11736550870074496,-0.28889667511909656
2020-04-01,2.1928574676471935,0.7345088308435171,2.3801356575171435,3.847783435205065,9.155285391212919,0.1104052427476043,-0.8779592300724466,-0.7802543417659635,0.10901809110997869,-0.30251186497024046
2020-04-02,2.1975139054656423,0.7231994691637509,2.3648415082880625,3.8500850407399336,9.13563992365739,0.09612217662160304,-0.8743960475296398,-0.7816233068783489,0.10069805194892059,-0.31640772261345007
2020-04-03,2.2014536693337803,0.7119411368738395,2.3495222472791126,3.8521971482098833,9.115114201696617,0.08132797927208746,-0.870450652726606,-0.7829066703481767,0.09240728026961599,-0.3305850024820229
2020-04-04,2.2046516140104595,0.7007389403251941,2.3341794703335226,3.854120453451013,9.09369047812019,0.06601471232365255,-0.8661104546077403,-0.7841084766000794,0.08414695226911725,-0.3450481169540677
2020-04-05,2.207082012442991,0.6895981417159925,2.318814682102032,3.855855654843643,9.071350491104658,0.050170365524277144,-0.8613634037045766,-0.7852333861204847,0.07591717926019181,-0.3598053543301326
2020-04-06,2.2087183602174716,0.6785241409510122,2.303429291537283,3.8574034210159795,9.048075213721747,0.03377889191815769,-0.85619885307613,-0.7862862896595689,0.0677166595515845,-0.37486903730375215
2020-04-07,2.2095331869229256,0.6675224454037533,2.2880246215202478,3.858764354742375,9.023844608589302,0.01682035056654878,-0.8506084936569536,-0.7872715859990626,0.059542511956733435,-0.39025544013305363
2020-04-08,2.2094978823468225,0.6565986318573156,2.2726019371820043,3.8599389617550597,8.998637413141202,-0.0007298406875155887,-0.844586958965597,-0.7881922265069404,0.05139049076437567,-0.4059842954952137
2020-04-09,2.2085825450270185,0.6457583105411555,2.2571624913583683,3.860927635501557,8.972430982428099,-0.018922488032294762,-0.8381316630593058,-0.78904883954533,0.04325568338146989,-0.42207786790120383
2020-04-10,2.2067558551594564,0.635007103559461,2.2417075776087496,3.861730665412974,8.945201201740641,-0.03776260009266914,-0.8312416878298163,-0.7898393438928474,0.03513353896285562,-0.43855982914275
