pred_price,direction,date
700.92,-1.0,2019-11-13
708.18,1.0,2020-01-20
707.05,-1.0,2020-02-08
713.59,1.0,2020-04-11
710.58,-1.0,2020-05-09
714.75,1.0,2020-07-07
711.86,-1.0,2020-08-04
716.47,1.0,2020-09-09
716.45,-1.0,2020-09-16
716.53,1.0,2020-09-29
712.04,-1.0,2020-11-02
714.03,1.0,2020-11-24
705.36,-1.0,2021-01-31
706.58,1.0,2021-02-20
700.82,-1.0,2021-04-26
703.14,1.0,2021-05-27
700.15,-1.0,2021-07-22
703.41,1.0,2021-09-15
700.90,-1.0,2021-10-17
