name,value,min,max
G,-0.0003329616552066872,-0.021970860680537996,0.013645116918844513
A,0.0004277991677361648,-0.023127885966673478,0.028380768612317198
F,-0.014254837381638463,-0.014254837381638463,0.018061088977423756
A,-0.00329686797542339,-0.008086298872307274,0.009803087291726964
