pred_price,direction,date
69.94,1.0,2019-03-16
69.37,-1.0,2019-04-08
70.29,1.0,2019-05-05
69.64,-1.0,2019-05-25
70.03,1.0,2019-06-09
69.18,-1.0,2019-07-06
70.26,1.0,2019-08-04
69.96,-1.0,2019-08-18
70.76,1.0,2019-09-08
70.04,-1.0,2019-10-03
70.81,1.0,2019-10-28
70.21,-1.0,2019-11-15
70.79,1.0,2019-12-03
69.93,-1.0,2019-12-30
70.58,1.0,2020-01-23
69.74,-1.0,2020-02-13
69.99,1.0,2020-02-26
