name,value,min,max
G,0.001705438947500415,-0.011915305890050965,0.0067141672598125535
A,0.0023230390817161606,-0.025501032026100212,0.020773344302755792
F,-0.0009284006189337335,-0.022124618070711533,0.00930667988325351
A,-0.0042077707873872106,-0.01728710908490172,0.0034597871881558717
