get_type,hash,hash_get,date,size
DUBS,00000000000000000004de2a11d81e1279c41f703992ede4f952852bbd0bf4,dd,2021-04-22 05:51:55,1239700
DUBS,00000000000000000005c788ff1cd7141c77f64ce04a3d9e9b988a35a85ceb,88,2021-04-22 10:11:15,1227662
DUBS,0000000000000000000b3cab2470b8420705ec456255996175071e1c421d2c,44,2021-04-22 10:18:26,1429829
DUBS,0000000000000000000530ec39fe506b64cf231a303f5af1029b5593a0d67e,55,2021-04-22 10:36:38,1458800
TRIPS,0000000000000000000503e5a1644608b7ae555c485839e89ab406f21e73f,ddd,2021-04-22 13:28:09,1429093
DUBS,00000000000000000000a2599df86fa2e5349fc9c52402041bd250f5bfba80,ee,2021-04-22 21:41:03,1215970
