name,value,min,max
G,0.01975122373575866,-0.0750192871470452,0.01975122373575866
A,0.012431269423858415,-0.0192561458384245,0.04908556336273495
F,0.015270347478315127,-0.009158646383110702,0.05849490634242516
A,0.03242810997359036,-0.0077860598384652535,0.03242810997359036
