get_type,hash,hash_get,date,size
DUBS,000000000000000000055f450c82e1a87ee772c1100affedc73ca894ae2c08,cc,2019-11-17 20:43:36,723540
DUBS,00000000000000000008f48da43570d87be6997aec85e9428d134c767248fc,aa,2019-11-17 18:00:05,1045979
DUBS,000000000000000000055bc1f7d4aeb3b31fdef10e969a4ae85839d05c8c5b,55,2019-11-17 07:57:13,1081700
