pred_price,direction,date
66.78,1.0,2018-11-11
66.65,-1.0,2018-11-22
69.86,1.0,2019-01-06
67.82,-1.0,2019-02-28
68.01,1.0,2019-03-14
64.93,-1.0,2019-05-27
65.20,1.0,2019-06-14
65.03,-1.0,2019-07-04
65.64,1.0,2019-08-07
65.64,-1.0,2019-08-11
69.68,1.0,2019-11-06
69.67,-1.0,2019-11-08
71.28,1.0,2019-12-13
71.21,-1.0,2019-12-27
71.32,1.0,2020-01-12
60.44,-1.0,2020-05-19
60.69,1.0,2020-06-14
59.97,-1.0,2020-07-29
67.40,1.0,2020-10-17
67.36,-1.0,2020-10-24
