name,value,min,max
G,0.018707062379774708,-0.02170844814839723,0.018707062379774708
A,0.03079101044062993,-0.032280160972686156,0.03751617076326008
F,0.018119566053704572,-0.02509095000562578,0.021199855728770034
A,0.023743999999999987,-0.029882716700918355,0.025498121242080396
