name,value,min,max
G,0.0007843067352342192,-0.01461729981527582,0.011184466722815367
A,0.0030975735673721694,-0.0056385514154507765,0.011165672863322706
F,-0.008042405410345399,-0.015501968503937036,0.01686330224226329
A,0.0028660474211683606,-0.003366961992651629,0.012208091047607228
