date,mercury_dist,venus_dist,mars_dist,jupiter_dist,total,mercury_diff,venus_diff,mars_diff,jupiter_diff,total_diff
2019-02-13,2.4894873647425153,1.1735845406430385,0.8768413069012011,1.2467921968107074,5.786705409097462,-0.5097284091676128,0.8528325052267833,-0.49257405973561913,-0.06995408365115297,-0.40269816559026994
2019-02-14,2.4632894686042954,1.1843731396767108,0.8673046406332783,1.2452913490885986,5.760258598002884,-0.5415810821008248,0.8470645920107008,-0.4873811882752851,-0.06687879229973141,-0.4259494076774202
2019-02-15,2.4355958149071215,1.195086464988409,0.8578796050587357,1.2438575058451136,5.73241939079938,-0.5725024199466149,0.8411544915060805,-0.48167618629040165,-0.06389302729305098,-0.4483751850510497
2019-02-16,2.406471986133574,1.2057227135862378,0.8485766133969548,1.2424885996049568,5.703259912721723,-0.6020679912188044,0.8351028294706759,-0.4754390059642339,-0.060999390387596025,-0.4696393213889907
2019-02-17,2.376007017561729,1.2162800661305537,0.8394064611295463,1.2411824835751,5.672876028396929,-0.6297929634600292,0.8289083223644583,-0.4686501113903727,-0.05820141603534063,-0.4893594726714948
2019-02-18,2.344316063683646,1.2267566585397476,0.8303803044877989,1.2399369048332776,5.64138993154447,-0.6551373821602503,0.8225674572813861,-0.46129106608361037,-0.05550383342705521,-0.5071115854541769
2019-02-19,2.311542549629775,1.2371505555490026,0.8215096285382033,1.2387494771398528,5.608952210856833,-0.6775168170717166,0.8160746452868202,-0.4533450645809961,-0.0529125832752172,-0.5224383334494848
2019-02-20,2.277859509237227,1.2474597358399333,0.812806210519607,1.2376176625799535,5.575743118176721,-0.6963191764711456,0.8094231299028655,-0.4447971751122124,-0.050434424331178514,-0.5348619652483599
2019-02-21,2.2434697974896785,1.2576820962541175,0.8042820881879168,1.236538771075779,5.541972753007491,-0.7109279769302222,0.8026064854761719,-0.43563408368362166,-0.04807613707822177,-0.5439017577371545
2019-02-22,2.2086048829833413,1.2678154771002736,0.7959495415273385,1.235509981173338,5.507879882784291,-0.7207516980017243,0.795620273341141,-0.42584341096759815,-0.04584357572847299,-0.5490959883844934
2019-02-23,2.173521992606528,1.2778577011072445,0.7878210903476163,1.2345283770191595,5.4737291610805485,-0.7252578464031642,0.7884631132175284,-0.41541290043208895,-0.04374094678680832,-0.550027737916867
