name,value,min,max
G,-0.013295761585860766,-0.01721717153989255,0.001312570316266859
A,-0.018115535614133593,-0.0204715969989282,0.0051866050287519005
F,-0.03027156985957047,-0.03027156985957047,0.01794985087816192
A,-0.022710755813953543,-0.023767529897616768,0.007212276775920401
