name,value,min,max
G,-0.014019970512152757,-0.014019970512152757,0.015884743258219425
A,-0.02061401361210391,-0.02061401361210391,0.018340743734842402
F,-0.0032586558044807035,-0.0040567951318457585,0.01846965699208436
A,0.004843250588035364,-0.00559266494423083,0.015082143819014293
