pred_price,direction,date
138.55,-1.0,2020-08-07
139.01,1.0,2020-08-28
136.66,-1.0,2020-11-02
137.53,1.0,2020-12-29
136.74,-1.0,2021-01-26
138.85,1.0,2021-03-28
137.87,-1.0,2021-04-25
139.17,1.0,2021-05-27
