get_type,hash,hash_get,date,size
DUBS,000000000000000000029a68480d50f8dbbb65e96b9f81c772aa6e2a7ca183,77,2020-07-01 05:40:11,1297354
DUBS,0000000000000000000cb1179f5e2603822cb03c3797db4491fc3efc46e2e1,ee,2020-07-01 07:31:31,1165412
TRIPS,000000000000000000000e04731a9832b3804a170d2755aee557e812e86f0,666,2020-07-01 15:35:51,1282325
DUBS,0000000000000000000e2747611f004d9d0f21a669336c19f87d2f99190f91,55,2020-07-01 16:27:30,1242671
