pred_price,direction,date
20.29,1.0,2020-03-05
20.16,-1.0,2020-03-24
20.42,1.0,2020-04-18
20.02,-1.0,2020-05-09
20.36,1.0,2020-05-30
20.12,-1.0,2020-06-22
20.35,1.0,2020-07-15
20.03,-1.0,2020-08-04
20.58,1.0,2020-08-29
20.49,-1.0,2020-09-14
20.83,1.0,2020-10-12
20.53,-1.0,2020-10-31
21.10,1.0,2020-11-25
21.01,-1.0,2020-12-11
21.43,1.0,2021-01-09
21.17,-1.0,2021-01-27
21.62,1.0,2021-02-17
21.37,-1.0,2021-03-12
21.77,1.0,2021-04-07
21.47,-1.0,2021-04-25
21.79,1.0,2021-05-14
21.41,-1.0,2021-06-09
21.79,1.0,2021-07-04
21.51,-1.0,2021-07-22
21.91,1.0,2021-08-11
21.60,-1.0,2021-09-04
21.95,1.0,2021-09-29
21.56,-1.0,2021-10-19
21.91,1.0,2021-11-07
21.63,-1.0,2021-11-30
22.06,1.0,2021-12-26
21.67,-1.0,2022-01-15
22.06,1.0,2022-02-03
