date,mercury_dist,venus_dist,mars_dist,jupiter_dist,total,mercury_diff,venus_diff,mars_diff,jupiter_diff,total_diff
2020-02-24,1.8796359903123825,1.153131018339856,2.912521724639229,3.6280542397633084,9.573342973054777,-0.14347793240216183,-0.81302128674258,-0.6695678894266406,0.41676174095464924,-0.33873629730973454
2020-02-25,1.874946683258404,1.1425393153732983,2.8993339652013126,3.6373950488001805,9.554215012633197,-0.0969406083296742,-0.8189094550875995,-0.6739740790929722,0.408671798616264,-0.30807281008330506
2020-02-26,1.8723898118323044,1.1318737285692986,2.886061697814278,3.6465503150644767,9.536875553280359,-0.05285741978797928,-0.8246218672700916,-0.6782929451938455,0.40055407580558305,-0.27926741013786294
2020-02-27,1.8718306124135646,1.1211366151463116,2.8727066349638073,3.6555194786210756,9.521193341144759,-0.01156015829337463,-0.8301520284504078,-0.682524292943651,0.3924118551497733,-0.25257597017433175
2020-02-28,1.8731232615669657,1.1103304159403231,2.859270485775589,3.6643020509202575,9.507026214203135,0.02668397068263185,-0.8354934736448832,-0.6866682940582903,0.38424825984730154,-0.22817417599782602
2020-02-29,1.8761153155021075,1.0994576548339325,2.845754949959525,3.672897611332298,9.494225531627864,0.06176453933854302,-0.8406397820109685,-0.6907254297413054,0.3760662614808835,-0.20616637451315656
2020-03-01,1.880651521191819,1.088520939080466,2.832161712460528,3.681305804312072,9.482639977044887,0.0936402420689105,-0.8455845076469378,-0.6946964545727341,0.367868707581202,-0.18659565777460377
2020-03-02,1.8865769762887654,1.0775229605327765,2.818492437912048,3.689526337380212,9.472118712113803,0.12231831790718263,-0.8503211096449957,-0.6985824065908541,0.359658357352119,-0.16945432662507975
2020-03-03,1.8937396560031143,1.0664664983872363,2.8047487636855535,3.697558979596458,9.462513897672363,0.14785816785930458,-0.8548428349424999,-0.7023846790474156,0.3514379032047379,-0.15469407663374715
2020-03-04,1.9019923528202427,1.0553544227658356,2.7909322905610408,3.7054035593936816,9.4536826255408,0.17035923424503321,-0.8591426535227813,-0.7061051419874486,0.34320994278603567,-0.14223548994337187
2020-03-05,1.911194091664335,1.044189698022721,2.7770445700115483,3.7130599599351837,9.445488319633787,0.18995017240289452,-0.8632132797204459,-0.7097463152939941,0.33497687061911885,-0.13197658254289
