name,value,min,max
G,-0.014358507571904044,-0.014358507571904044,0.023100932747795122
A,-0.0056385514154507765,-0.0056385514154507765,0.008617128017470277
F,-0.015501968503937036,-0.015501968503937036,0.0016636884589316114
A,-0.001639849577707797,-0.010579268292682853,0.029547454431175346
