name,value,min,max
G,-0.0003562551781276513,-0.051508240457851184,0.08281321497208749
A,0.007216146126959089,-0.052617090723190096,0.08723747980613905
F,0.0052214826715630824,-0.043165467625899345,0.07374497340770536
A,-0.00011747430249631208,-0.02155181256795846,0.04772919190806624
