date,mercury_dist,venus_dist,mars_dist,jupiter_dist,total,mercury_diff,venus_diff,mars_diff,jupiter_diff,total_diff
2020-10-23,1.426149923241508,0.9524082056968743,1.005013409157791,3.4245435549016556,6.808115092997829,-0.291907900506303,0.7325728066186529,0.02766349591901498,0.7095740826563227,0.1464288401933206
2020-10-24,1.4122494642733063,0.9618432718602388,1.0054128955489179,3.441018178501326,6.820523810183789,-0.28735993045301894,0.7407922423485578,0.0221884634319422,0.7207848947745402,0.15235102825959834
2020-10-25,1.398841823340664,0.9713804462747083,1.0057122459223977,3.4577440050834887,6.833678520621259,-0.2771720541571129,0.7488092502835062,0.016626661039836215,0.7317753319282364,0.1615101409413522
2020-10-26,1.3862283183741022,0.9810170485577303,1.0059099714587558,3.474716009418649,6.847871347809237,-0.26075512457909517,0.7566158085441038,0.010982165927270885,0.7425459091566967,0.17425587057828773
2020-10-27,1.3747342391702302,0.9907503039238307,1.0060046416496182,3.491929179917133,6.863418364660812,-0.23761357867404706,0.764204505104765,0.005258216837173135,0.753097223218773,0.19088226189784654
2020-10-28,1.364701634991803,1.0005773508154676,1.0059948731455397,3.509378519197123,6.880652378149933,-0.20740095313187001,0.7715685270747764,-0.0004992294992924802,0.7634298957254813,0.2115947713820209
2020-10-29,1.356479261380941,1.010495247520584,1.0058793209754646,3.527059044546153,6.899912874423142,-0.1699786110934228,0.7787015811391639,-0.005905413105736282,0.7735445684788973,0.23647540418873195
2020-10-30,1.350409870979519,1.0205009776126546,1.0056566708814692,3.544965788504988,6.921533307978631,-0.12547064867675617,0.7855978011071361,-0.011378763222013881,0.7834419088264846,0.2654501052956485
2020-10-31,1.3468154724632844,1.0305914544569919,1.005325632003234,3.563093799269531,6.945826358193041,-0.07430589953960498,0.7922516745995284,-0.01691808408935858,0.7931226016996455,0.2982638031201923
2020-11-01,1.3459816516896848,1.0407635251901046,1.0048849296202003,3.581438140429158,6.973068246929147,-0.01723732144816119,0.7986580016757108,-0.022522550868629507,0.8025873205816237,0.33446888171286787
2020-11-02,1.34814244123323,1.051013974560166,1.0043332980089854,3.5999938896363513,7.003483603438733,0.04460486798365104,0.8048118839285885,-0.02819170374982896,0.8118366807504656,0.3734319003063921
