date,mercury_dist,venus_dist,mars_dist,jupiter_dist,total,mercury_diff,venus_diff,mars_diff,jupiter_diff,total_diff
2020-01-31,2.4774526036517814,1.380073485017838,3.1999216464487605,3.350660198192759,10.40810793331114,-0.49588159029440254,-0.6278979280996633,-0.5435023129866083,0.5980135133189222,-0.46827470365283874
2020-02-01,2.4520328680315653,1.3718320400055024,3.1891703688899664,3.364166753535221,10.377202030462255,-0.5254944080730671,-0.6371966118664305,-0.5494551539155206,0.5909282850259792,-0.4977670451511251
2020-02-02,2.4252449316302247,1.3634718140433477,3.17830401376083,3.377510364086253,10.344531123520657,-0.553778803723126,-0.6463802949057178,-0.5553363121107993,0.5837992514780503,-0.5261940054054769
2020-02-03,2.3971753574777313,1.3549943720248212,3.167323967547507,3.3906900874090877,10.310183784459147,-0.5802737083699921,-0.6554429864439952,-0.5611466124977946,0.5766289851709874,-0.5531944352846758
2020-02-04,2.3679357664563025,1.3464013585637415,3.1562315934782923,3.4037050395511494,10.274273758049485,-0.6044611087097367,-0.6643785228108766,-0.5668872436935347,0.5694200448596334,-0.5783629044793085
2020-02-05,2.337665203261483,1.3376944999969327,3.145028221052346,3.4165543935108746,10.236942317821637,-0.6257740806497327,-0.6731805855000829,-0.5725599294602882,0.5621749222202659,-0.6012560378614856
2020-02-06,2.306531822765589,1.3288756042728154,3.133715131829934,3.429237373931834,10.198359932800173,-0.6436108384224124,-0.6818428646190042,-0.5781671197648456,0.5548958767905625,-0.6214036160315641
2020-02-07,2.274733569642687,1.3199465556850238,3.1222935425092393,3.441753245218796,10.158726913055746,-0.6573555465812054,-0.6903594574513946,-0.5837121294509783,0.5475846481714716,-0.6383250224094882
2020-02-08,2.242497522826477,1.3109093013048432,3.1107645885145176,3.4541012905529556,10.118272703198794,-0.6664059215009255,-0.6987255102724076,-0.5891991121067511,0.5402420578545417,-0.6515510193272146
2020-02-09,2.210077621220852,1.301765827556238,3.099129313686683,3.4662807814389165,10.077253543902689,-0.6702066952453227,-0.7069379804852601,-0.594632748193545,0.5328675949747093,-0.6606500323656737
2020-02-10,2.177750590254866,1.292518128129664,3.0873886725474597,3.4782909415415197,10.03594833247351,-0.6682868089595884,-0.7149963062730116,-0.6000176024608449,0.5254591664839094,-0.6652571563101047
