get_type,hash,hash_get,date,size
DUBS,00000000000000000006bab580ca564ccc5ed9677d06d30ca9d705c9e0eb89,cc,2020-02-04 00:44:57,1329066
DUBS,000000000000000000072d629f6131447546de56b6acd569bf93e64a6f2131,99,2020-02-04 07:13:47,1056279
DUBS,0000000000000000000ceffccc81493fc480aa7b8232db91110b02b2ac1abf,99,2020-02-04 08:35:12,458041
DUBS,0000000000000000000a446dd6db8eb3b68463e4fbf7902cc490aee80cc44f,00,2020-02-04 09:02:59,1069564
DUBS,00000000000000000006152eaf275d8bb2356c9d709212c7e74a225e7f6b3e,dd,2020-02-04 11:23:37,1366050
DUBS,0000000000000000000ec8eeec7dc89d401e4a5bc5e801b0001e3f90103bd7,bb,2020-02-04 20:17:16,1216541
DUBS,000000000000000000122eaff5690a2c2fe01bdb201cddc215bd102a02155b,dd,2020-02-04 22:06:45,1237494
DUBS,000000000000000000094101db4cef9ca039bf115f1ceae7647efbb9162e99,66,2020-02-04 22:37:21,1297543
