get_type,hash,hash_get,date,size
DUBS,00000000000000000007d96dc93233e429022d61a5d35366ba2e1b09689561,ee,2020-12-28 00:31:19,1404317
DUBS,000000000000000000009be8b062836f32486e9b9e4663900c806c14dd732c,ee,2020-12-28 00:48:20,1236609
DUBS,0000000000000000000806861148c9c0f732994cd401cf259d667c838257a8,ee,2020-12-28 02:24:40,1063177
DUBS,0000000000000000000e6b5e083bec7a123313b4649215f601b00f8b5c9ca1,aa,2020-12-28 03:13:47,1370430
DUBS,00000000000000000004349a5b12bbe332b483b290e3fb1416a39188686af1,dd,2020-12-28 03:30:28,1310234
DUBS,00000000000000000004bffe787e0526dcc9d4b811a84eeba72f1e682c7876,ee,2020-12-28 15:46:29,1460243
DUBS,0000000000000000000776de30e3fedac0558ecf4e3cc98484ce87781bbedf,88,2020-12-28 17:05:23,1312007
DUBS,00000000000000000001af2e687c4bcb5782a147f5c55d2e71e1b29ca695ed,cc,2020-12-28 18:45:14,1315758
DUBS,00000000000000000000c826ac2003340d1f343727308631e757b935ea01bf,cc,2020-12-28 19:18:38,1344407
TRIPS,000000000000000000091d931b6311515c9dae2c7be0599c27a58e696c87b,ddd,2020-12-28 22:06:07,1203169
