pred_price,direction,date
18.84,1.0,2018-11-08
18.56,-1.0,2018-11-27
19.21,1.0,2018-12-26
19.18,-1.0,2019-01-07
19.49,1.0,2019-02-04
19.21,-1.0,2019-02-24
19.71,1.0,2019-03-20
19.60,-1.0,2019-04-08
19.87,1.0,2019-05-03
19.55,-1.0,2019-05-24
19.89,1.0,2019-06-13
19.69,-1.0,2019-07-05
20.04,1.0,2019-08-01
19.82,-1.0,2019-08-18
20.28,1.0,2019-09-11
20.15,-1.0,2019-09-30
20.54,1.0,2019-10-28
20.31,-1.0,2019-11-14
20.89,1.0,2019-12-10
20.84,-1.0,2019-12-24
21.29,1.0,2020-01-23
20.99,-1.0,2020-02-10
21.53,1.0,2020-03-06
21.38,-1.0,2020-03-25
21.61,1.0,2020-04-17
21.09,-1.0,2020-05-10
21.50,1.0,2020-05-31
21.27,-1.0,2020-06-22
21.51,1.0,2020-07-15
21.12,-1.0,2020-08-04
21.83,1.0,2020-08-31
21.78,-1.0,2020-09-13
22.16,1.0,2020-10-11
