date,mercury_dist,venus_dist,mars_dist,jupiter_dist,total,mercury_diff,venus_diff,mars_diff,jupiter_diff,total_diff
2019-10-07,1.7104781534952505,1.5098595593386894,3.454636529382335,1.1281052828793068,7.803079525095582,0.2870039111361397,0.24970363668236772,0.3894742058324811,0.8787730327989097,0.5424491799860612
2019-10-08,1.7233861170311298,1.5130593161523218,3.4614978673087493,1.1482702916801122,7.846213592172313,0.2664572360238937,0.251228235604415,0.3810956995725931,0.8822437524638165,0.5295889472048013
2019-10-09,1.7352903507383315,1.516275428120786,3.4682080477481567,1.168511096883327,7.888284923490601,0.2457373854354759,0.25251235715825304,0.37270003842395333,0.8855599376014225,0.5165409517428988
2019-10-10,1.7461817854382093,1.5195048221216905,3.4747667471887187,1.1888243215732743,7.929277676321893,0.22483032109576567,0.2535551931516038,0.36428640862666317,0.8887283785556294,0.5032984433471522
2019-10-11,1.7560507144254671,1.522744416325488,3.4811736249397556,1.20920673095733,7.969175486648041,0.2037228826337598,0.2543560599439477,0.3558538560253517,0.8917552933834947,0.4898550217584307
2019-10-12,1.7648868503406465,1.5259911210987978,3.4874283199122793,1.229655220895474,8.007961512247197,0.18240308368904706,0.25491434481894437,0.34740124764745817,0.8946463982959566,0.476204815715061
2019-10-13,1.7726793983433118,1.5292418387184488,3.4935304464682866,1.2501668070585021,8.045618490588549,0.16086044840474945,0.2552294126083965,0.3389272199798825,0.897406935162458,0.4623426647720033
2019-10-14,1.7794171482999113,1.5324934618298676,3.499479589481252,1.2707386138089365,8.082128813419967,0.1390864039447651,0.2553005071047678,0.33043013515707254,0.9000416593787339,0.4482643242521612
2019-10-15,1.7850885898995021,1.535742870812664,3.505275299164818,1.2913678620628626,8.117474621939847,0.11707475379035231,0.2551266652600224,0.32190806808615935,0.9025547952810447,0.43396671797368336
2019-10-16,1.789682055593403,1.5389869304399637,3.5109170862413737,1.3120518557382426,8.151637928012983,0.09482225210547265,0.2547066617343492,0.31335882532508647,0.9049499743028246,0.4194482580119987
2019-10-17,1.793185897688349,1.5422224862957197,3.5164044181566627,1.332787966869637,8.184600769010368,0.07232930876263813,0.2540389898938407,0.3047800031818257,0.9072301766284088,0.4047092575256262
