pred_price,direction,date
886.83,1.0,2021-01-03
881.68,-1.0,2021-01-29
884.56,1.0,2021-02-17
881.44,-1.0,2021-03-20
881.51,1.0,2021-03-27
875.32,-1.0,2021-04-27
877.92,1.0,2021-05-16
875.60,-1.0,2021-06-11
876.48,1.0,2021-06-29
872.98,-1.0,2021-07-22
878.64,1.0,2021-08-19
878.44,-1.0,2021-08-30
880.94,1.0,2021-09-27
877.51,-1.0,2021-10-18
882.80,1.0,2021-11-13
882.25,-1.0,2021-11-28
884.43,1.0,2021-12-23
