date,mercury_dist,venus_dist,mars_dist,jupiter_dist,total,mercury_diff,venus_diff,mars_diff,jupiter_diff,total_diff
2020-12-20,2.568699848846542,1.5708921838966918,0.8273529203535126,4.639332520323403,9.60627747342015,0.2538596518305405,0.8026000385961102,-0.35264842645755184,0.9957387940498094,0.4712044943491595
2020-12-21,2.579982273168346,1.581042564551165,0.8203141749706425,4.662062561418719,9.643401574108871,0.2329014636862447,0.7969550096972818,-0.35972235921603524,0.9944670468487498,0.45580013053557106
2020-12-22,2.5902363792979717,1.591118833750941,0.8131377002207131,4.684759432666883,9.679252345936508,0.21167403904217663,0.7911361643645382,-0.3667611608997128,0.99301582554194,0.4401665272878101
2020-12-23,2.5994481792475157,1.6011187902381447,0.805824224756486,4.707419136576905,9.71381033081905,0.19015786237426724,0.7851444877310871,-0.3737627240307472,0.9913897091241737,0.4242940227046281
2020-12-24,2.607602684800307,1.6110402448753482,0.7983745138399573,4.730037771570856,9.747055215086469,0.1683322861038316,0.7789809314312917,-0.3807251776563678,0.9895928939089821,0.4081721121215645
2020-12-25,2.614683863331841,1.620881021211529,0.790789367278981,4.752611525792123,9.778965777614474,0.1461757506700622,0.7726464915356193,-0.38764675627479733,0.987629305313382,0.39178965404936156
2020-12-26,2.6206746037247513,1.6306389555423928,0.7830696181482244,4.775136673103368,9.809519850518736,0.1236659928998329,0.7661421688507739,-0.39452575975114607,0.9855026936604669,0.3751350244125137
2020-12-27,2.6255566925688885,1.6403118954863722,0.7752161309126544,4.797609570300848,9.838694289268762,0.10078025832164789,0.7594688523782739,-0.4013605838517093,0.983216687396035,0.35819623220135427
2020-12-28,2.6293108017604254,1.6498976965878096,0.7672297980497783,4.820026654239827,9.866464950637841,0.07749553647412774,0.7526271644192585,-0.4081497969666458,0.9807747891995917,0.34096101568140486
2020-12-29,2.6319164897079736,1.6593942169469647,0.7591115348093374,4.842384437453567,9.892806678917843,0.05378884179358344,0.7456173056510528,-0.41489223529740216,0.978180310075786,0.3234169438670079
2020-12-30,2.6333522196612282,1.6687993103809107,0.7508622723617755,4.864679500977388,9.917693303381302,0.02963756707190676,0.7384389397801687,-0.4215870852000057,0.9754362470734105,0.3055515546126211
