pred_price,direction,date
265.21,-1.0,2019-08-15
291.59,1.0,2020-04-26
291.42,-1.0,2020-05-04
295.85,1.0,2020-06-06
295.73,-1.0,2020-06-16
298.16,1.0,2020-07-16
296.31,-1.0,2020-08-05
298.34,1.0,2020-08-25
290.56,-1.0,2020-11-05
290.86,1.0,2020-11-15
