get_type,hash,hash_get,date,size
DUBS,0000000000000000000ae62809eb373846c8be7ec16dc9b91de332ec529a1a,dd,2019-02-22 15:31:51,1423906
DUBS,000000000000000000276c697939e31a7937b9de3f9426fffc7abe6bdfc8b2,bb,2019-02-22 11:28:10,1234400
DUBS,000000000000000000195f8947fcc073dda61c443bb3eb0c9c805f748f6f07,aa,2019-02-22 08:07:43,1146291
DUBS,00000000000000000018281a668e4dea9bf0c58f967b5cfd337ba6eb886160,55,2019-02-22 07:12:08,544651
DUBS,00000000000000000007ddd6c57f818beeea5a5ebe2cab3bbc44e3a780ba8f,99,2019-02-22 04:03:16,1198832
DUBS,0000000000000000002a7df7f7038a89cbb9937e0f5875ff750173995704f5,11,2019-02-22 02:47:10,1288954
