name,value,min,max
G,-0.0005533482102361154,-0.02515908913332221,0.020382256709159607
A,-0.005750836218531674,-0.018962536023054755,0.02840600687533934
F,-0.00920337058507159,-0.024106985746964682,0.021362621447106322
A,0.001750387225951,-0.053818808073403,0.015612467933215468
