get_type,hash,hash_get,date,size
DUBS,000000000000000000007e532cbe984d50e93c1039501fc0323802d92d3d98,99,2019-07-20 23:11:05,328216
DUBS,00000000000000000000da3a828001541b462a528fe6d3975ab75ed5134c00,11,2019-07-20 22:22:56,684143
DUBS,0000000000000000001e3581977c650e48e52e76d2b776a1a8b8bea003d900,55,2019-07-20 22:15:10,439836
DUBS,000000000000000000109ee5155baf55fb08ec3b2c58cf4854d6176c6b50e5,88,2019-07-20 20:39:38,219392
DUBS,0000000000000000000cfe05fc261080dd72a0fb9c9edfaf2638fc1a6e6c5f,77,2019-07-20 19:22:52,1564863
DUBS,00000000000000000005fd040579f6f93c57aeff1ddf533b667353b3c3803b,44,2019-07-20 17:50:36,298
TRIPS,000000000000000000005333226037a4c501a0a9608c53a60ca555744a4aa,333,2019-07-20 16:03:05,1004676
DUBS,00000000000000000006005828fab69c09e92869413adc38503d593d3c487e,bb,2019-07-20 13:58:11,1366640
DUBS,0000000000000000001d725c2fae16089d0f4705e6463c10bb9b092c3c52a3,ee,2019-07-20 11:19:15,1262344
DUBS,00000000000000000000aad04073f31c714452ce79f3ce85a71b8ef73bd11c,77,2019-07-20 11:03:54,1318164
DUBS,0000000000000000000d9acb7746fe8e27dd3d2564115044fd38842150feab,11,2019-07-20 05:42:43,1059009
DUBS,0000000000000000000410233ebd0986b751c6df4551fd6ca646a2cea07486,11,2019-07-20 05:38:07,1090133
DUBS,00000000000000000016d72e1d7678ae0046070a6d6dbe30cf036c7adf5e9b,aa,2019-07-20 03:28:25,1204038
