pred_price,direction,date
59.45,-1.0,2020-05-08
60.48,1.0,2020-06-01
60.19,-1.0,2020-06-21
60.61,1.0,2020-07-14
59.79,-1.0,2020-08-05
60.55,1.0,2020-08-26
59.98,-1.0,2020-09-21
60.16,1.0,2020-10-08
59.10,-1.0,2020-11-02
59.80,1.0,2020-11-22
59.39,-1.0,2020-12-15
59.74,1.0,2021-01-05
58.79,-1.0,2021-01-28
59.60,1.0,2021-02-19
59.16,-1.0,2021-03-15
59.34,1.0,2021-04-01
58.15,-1.0,2021-04-27
58.85,1.0,2021-05-17
58.29,-1.0,2021-06-12
58.44,1.0,2021-06-28
57.44,-1.0,2021-07-22
58.49,1.0,2021-08-16
58.25,-1.0,2021-09-04
58.56,1.0,2021-09-25
57.59,-1.0,2021-10-18
58.64,1.0,2021-11-12
58.48,-1.0,2021-11-28
59.17,1.0,2021-12-25
58.51,-1.0,2022-01-13
59.71,1.0,2022-02-07
59.49,-1.0,2022-02-25
60.16,1.0,2022-03-23
59.40,-1.0,2022-04-12
