get_type,hash,hash_get,date,size
DUBS,0000000000000000002c19cfa4d9a70088544dce851c07fc65f068b15b5929,44,2019-03-21 23:06:44,339703
DUBS,00000000000000000011a6817e1ee354e1e786f959d09d70604840767f6f39,88,2019-03-21 21:52:24,1204868
DUBS,00000000000000000014dc259caca1c1c990ca4d98a70e14a1ac413d0a2fa8,66,2019-03-21 20:23:30,1100256
DUBS,0000000000000000001bfb1eb295f2d835cdd58fd019895a6f8387a2d4a327,33,2019-03-21 18:04:55,1198127
DUBS,0000000000000000000e7dcd1f5999187f55e3514d1a33d4b2bf97f18821a0,22,2019-03-21 17:47:27,1244982
DUBS,0000000000000000000ab4abc07d3436183370f798c3b924d037063fbfbd05,cc,2019-03-21 08:31:00,258575
DUBS,000000000000000000199ad6f8f2aabe3e7edea78612eb4585969c3414d1b5,ff,2019-03-21 08:17:40,727027
DUBS,0000000000000000002a25b39c063745cd343ff0fed6381a9c893b717b16e7,33,2019-03-21 07:46:58,1218136
DUBS,0000000000000000002ac5a9cbdf7cc88820f388cc39fb0e5d0c7c1d88916d,00,2019-03-21 03:47:20,300158
DUBS,0000000000000000001fd20983d527336ea290df7d81c982f36ff2b8fc0353,99,2019-03-21 02:24:08,1201800
DUBS,00000000000000000027d79c21a184a77df6ee49a1dc6b52af11813d9f67c4,55,2019-03-21 01:11:00,1245109
