name,value,min,max
G,-0.024060479686175973,-0.042711974326083646,0.03160314116069718
A,-0.007625450967530312,-0.04167352989622797,0.04060673771055345
F,-0.020008762961881144,-0.033941274405932975,0.040852297207316646
A,-0.007740261241846347,-0.016167520980116423,0.03756838699842491
