date,mercury_dist,venus_dist,mars_dist,jupiter_dist,total,mercury_diff,venus_diff,mars_diff,jupiter_diff,total_diff
2020-08-27,0.7856322160685558,0.6224147100335148,0.9039032555252025,3.0021363601862725,5.314086541813546,0.8132752180113548,0.20559033056760578,0.061688305499689,-0.08812188839206737,0.5052166726605551
2020-08-28,0.8240847325940029,0.6250917204627129,0.9051169366624512,3.000445374136119,5.354738763855286,0.7937697718973119,0.2101849127898519,0.0674108558736429,-0.07535148514005045,0.4991174941681992
2020-08-29,0.8615861917042319,0.6278312918603807,0.9064288479447349,2.9990449571932136,5.394891288702562,0.7741372303693892,0.21509687411746908,0.07286680138204023,-0.0624035286711152,0.4929823409338232
2020-08-30,0.8981329190502155,0.6306373947133811,0.9078342701010801,2.9979389790298705,5.434543562894547,0.7544288397826091,0.2203205773889808,0.07806062689396037,-0.04928313697963674,0.4868403924502094
2020-08-31,0.9337231917162166,0.633513928715831,0.9093285536707698,2.997131207778676,5.4736968818814935,0.734684883293899,0.2258504643267633,0.08299620984392267,-0.03599483474474239,0.4807143491705806
2020-09-01,0.9683567844764593,0.6364647239179704,0.9109071066454679,2.9966253191337526,5.51235393417365,0.7149362775018682,0.231681066856419,0.08767674127943244,-0.022542741087075054,0.4746213147261468
2020-09-02,1.0020345838922966,0.6394935416264873,0.9125653817422664,2.99642490133323,5.5505184085942805,0.6952059728684227,0.2378069875923819,0.09210470536152474,-0.008930753104976537,0.46857357070206995
2020-09-03,1.0347582614638433,0.6426040747981807,0.9142988641819483,2.9965334561220844,5.588194656566056,0.6755101727716056,0.244222860057427,0.09628190742568636,0.0047494045359903845,0.46257925232289343
2020-09-04,1.0665299985473344,0.6457999476266854,0.9161030608718155,2.9969543959794844,5.62538740302532,0.6558594020980234,0.2509232853261318,0.1002095519948876,0.01841663264433195,0.45664294549312284
2020-09-05,1.097352255533781,0.6490847138686625,0.9179734917432688,2.997691038192756,5.662101499338468,0.6362594209224505,0.2579027330542862,0.10388836245982809,0.032228996122935304,0.45076620248835364
2020-09-06,1.1272275792818303,0.6524618536033486,0.9199056836522247,2.998746596755962,5.698341713293366,0.6167120141838814,0.2651554184743215,0.1073187234252534,0.04618197576541233,0.4449479971529151
