pred_price,direction,date
13.59,1.0,2019-09-13
13.45,-1.0,2019-10-03
13.60,1.0,2019-10-23
13.12,-1.0,2019-11-15
13.81,1.0,2019-12-13
13.77,-1.0,2019-12-25
14.03,1.0,2020-01-19
13.49,-1.0,2020-02-11
14.10,1.0,2020-03-07
13.93,-1.0,2020-03-29
13.99,1.0,2020-04-12
13.23,-1.0,2020-05-10
13.63,1.0,2020-05-31
13.36,-1.0,2020-06-24
13.51,1.0,2020-07-13
13.05,-1.0,2020-08-04
13.84,1.0,2020-09-03
13.83,-1.0,2020-09-12
14.13,1.0,2020-10-09
13.63,-1.0,2020-10-31
14.53,1.0,2020-12-01
14.52,-1.0,2020-12-08
14.83,1.0,2021-01-05
14.25,-1.0,2021-01-27
14.94,1.0,2021-02-21
14.79,-1.0,2021-03-13
14.94,1.0,2021-04-01
14.25,-1.0,2021-04-26
14.91,1.0,2021-05-20
14.74,-1.0,2021-06-09
14.88,1.0,2021-06-28
14.20,-1.0,2021-07-22
15.04,1.0,2021-08-17
14.89,-1.0,2021-09-06
