pred_price,direction,date
14.56,1.0,2019-01-06
13.52,-1.0,2019-02-25
14.41,1.0,2019-04-01
13.43,-1.0,2019-05-25
14.03,1.0,2019-06-23
13.99,-1.0,2019-07-10
13.99,1.0,2019-07-18
13.39,-1.0,2019-08-19
14.38,1.0,2019-10-18
13.78,-1.0,2019-11-15
14.86,1.0,2020-01-10
13.89,-1.0,2020-02-12
14.66,1.0,2020-03-12
12.73,-1.0,2020-05-12
13.28,1.0,2020-06-09
12.32,-1.0,2020-08-03
14.25,1.0,2020-10-02
13.42,-1.0,2020-10-31
