get_type,hash,hash_get,date,size
DUBS,00000000000000000005319ddac08955363c33891e9342514e91b2cc89a65b,55,2020-03-03 05:56:29,874730
DUBS,00000000000000000009c820a3e38e652a41324c8a4bc3dd848ff1e245462c,44,2020-03-03 07:12:30,1250666
DUBS,0000000000000000000d0c2b5bc4155b1cb44637ebb6edf687faa1d1932a3f,88,2020-03-03 11:01:52,1384658
DUBS,00000000000000000005dd9793ab3514b03a58b4326556c19eec88b6b06ad3,99,2020-03-03 11:16:53,1185237
DUBS,0000000000000000000daf8ce2c3d04c65bcac2bf5bfe6933a52c555808405,aa,2020-03-03 17:05:52,1264670
DUBS,0000000000000000000b7ae4970d626cbe8ef46710e695496ae5bebbbf9751,77,2020-03-03 18:27:11,1295363
DUBS,000000000000000000058027e36d2387c5ba9508b85dbcf69fec7d5440e3f6,33,2020-03-03 21:29:13,1122005
DUBS,00000000000000000010a341ef9e69d7369f18669550fb4a04d8af45ba59b0,11,2020-03-03 21:49:11,1043916
