name,value,min,max
G,0.014166063058337786,-0.013409340129041825,0.014166063058337786
A,0.014103939904951845,-0.010091812732377137,0.024577934825284586
F,0.007977916641388028,-0.02035600725089881,0.016633460121958654
A,-0.009446786543921504,-0.009446786543921504,0.02166459263597087
