pred_price,direction,date
19.74,-1.0,2019-09-30
20.02,1.0,2019-10-26
19.72,-1.0,2019-11-14
20.31,1.0,2019-12-11
20.26,-1.0,2019-12-25
20.59,1.0,2020-01-21
20.23,-1.0,2020-02-10
20.78,1.0,2020-03-07
20.67,-1.0,2020-03-25
20.84,1.0,2020-04-16
20.33,-1.0,2020-05-09
20.74,1.0,2020-05-31
20.54,-1.0,2020-06-22
20.74,1.0,2020-07-14
20.35,-1.0,2020-08-04
21.01,1.0,2020-08-31
20.97,-1.0,2020-09-13
