name,value,min,max
G,0.006326344440900966,-0.020240953554812924,0.017726674743390625
A,0.006143344709897747,-0.012074114511415934,0.023801663805625095
F,0.008337396392003926,-0.023798191337458308,0.013383220607281476
A,0.008838981046656924,-0.021606475716064888,0.014436103201311612
