name,value,min,max
G,0.025410067486953514,-0.01965483745040908,0.026101340111769566
A,0.006172465960665674,-0.010364683301343547,0.06833462632531684
F,0.10816380800425485,-0.022241811893944585,0.10816380800425485
A,0.03027364211610184,-0.026869936320509935,0.04802745501543404
