get_type,hash,hash_get,date,size
DUBS,000000000000000000057fca41252df1f4b92884e2fdf561bb9e6030deaec7,22,2020-10-03 03:50:20,2178469
DUBS,00000000000000000008886006bc1e383e6635c9de2495c444f5d648bdc564,77,2020-10-03 04:46:40,1628454
DUBS,00000000000000000008b1cdea9622c58995ba45bb14d9eb3d577ac02fec4e,dd,2020-10-03 05:53:41,1230374
DUBS,0000000000000000000901f086b26551da3e2730f546ebe3597a8ee4f64401,88,2020-10-03 07:12:29,1291943
DUBS,00000000000000000004095c8ace8749dabedd6dca82d5864724a5332a27df,aa,2020-10-03 09:42:45,1498417
DUBS,00000000000000000000086586d8ed039d44df3820c6335d9dbd61b888a3ad,55,2020-10-03 14:39:49,1152470
DUBS,000000000000000000053572996d43b820bdcb47ff6808e01d1a619ff36bd2,66,2020-10-03 16:53:02,1338906
DUBS,00000000000000000006eaab04b2ee44f2e8d543fee93c8858647433dc317f,33,2020-10-03 18:26:29,1112232
DUBS,0000000000000000000b6f2810320408e2cb6d0acd86efcfd5bce590b7310c,aa,2020-10-03 19:31:22,1345977
DUBS,00000000000000000007aaf9463bca8fee5e467fd5c833b5f39c4c23b05c23,77,2020-10-03 21:16:10,1231437
