name,value,min,max
G,-0.005875984423839187,-0.02063690343777258,0.011701400751622959
A,-0.0031726594678836983,-0.031269841269841225,0.019170899557594545
F,0.0010504782440425853,-0.024012518886250778,0.011492994746059582
A,0.004296384427258992,-0.023767529897616768,0.019463966010207612
