name,value,min,max
G,-0.00041909977368614904,-0.04827295854383884,0.014692179543893014
A,0.010289769367238355,-0.043988745806730845,0.010289769367238355
F,0.003529411764705781,-0.022397051527393796,0.03223693785475201
A,-0.0034324392560443062,-0.05865625493692017,0.01845480700071933
