pred_price,direction,date
19.16,-1.0,2019-02-23
19.58,1.0,2019-03-18
19.42,-1.0,2019-04-08
19.76,1.0,2019-05-04
19.46,-1.0,2019-05-24
19.76,1.0,2019-06-13
19.52,-1.0,2019-07-05
19.92,1.0,2019-08-02
19.74,-1.0,2019-08-18
20.19,1.0,2019-09-10
20.02,-1.0,2019-09-30
20.49,1.0,2019-10-29
20.30,-1.0,2019-11-14
20.75,1.0,2019-12-07
20.59,-1.0,2019-12-26
21.06,1.0,2020-01-24
20.81,-1.0,2020-02-10
