pred_price,direction,date
84.38,-1.0,2020-02-12
84.68,1.0,2020-02-27
83.77,-1.0,2020-03-29
84.10,1.0,2020-04-18
83.24,-1.0,2020-05-13
83.31,1.0,2020-05-22
82.11,-1.0,2020-06-26
82.49,1.0,2020-07-18
82.15,-1.0,2020-08-04
82.61,1.0,2020-08-24
82.23,-1.0,2020-09-16
82.99,1.0,2020-10-15
82.72,-1.0,2020-10-30
83.27,1.0,2020-11-20
82.80,-1.0,2020-12-12
84.10,1.0,2021-01-16
84.04,-1.0,2021-01-24
84.65,1.0,2021-02-14
84.12,-1.0,2021-03-09
85.99,1.0,2021-04-14
85.89,-1.0,2021-04-23
86.54,1.0,2021-05-13
85.74,-1.0,2021-06-08
86.71,1.0,2021-07-06
86.18,-1.0,2021-07-23
86.44,1.0,2021-08-06
84.60,-1.0,2021-09-10
84.94,1.0,2021-09-29
82.64,-1.0,2021-12-01
83.93,1.0,2022-01-01
83.69,-1.0,2022-01-14
84.15,1.0,2022-02-01
