get_type,hash,hash_get,date,size
DUBS,0000000000000000000480115ab6813407c80b162a9ccd84b1b6fdcb6b5cee,aa,2021-02-21 01:44:54,1527012
DUBS,0000000000000000000a1576780f47320d20fc78df735edf3fe0306cf32aaf,66,2021-02-21 04:02:41,1387819
DUBS,00000000000000000003c09bc5de5b3165786ffe19daa4f659b6b9e3a937c3,00,2021-02-21 06:33:49,1821893
DUBS,0000000000000000000bea2071a8f6e2b33e8c06cffa166f27cdf7d2d32ff1,aa,2021-02-21 07:16:36,2113661
DUBS,00000000000000000002fbdf719ccfe19e57877723cd94a8beab552baf072d,44,2021-02-21 07:18:38,2247126
DUBS,0000000000000000000c699b01bae5ee6d4145cba420000cc213c4e24371b5,cc,2021-02-21 09:57:54,1346466
TRIPS,000000000000000000045665c8a91295efb0fb7d2c224fa3d69cbc843937d,888,2021-02-21 12:41:13,1460277
DUBS,00000000000000000007644102720982c6aeb6b7ef5aed8c7f7fa144ec308d,44,2021-02-21 16:17:11,1583780
DUBS,0000000000000000000797ddcb5d00256e11b97c4736d3830ad073bc738649,bb,2021-02-21 16:44:36,1409354
DUBS,00000000000000000005a862be5ff7ec62b95b2b9bcd829e2bd650dc7199dc,00,2021-02-21 17:35:59,1445368
DUBS,00000000000000000003eba209b514e4e13100d22fc3e5ea9ccab1dbe677eb,44,2021-02-21 18:00:29,1499797
DUBS,0000000000000000000894420addae752315ac95aaeaa7dc6caa78f271206d,33,2021-02-21 19:02:34,1307639
