get_type,hash,hash_get,date,size
DUBS,000000000000000000038b2c50a0e22d127bf1c279ec19eb22d2f790a09b22,88,2021-02-16 02:39:49,1409330
DUBS,00000000000000000008418d2db421e37227a5a43f45bf99c3f84fc8796e7f,55,2021-02-16 07:46:06,1333705
DUBS,00000000000000000001a8ae07ffcdcec1f500c538469e12c4b1d967fb5718,ff,2021-02-16 16:44:13,1230422
DUBS,000000000000000000071f83cdaea8370bdd41a1d83a7306e0795643ba3898,aa,2021-02-16 16:52:16,1278687
DUBS,0000000000000000000537c789914b86fdfc1448bfcb51b3e49c774e919066,55,2021-02-16 18:39:19,1354592
DUBS,0000000000000000000b33cff20e57fce80583a9c8375a17b3712c13fe18eb,22,2021-02-16 19:10:07,1246101
DUBS,00000000000000000000a69575df7dc1eceae90bbdc4c4bbe4a692c2c5adfe,44,2021-02-16 19:24:39,1227616
DUBS,0000000000000000000aa2858b41b836f58d22b664bc2b7cfe9136ba26414d,33,2021-02-16 19:25:11,1238129
DUBS,00000000000000000005acb31b2f83ef6f736a600b9b11148627763ce3f12d,33,2021-02-16 20:45:52,1187951
DUBS,000000000000000000080c9e54701f5841c456321a21b49209de355019ae7c,11,2021-02-16 21:11:01,1357850
