name,value,min,max
G,0.006699334364944853,-0.009494383047569332,0.023837842886944793
A,-0.0016198704103671524,-0.011954395463257383,0.05153244557176073
F,0.0015005797694562784,-0.035174887302161784,0.0822234883555304
A,0.0005294117647058894,-0.012159158592036201,0.02849552815039047
