get_type,hash,hash_get,date,size
DUBS,0000000000000000000474bc490a6bcaf771d8bbda5258a4b4ef26325d686a,dd,2019-01-17 23:06:27,153552
DUBS,00000000000000000015869ed13a3c1d899ad5802697b03718700871aba137,ff,2019-01-17 20:26:21,1245459
DUBS,0000000000000000000e139a9c037ab25d74474671d82f397ff1eb6172d76a,bb,2019-01-17 11:00:29,1236756
DUBS,0000000000000000002641388da4461209a164eb2eee80175c5ea354bf7531,ee,2019-01-17 10:08:33,1221452
DUBS,00000000000000000000327729864663e619d0eb5c40216b8444e29d1446ce,22,2019-01-17 09:39:59,1209412
DUBS,0000000000000000002a4eb97c585e629799131db3bdee21abf85ce890d233,11,2019-01-17 08:51:56,1092332
