get_type,hash,hash_get,date,size
DUBS,00000000000000000002f6d334dcb92b08012c1291e0bf01722d1efc07b333,ff,2019-09-16 19:22:20,1048142
DUBS,0000000000000000000c39b8ab18c958797faf91340f10b3a90919c996e935,33,2019-09-16 18:43:55,1201521
DUBS,00000000000000000007f5bd680f2c1cf4b076ee4a6444accb7626cba4baeb,99,2019-09-16 15:31:59,1103942
DUBS,00000000000000000009cb7d091552b1a99b03c67f6b927672e3ae2a502d51,cc,2019-09-16 14:48:31,1146157
DUBS,0000000000000000000ef30fec4195a2ce5c468ac14c040d06389f22e9d334,66,2019-09-16 10:54:18,1338291
DUBS,00000000000000000001ed4a5307a3d7d2575cfc782538980dbfbf0b6f8607,cc,2019-09-16 10:34:23,1225444
DUBS,0000000000000000001373a4844cfc45db22e5f5f273c92d5442b00ddc1324,22,2019-09-16 09:46:13,1160109
DUBS,000000000000000000063ae83a14eb0e6694074112d7940aeb42963d69c823,44,2019-09-16 09:43:22,1140691
TRIPS,00000000000000000012356f4ee560fc3ffcfb146bdb449326ab05e6a0923,ccc,2019-09-16 01:20:56,53382
