name,value,min,max
G,0.010932446999640577,-0.004317100668188245,0.011036975257158854
A,-0.0034092048531033647,-0.007262425959309815,0.023518489865387515
F,0.008494697409380914,-0.005252825383350146,0.04235371973749502
A,-0.0035919278069430627,-0.0035919278069430627,0.00875020725582587
