pred_price,direction,date
141.67,1.0,2020-06-16
138.59,-1.0,2020-08-07
139.93,1.0,2020-09-06
136.55,-1.0,2020-11-02
138.60,1.0,2020-12-18
136.73,-1.0,2021-01-27
139.67,1.0,2021-03-18
137.56,-1.0,2021-04-26
139.51,1.0,2021-06-01
136.39,-1.0,2021-07-24
137.82,1.0,2021-08-25
134.21,-1.0,2021-10-20
135.78,1.0,2021-11-26
133.32,-1.0,2022-01-14
136.10,1.0,2022-03-07
134.50,-1.0,2022-04-11
