name,value,min,max
G,-0.029218610863757766,-0.04827295854383884,0.037547040711597646
A,-0.03565705128205121,-0.043988745806730845,0.038452708907254385
F,-0.015827544224020662,-0.022397051527393796,0.014039192746417184
A,-0.04123141026018273,-0.05865625493692017,0.060913609287855275
