get_type,hash,hash_get,date,size
DUBS,0000000000000000000854075ccec2dfd4323e01a49f0c1e4b4ba71a2648ec,88,2020-03-27 02:08:30,1279112
DUBS,0000000000000000000b618d0c6509b723394bd15c2fdd9d03bfd2729cb5e9,bb,2020-03-27 03:29:48,1611782
DUBS,0000000000000000000c4442bab4c000caed889421dd7686ea61effeb6872a,99,2020-03-27 13:41:00,1157002
DUBS,0000000000000000001253e90eb1d5e78c5b74cb9989961ff54c8876426006,aa,2020-03-27 14:43:01,1291970
DUBS,00000000000000000013942c7a2e78f50d8d0caca1f117cb46eb646d400bd3,aa,2020-03-27 16:54:34,1267507
DUBS,0000000000000000000393c225cd7d1afbb36c654394d74bf13ae6b502551c,33,2020-03-27 18:23:04,1041849
DUBS,000000000000000000000e3a370e4d0ceb05e5dc4c85fa4f9190bfca920057,55,2020-03-27 19:43:04,1143771
DUBS,0000000000000000000523c4c0190ce31d2b967d4140448095eec1de20f4bf,77,2020-03-27 20:00:53,1348521
DUBS,00000000000000000006dbe69a8f51545c7e37e642df6dd56074fe8d55e27e,66,2020-03-27 20:22:09,1311231
DUBS,000000000000000000011617feb45d82b2181116302bc08054607da6682ac2,44,2020-03-27 21:29:59,1369779
