name,value,min,max
G,0.006567022797861144,-0.026321623994536858,0.027792895758499192
A,0.015230071289695335,-0.023373570233735652,0.035719281883889176
F,-0.005615801704105139,-0.02822732404968009,0.03426263678999475
A,-0.00377812415288703,-0.033307310575248494,0.0402766145542528
