date,mercury_dist,venus_dist,mars_dist,jupiter_dist,total,mercury_diff,venus_diff,mars_diff,jupiter_diff,total_diff
2018-10-15,1.836437593245799,0.3346521095904157,1.6307506378307022,1.9951707236699097,5.797011064336827,0.39086762932793195,-0.2629440667448232,0.0002014104102045534,-0.33361708030567316,0.09884429840856783
2018-10-16,1.8543970293735823,0.3312653267137261,1.6306614775023502,1.9876246863477711,5.803948519937429,0.37073405869602216,-0.26185293609600463,-0.004556630751077442,-0.3362565404331833,0.08517629003699957
2018-10-17,1.8713764418147967,0.3278995512777546,1.6304784148027647,1.9800215386130786,5.8097759465083945,0.3505035705918962,-0.260228722134798,-0.009355608505772826,-0.33880141914611617,0.07154763999278906
2018-10-18,1.887370346253862,0.32456222227701526,1.6302004041851696,1.972363412610067,5.814496385326114,0.3301598705495044,-0.25802935392661736,-0.014208020009294315,-0.3412512880660224,0.057956329955481396
2018-10-19,1.9023724589408388,0.32126133405583873,1.6298264664438937,1.9646524475483642,5.818112706988936,0.30968645596026806,-0.25521189397433336,-0.01911047483092119,-0.34360583235421127,0.04440026438408465
2018-10-20,1.9163756947696562,0.31800544750518056,1.6293556859339118,1.956890787215023,5.8206276154237715,0.28906678454474355,-0.2517325390869679,-0.024059724638117553,-0.345864848037506,0.03087739692971087
2018-10-21,1.9293721730122557,0.31480369968687283,1.6287872087295232,1.9490805762489005,5.822043657677552,0.26828443239259875,-0.24754674196367105,-0.029052615200999627,-0.34802829715893446,0.01738580146043837
2018-10-22,1.9413532303244925,0.3116658097568896,1.6281202402476005,1.9412239540100718,5.822363234339054,0.24732324407244252,-0.24260949733964837,-0.034086113756024126,-0.35009641494461585,0.0039236798008153795
2018-10-23,1.9523094405471466,0.3086020783610129,1.6273540407127471,1.933323045695569,5.821588605316475,0.22616747290232256,-0.23687584667488057,-0.03915741929743904,-0.35206983250932933,-0.01247608916467053
2018-10-24,1.9622306414049735,0.30562337756610414,1.6264879167888922,1.9253799508226863,5.819721886582656,0.20480192334494002,-0.23030160990442727,-0.04426415849550763,-0.35394969415962996,-0.030065164988222766
2018-10-25,1.9711059688392554,0.30274112862600977,1.6255212082704906,1.917396730284955,5.816765036020711,0.18321210858492598,-0.2228443260174429,-0.04940463818044444,-0.3557377209965734,-0.04762270736335235
