date,mercury_dist,venus_dist,mars_dist,jupiter_dist,total,mercury_diff,venus_diff,mars_diff,jupiter_diff,total_diff
2018-12-04,1.6909194436907187,0.38725367890856177,1.4961474363540195,1.5887536754719236,5.163074234425223,0.1362609424019197,0.6157028620854976,-0.2808635770113108,-0.3497806059847109,0.01347493823650494
2018-12-05,1.7004410535041294,0.39532378488302045,1.4905338674283164,1.5809527398268965,5.167251445642362,0.19655322284783516,0.6336226792192814,-0.2868872430481202,-0.3476149825608477,0.051286721625427904
2018-12-06,1.7127705590966338,0.40361315059659286,1.4848024052667887,1.5732025802377743,5.1743886951977895,0.254516211839922,0.6508378116824569,-0.292912298738604,-0.3453523670758588,0.08762930866854536
2018-12-07,1.7277479571918557,0.4121130331947884,1.4789531112725713,1.5655054207498567,5.184319522409073,0.30917627619487237,0.6673665007576659,-0.29893421635840767,-0.3429906466240649,0.12192813439874824
2018-12-08,1.7451763625213337,0.4208149422230546,1.4729861432417806,1.5578635239580203,5.196840971944189,0.3597720662510727,0.6832285635731464,-0.3049480696445591,-0.3405281034101884,0.153735126923784
2018-12-09,1.7648327333711489,0.42971064928181824,1.466901758770451,1.550279179735674,5.2117243211590925,0.4057636382643841,0.6984445753206822,-0.310948758219074,-0.33796352188433004,0.1827339218344688
2018-12-10,1.7864781532872689,0.43879218958015426,1.460700314605738,1.5427546928892568,5.228725350362418,0.44682329225630124,0.7130352331780285,-0.31693121486141024,-0.3352962366205496,0.20873425038197477
2018-12-11,1.80986702129931,0.4480518580787226,1.454382263231721,1.5352923710291313,5.2475935136388845,0.48281304071654174,0.7270209314864438,-0.32289054683712304,-0.33252612267409287,0.2316584408211905
2018-12-12,1.834754762582475,0.45748220259037825,1.4479481478639518,1.5278945138405058,5.268079626877311,0.513754066220961,0.7404215228830254,-0.3288221172204898,-0.32965353319522034,0.2515232130315248
2018-12-13,1.860903906076421,0.46707601564710904,1.4413985974996615,1.5205634044382943,5.289941923661486,0.5397930107581761,0.7532562214392043,-0.33472154205013394,-0.3266792065674809,0.26841963955807424
2018-12-14,1.8880885584076075,0.47682632630990174,1.434734322954647,1.5133013028666369,5.312950510538793,0.5611688708527959,0.7655435981797554,-0.34058463990366294,-0.32360417084020754,0.2824934935847225
