get_type,hash,hash_get,date,size
DUBS,000000000000000000020c4438cfdd411f6a68815047be31610ee063516fe7,55,2020-04-27 03:22:37,1188204
DUBS,000000000000000000073663a2054d642b30c373de96daf3dc7147b28b630f,cc,2020-04-27 06:36:22,1283714
DUBS,00000000000000000001fc0ec89ef61abd7c53ccc1ac1f9613d7b3dc75b0af,cc,2020-04-27 06:52:02,1319004
DUBS,00000000000000000004b18e7290beaeae45a61bea9df10b2030b170025fbe,11,2020-04-27 08:05:26,1248174
DUBS,000000000000000000002ca7ad301a1212e0b276941634317e4e8959a32864,88,2020-04-27 10:34:15,1351872
DUBS,0000000000000000000c01382585a2b02ae8094501ceb79ea32dcf9850c56c,ee,2020-04-27 11:47:31,1210382
DUBS,000000000000000000098cb0e6c0e0ddc9952f704765a420584178c2c8c68a,66,2020-04-27 13:59:14,1265366
DUBS,0000000000000000000015fb28f9f82042fd92cfac36575f23d2452aa02e25,ee,2020-04-27 14:17:48,1114353
DUBS,0000000000000000000bd3050a3ff338c6881b62d35b29fdbcdda94d78e010,aa,2020-04-27 19:39:54,1280667
DUBS,00000000000000000007bea3c685c0da632d7e9fd3d20d486165aaf85ae9c4,aa,2020-04-27 21:18:08,1212377
