name,value,min,max
G,0.08820451244939531,-0.03884549815644456,0.08820451244939531
A,0.03245028358101809,-0.030910338352652333,0.03245028358101809
F,0.05992017932316451,-0.04174147217235191,0.06721311475409819
A,0.02427746663900998,-0.027360346923684387,0.02427746663900998
