get_type,hash,hash_get,date,size
DUBS,00000000000000000006091795a1e1b3a4df61851d0ae451644cbe2dbde0e2,44,2020-04-29 06:34:26,1277844
DUBS,0000000000000000000a8c273e6a0aa700bba876e61a909063cfe438411c40,88,2020-04-29 07:56:05,487044
DUBS,0000000000000000000f56df7b172f761c71579a9b30bed38f1bf615cc7099,33,2020-04-29 11:43:24,1270018
TRIPS,0000000000000000000ede824646cf7d5c5e90acf9b7f1f8b3a9bc63cf197,bbb,2020-04-29 15:24:35,1290425
DUBS,0000000000000000000376b35bfae2127bcc078ffa5b2b745051e56d86dbd2,bb,2020-04-29 15:58:10,1182452
