name,value,min,max
G,-0.014763623861096753,-0.023489772673018883,0.013110013759577654
A,-0.044338777904714854,-0.044338777904714854,0.028289367211522976
F,-0.03636710733546511,-0.06137167943376787,0.024978189999540934
A,0.07379134860050884,-0.01788745407275316,0.07379134860050884
