date,mercury_dist,venus_dist,mars_dist,jupiter_dist,total,mercury_diff,venus_diff,mars_diff,jupiter_diff,total_diff
2020-05-12,1.4406154501827073,0.37813888667626916,1.750150950917017,3.7932106499564715,7.362115937732465,-0.949028974840238,-0.32459880620468656,-0.7640219408110045,-0.21048280170238998,-0.9990401844140747
2020-05-13,1.3944232785309718,0.37426363489663056,1.7352486244934395,3.788334408908325,7.292269946829367,-0.9549166152787804,-0.29961945998779194,-0.761598797351157,-0.21728860793699245,-1.0
2020-05-14,1.3482030971810102,0.3707143083929198,1.7203960340876294,3.7833067791606037,7.222620218822163,-0.9554956511904656,-0.27442017985766864,-0.759056986747899,-0.22403459105455098,-0.9971900621158551
2020-05-15,1.3022138984450153,0.3674928880903474,1.7055955746853,3.7781292007576144,7.153431561978277,-0.9507206183649816,-0.24906774226175848,-0.7563927779239148,-0.23071640482124472,-0.9905888075934993
2020-05-16,1.2567118031211315,0.36460044682082554,1.6908496992542301,3.7728032106511176,7.084965159847305,-0.9406508787326752,-0.22363235745713728,-0.7536032076458026,-0.2373297309752028,-0.9802481322938037
2020-05-17,1.2119456488656588,0.36203711005243655,1.6761609078909034,3.767330440265524,7.017474107074523,-0.9254369944539653,-0.19818727194628524,-0.7506858673523878,-0.24387035975106777,-0.9662838467911032
2020-05-18,1.1681534109543394,0.3598020258869419,1.6615317403823784,3.761712613407374,6.951199790631033,-0.9053035201948341,-0.17280805190810877,-0.7476387286158134,-0.25033417453848017,-0.9488635723621667
2020-05-19,1.1255595057998913,0.3578933472629058,1.6469647705275687,3.7559515454181245,6.88636916900849,-0.8805307541773233,-0.1475716395070644,-0.7444600532250524,-0.25671709647950447,-0.9281938846352265
2020-05-20,1.0843729195445218,0.3563082281789155,1.6324626009571532,3.7500491438267614,6.823192892507352,-0.8514376816571978,-0.12255526891359907,-0.7411483677029505,-0.2630150176353238,-0.9045082714738257
2020-05-21,1.044786020966579,0.3550428344511429,1.6180278570013447,3.744007409980961,6.761864122400027,-0.8183678283074024,-0.09783534256515589,-0.7377025119663552,-0.26922375738146204,-0.8780571270355432
2020-05-22,1.0069738690581271,0.35409236855885495,1.603663178920002,3.7378284408492264,6.702557857386211,-0.7816790340375616,-0.0734863419405177,-0.7341217230202642,-0.27533905478905074,-0.849100488760993
