pred_price,direction,date
1.79,-1.0,2020-03-27
1.96,1.0,2020-04-17
1.53,-1.0,2020-05-10
1.77,1.0,2020-05-28
1.45,-1.0,2020-06-24
1.62,1.0,2020-07-15
1.33,-1.0,2020-08-04
1.66,1.0,2020-08-25
1.43,-1.0,2020-09-18
1.67,1.0,2020-10-12
1.42,-1.0,2020-10-31
1.75,1.0,2020-11-22
1.63,-1.0,2020-12-11
2.06,1.0,2021-01-09
1.77,-1.0,2021-01-27
2.24,1.0,2021-02-20
2.10,-1.0,2021-03-11
