date,mercury_dist,venus_dist,mars_dist,jupiter_dist,total,mercury_diff,venus_diff,mars_diff,jupiter_diff,total_diff
2018-12-17,1.9738253525678275,0.5069499143877659,1.4140614542156826,1.4919512044613241,5.3867879256326,0.600495595520648,0.7992980483944103,-0.3579153663534072,-0.3137880918327391,0.30970324715204484
2018-12-18,2.0032061723154757,0.517260949805042,1.406946981748468,1.4849871159450438,5.41240121981403,0.6065040391781105,0.8095687847590634,-0.36359247011566675,-0.31032450699451664,0.3144734178639035
2018-12-19,2.032734242704117,0.5276968715169205,1.399722534391273,1.4781028250022872,5.438256473614597,0.6095437129959572,0.8193742060055969,-0.3692128505561046,-0.3067686730034375,0.31744413564335333
2018-12-20,2.0622815499553915,0.5382519152803358,1.3923892962616908,1.4713003346356275,5.464223096133045,0.6099408167864077,0.8287270489159334,-0.3747727154428165,-0.3031235838593498,0.3188114920289462
2018-12-21,2.091734749210504,0.5489204507668967,1.3849485127569778,1.4645815599207461,5.490185272655125,0.6079981589476722,0.8376378277726546,-0.3802689330153155,-0.2993931576441883,0.31875690523257877
2018-12-22,2.120993900810524,0.5596969480846815,1.3774014685961498,1.4579483032194078,5.516040620710763,0.6039924610938457,0.8461144283241286,-0.3856994936944151,-0.29558241696651577,0.3174452928828015
2018-12-23,2.1499711587504393,0.5705759440956792,1.369749457662038,1.451402229752731,5.541698790260888,0.5981733707845746,0.8541620917396489,-0.39106392915385174,-0.2916974729065378,0.3150243860631282
2018-12-24,2.178589473377604,0.5815520160167912,1.36199374981577,1.4449448504561841,5.567080089666349,0.5907637555699817,0.8617839864767053,-0.3963634670476277,-0.2877452005374292,0.311625045857987
2018-12-25,2.20678135521792,0.5926197701427938,1.3541355632895156,1.4385775187992926,5.592114207449522,0.5819609648417766,0.8689823955785679,-0.40160074592700223,-0.28373261664842336,0.30736243947058023
2018-12-26,2.2344877300541146,0.6037738496761406,1.3461760513641798,1.4323014444756623,5.616739075570097,0.5719387135370851,0.8757602168437719,-0.40677908519350775,-0.2796661279919804,0.3023377776974648
2018-12-27,2.2616569002510927,0.6150089588852712,1.3381163075532287,1.4261177207152644,5.640899887404856,0.5608492753815612,0.8821222448554131,-0.4119015393238995,-0.2755509242666441,0.2966402143443168
