pred_price,direction,date
474.14,1.0,2019-04-29
471.03,-1.0,2019-05-23
474.74,1.0,2019-06-19
474.34,-1.0,2019-07-05
475.08,1.0,2019-07-25
471.91,-1.0,2019-08-19
475.68,1.0,2019-09-15
475.20,-1.0,2019-10-02
475.83,1.0,2019-10-21
472.65,-1.0,2019-11-15
477.15,1.0,2019-12-16
477.12,-1.0,2019-12-22
478.69,1.0,2020-01-19
475.99,-1.0,2020-02-10
