name,value,min,max
G,-0.00574691552841522,-0.00574691552841522,0.013418325982014645
A,-0.0003794280983754339,-0.002389358439428002,0.019840292679494942
F,0.0014918908513403828,-0.005141138810747847,0.020716769998487816
A,0.000551164669809534,-0.0037025454301766736,0.04446655227726204
