pred_price,direction,date
86.13,1.0,2021-01-05
84.96,-1.0,2021-01-30
85.20,1.0,2021-02-13
81.13,-1.0,2021-04-30
81.36,1.0,2021-05-15
81.00,-1.0,2021-06-07
81.77,1.0,2021-07-08
81.74,-1.0,2021-07-15
88.02,1.0,2021-10-05
87.95,-1.0,2021-10-14
89.78,1.0,2021-11-13
89.47,-1.0,2021-12-06
