name,value,min,max
G,0.0010538795942562906,-0.01825385278284508,0.02334701322389421
A,-0.005612493899463167,-0.005612493899463167,0.030827383452330936
F,-0.007628171012950324,-0.01972036727879789,0.034588583601111944
A,-0.007578301268071019,-0.008543691751112581,0.021490927050794584
