pred_price,direction,date
675.47,-1.0,2019-08-16
693.53,1.0,2020-01-30
693.52,-1.0,2020-02-02
703.70,1.0,2020-04-18
702.50,-1.0,2020-05-06
709.93,1.0,2020-07-13
707.82,-1.0,2020-08-03
712.43,1.0,2020-09-03
706.46,-1.0,2020-11-04
707.25,1.0,2020-11-19
