name,value,min,max
G,-0.015121694912235362,-0.02515908913332221,0.026101340111769566
A,-0.018939393939394034,-0.018939393939394034,0.06833462632531684
F,-0.023755058947738883,-0.023755058947738883,0.10816380800425485
A,-0.01578408301123002,-0.053818808073403,0.04802745501543404
