name,value,min,max
G,0.022973673786899518,-0.0021503884572696697,0.022973673786899518
A,0.019596415822831004,-0.0022487069934786774,0.019596415822831004
F,0.0008747425153079469,-0.011878712097530553,0.04180215015965083
A,0.022723763971138844,-0.015622948667454395,0.022723763971138844
