date,mercury_dist,venus_dist,mars_dist,jupiter_dist,total,mercury_diff,venus_diff,mars_diff,jupiter_diff,total_diff
2019-08-12,0.38351931597168126,1.4412394334720435,2.850310476879789,0.3706672712145872,5.0457364975381,-0.6572520791660708,-0.12865558083622308,0.790503414694585,-0.06027143143067757,-0.3314177392205538
2019-08-13,0.3505421371748782,1.4396808092903954,2.864440487606531,0.3700706640666751,5.024734098138479,-0.6817271159171233,-0.1205067856708054,0.78481578674994,-0.026585219101166197,-0.33826231646911986
2019-08-14,0.31669623355862286,1.438229093866043,2.878467245241308,0.3702485873941686,5.003641160060143,-0.6996859980076747,-0.11224101458022256,0.7790808543304311,0.0077843627865138995,-0.339720522391667
2019-08-15,0.2824701902185792,1.4368856502898806,2.892389871120938,0.371214808176463,4.982960519805861,-0.7075445100756889,-0.1038698545804853,0.7732971187819208,0.04227333878703293,-0.3330800993435149
2019-08-16,0.24863644422095296,1.4356516911600927,2.9062074553490977,0.37297802169341804,4.963473612423562,-0.6994346672817964,-0.09540494118514327,0.7674628453383414,0.07714274389660512,-0.3138539700408935
2019-08-17,0.2164454816146101,1.4345282784007114,2.919919053673769,0.37554173553325354,4.946434549222344,-0.6654739094402324,-0.08685792393613675,0.7615761257994047,0.1121656102728581,-0.2744292630208592
2019-08-18,0.18794027008152625,1.433516323448303,2.9335236856061364,0.37890431506368993,4.933884594199656,-0.5892795064974045,-0.07824043794151599,0.7556349474835891,0.14711695949132106,-0.20212818434613852
2019-08-19,0.16630872250713227,1.4326165876317043,2.9470203333877207,0.3830591851807418,4.929004828707299,-0.44718235697424985,-0.06956408894962991,0.7496372403415236,0.1817806398835387,-0.0785929620641512
2019-08-20,0.15569251675560036,1.431829682413025,2.9604079416240143,0.3879951722785395,4.935925313071179,-0.2194655696161687,-0.060840464075409134,0.7435809139749593,0.21595546137823324,0.08496792157100941
2019-08-21,0.1593595244270352,1.4311560691705092,2.9736854168527764,0.3936969615133815,4.9578979719637015,0.0756975123064892,-0.052081167222128834,0.7374638540077378,0.24946023976463003,0.2697746370515256
2019-08-22,0.17718011168056505,1.4305960582866342,2.9868516267690124,0.4001456384862111,4.994773435222423,0.36786782134140333,-0.04329787279771791,0.7312839030171191,0.282137490101613,0.45274742421427117
