get_type,hash,hash_get,date,size
DUBS,00000000000000000004c7d3d76b81b5622f6a6e588a5ed2466fbfa2f0c4bc,00,2019-08-16 21:11:40,1031629
DUBS,000000000000000000088bf4aa3ec5a967fc7b3a608475facbae7a98d8e50e,88,2019-08-16 21:11:52,1213325
DUBS,0000000000000000000ade77f3e6028ab963c544a3d593d21fd88425ad39bb,66,2019-08-16 12:17:07,1461374
DUBS,00000000000000000003b4d7346b66193fc0af09126ad27a138eb380db9cba,cc,2019-08-16 11:11:30,1097818
DUBS,0000000000000000000d4a37ffd4ab813ea2df0691891d960d7a04d2c098a4,00,2019-08-16 03:00:26,1205290
DUBS,00000000000000000007da20419df6b2ea97cb7fc0ceac8f63ec6e02eb9e85,11,2019-08-16 02:05:19,1567987
DUBS,000000000000000000145f5912eb01e3890a3178fc8d62dbc683772d7d68b9,22,2019-08-16 00:59:29,881540
