get_type,hash,hash_get,date,size
DUBS,0000000000000000000495962bdf1ea3f9e1155419a317e02cf2fa63007fc2,55,2020-07-19 05:24:20,1290289
DUBS,0000000000000000000e0ba30c25d9973fcb6620de533701674324a22170bd,77,2020-07-19 05:52:33,1233236
DUBS,00000000000000000001f6382f3fdf38dc306ca336f870f893cc2704fb5424,ee,2020-07-19 07:44:58,1315370
QUADS,0000000000000000000eb49900dbd6da178e632ed03df848fd322316731c,8888,2020-07-19 08:42:19,1349556
DUBS,000000000000000000031ac4e93d2bfbc768bf31377c7dc43b0abe4186e224,11,2020-07-19 09:13:08,1065014
DUBS,000000000000000000075d9f645f1273ddecc53aba60b5c39c031cbd1d429b,55,2020-07-19 09:23:23,1331833
DUBS,00000000000000000006634c1fcfab8d95dc237476b3eff9535f7b6a362d28,11,2020-07-19 12:39:33,1363713
DUBS,000000000000000000068cdd80608ebbcec6718706e0c6b9152d2b302eb47c,11,2020-07-19 13:35:22,1869856
DUBS,00000000000000000006e3149839b89430bf4003cba1b6b78f2b27b17f96ae,99,2020-07-19 14:24:15,1556578
DUBS,000000000000000000037b7e53fb234c36b6f7ab1c105504b0cbb340975824,bb,2020-07-19 16:12:58,1358021
DUBS,000000000000000000061a22c5714649a804fc7c87d23a5fe337712664e01b,77,2020-07-19 17:33:45,1719352
DUBS,00000000000000000008448ea8812d2aa8a15283d80a296118ba2bf2318ea0,99,2020-07-19 19:49:22,1226995
