name,value,min,max
G,-0.016323002425371658,-0.016323002425371658,0.014732557248333
A,-0.010771258464754796,-0.026626161543960025,0.024155244945039955
F,-0.018612215395735432,-0.018612215395735432,0.018152827180179187
A,-0.015064547652111293,-0.031550256574239044,0.01730580756067779
