date,mercury_dist,venus_dist,mars_dist,jupiter_dist,total,mercury_diff,venus_diff,mars_diff,jupiter_diff,total_diff
2018-09-18,0.9877840990930568,0.4190020986174981,1.6032035040794694,2.1708429471832633,5.180832648973288,0.9108511679095651,-0.2025050030765283,0.10616496412773162,-0.23469959583657116,0.4683841785140085
2018-09-19,1.031215837009695,0.4163454296789025,1.6050648374734686,2.1654746353331924,5.2181007394952585,0.8965551234177119,-0.20540335390094122,0.10341023166738163,-0.23921561656943083,0.45756800045666646
2018-09-20,1.0738846376289533,0.41365002977039494,1.6068747497358817,2.160006548054683,5.254415965189914,0.8808059184440229,-0.20839788250183996,0.1005534242050228,-0.24366167732353183,0.4458689719410211
2018-09-21,1.1157352516082155,0.41091487044809616,1.6086314747636417,2.1544402573716694,5.289721854191622,0.8639162092316448,-0.2114719264006539,0.09759849722903541,-0.24803768762505685,0.43347659642860564
2018-09-22,1.156724757147008,0.4081391437435972,1.6103333142963598,2.1487773340481056,5.3239745492350705,0.8461404714611883,-0.21460843928784015,0.09454921987993566,-0.2523437036195745,0.42054575272760303
2018-09-23,1.196820232806785,0.4053222676652741,1.611978634652069,2.1430193428637136,5.357140477987842,0.8276851411665896,-0.2177899495135265,0.09140917994566447,-0.2565799919685109,0.4072027165906899
2018-09-24,1.2359968352078692,0.4024638912532238,1.6135658623906204,2.13716783603948,5.389194424891193,0.8087169725560299,-0.2209985945997636,0.08818172428520969,-0.26074711229765135,0.39355009032898747
2018-09-25,1.274236210364709,0.3995638980111098,1.6150934777277717,2.1312243451541666,5.4201179312577565,0.7893699252597216,-0.22421624673157878,0.08486983386358837,-0.26484598443853236,0.3796708330660479
2018-09-26,1.3115251799254903,0.39662240701635193,1.6165600048426683,2.1251903722649548,5.449897964049465,0.7697508391410308,-0.22742469225844716,0.08147595115784997,-0.268877923892772,0.3656315595241719
2018-09-27,1.3478546545445844,0.3936397712319311,1.6179639988733254,2.1190673814282035,5.478525806078045,0.7499441229669213,-0.23060584805454123,0.07800179615213067,-0.27284462400281045,0.3514852585936526
2018-09-28,1.3832187349214298,0.39061657319482584,1.6193040300692707,2.1128567920386176,5.505996130224144,0.730015628379223,-0.2337419643474384,0.07444820839779137,-0.27674807492223436,0.3372735526661109
