date,mercury_dist,venus_dist,mars_dist,jupiter_dist,total,mercury_diff,venus_diff,mars_diff,jupiter_diff,total_diff
2018-12-22,2.120993900810524,0.5596969480846815,1.3774014685961498,1.4579483032194078,5.516040620710763,0.6039924610938457,0.8461144283241286,-0.3856994936944151,-0.29558241696651577,0.3174452928828015
2018-12-23,2.1499711587504393,0.5705759440956792,1.369749457662038,1.451402229752731,5.541698790260888,0.5981733707845746,0.8541620917396489,-0.39106392915385174,-0.2916974729065378,0.3150243860631282
2018-12-24,2.178589473377604,0.5815520160167912,1.36199374981577,1.4449448504561841,5.567080089666349,0.5907637555699817,0.8617839864767053,-0.3963634670476277,-0.2877452005374292,0.311625045857987
2018-12-25,2.20678135521792,0.5926197701427938,1.3541355632895156,1.4385775187992926,5.592114207449522,0.5819609648417766,0.8689823955785679,-0.40160074592700223,-0.28373261664842336,0.30736243947058023
2018-12-26,2.2344877300541146,0.6037738496761406,1.3461760513641798,1.4323014444756623,5.616739075570097,0.5719387135370851,0.8757602168437719,-0.40677908519350775,-0.2796661279919804,0.3023377776974648
2018-12-27,2.2616569002510927,0.6150089588852712,1.3381163075532287,1.4261177207152644,5.640899887404856,0.5608492753815612,0.8821222448554131,-0.4119015393238995,-0.2755509242666441,0.2966402143443168
2018-12-28,2.288243612634814,0.6263198953514527,1.3299573870923365,1.4200273574157205,5.664548252494323,0.5488256824585173,0.888075806050583,-0.4169700645442989,-0.2713907188184287,0.29034852541418676
2018-12-29,2.314208224313335,0.6377015809144385,1.3217003377259888,1.4140313117440648,5.687641454697827,0.5359837470149063,0.8936306565582892,-0.4219850436996301,-0.26718786135806033,0.28353237872945125
2018-12-30,2.3395159557094014,0.6491490849566605,1.3133462319393265,1.4081305108124182,5.710141783417806,0.5224238617568765,0.898798380661013,-0.4269452123931505,-0.2629436911528641,0.2762532310569865
2018-12-31,2.364136220513154,0.6606576378775735,1.3048961954391778,1.402325865169584,5.7320159189994895,0.508232587700553,0.9035916205765725,-0.4318478506755017,-0.25865894627550495,0.2685649932595364
2019-01-01,2.388042025477851,0.6722226361259193,1.2963514296929473,1.3966182745843967,5.753234365881115,0.49348409593143816,0.9080234136299167,-0.43668908672410434,-0.25433410708869836,0.2605146165644741
