name,value,min,max
G,-0.015471089335404642,-0.01640783028803572,0.02970781063125827
A,-0.035385543986721,-0.035385543986721,0.008215426745778132
F,-0.013082026164052185,-0.01344420503171373,0.0729729729729729
A,-0.02203461401037654,-0.02334012032000743,0.020389837408107958
