get_type,hash,hash_get,date,size
DUBS,0000000000000000001f4ebc6dcf83fbe95b3f88d7c6b2aa66df6d34900e7b,44,2018-09-29 21:57:18,176634
DUBS,0000000000000000000b496c5741fa3687a86bd6fb3da3184a9d4bc97ded95,66,2018-09-29 21:54:25,935450
DUBS,00000000000000000000b6d6d824e4dd756fbc15749b52099485b289b931b0,66,2018-09-29 19:29:05,287704
DUBS,00000000000000000019512005425a85216ade84ab9b6308eff0248104a5c6,aa,2018-09-29 16:20:27,444557
DUBS,00000000000000000007533e782c6589618a98dfde34b4d2ce8070dead6ff6,77,2018-09-29 15:37:56,1229037
DUBS,0000000000000000001f11138ef1b5d038c95cc6827122a4a7638a54660bb8,33,2018-09-29 13:22:23,1037499
TRIPS,0000000000000000000bb3996368443b2b4001fa634015d5c03583ba9558d,888,2018-09-29 10:34:00,1207290
DUBS,0000000000000000001dc885a441b1c79d741a986ebaa461ac8a313b5dd052,55,2018-09-29 10:14:40,1176735
DUBS,00000000000000000008afa8857f5a3a90d4980459d10c0e5704fe20285f81,aa,2018-09-29 08:42:26,1041895
DUBS,000000000000000000064258b91acc083a33069ba3d9d3ab337dabf49d28d4,88,2018-09-29 07:48:42,1205474
DUBS,000000000000000000253f9cbf31390b455fb25043b5d05e552a62854ed3cc,22,2018-09-29 03:03:05,1261128
DUBS,00000000000000000010660e16ebb4a6dd83243001b1d83b0c8fb13759f4f8,00,2018-09-29 02:26:33,1166824
