date,mercury_dist,venus_dist,mars_dist,jupiter_dist,total,mercury_diff,venus_diff,mars_diff,jupiter_diff,total_diff
2019-03-19,1.7883159636137722,1.4870476442267804,0.6887794061760887,1.2177524694570028,5.181895483473644,0.10291528132491358,0.5793407859589751,0.039025373861700643,-0.030297660890749385,0.15208170237517568
2019-03-20,1.7943272965285004,1.4943020653837857,0.6899766304587924,1.2170539071038051,5.195659899474884,0.12409108135653123,0.5695793567314469,0.06651427456862316,-0.031128412189795042,0.16899594851601316
2019-03-21,1.8012352345891247,1.501431147539452,0.6916715402634463,1.216334138343449,5.210672060735472,0.14259957251520194,0.5597383913103564,0.09416422448532887,-0.03207338407394181,0.1843154428985569
2019-03-22,1.8089169320846625,1.5084338053646815,0.6938657738977618,1.215590507769667,5.226807019116773,0.15857217731853784,0.5498122115026447,0.12190519398000092,-0.033136682662128665,0.19810085627088675
2019-03-23,1.8172563814610623,1.5153089048837374,0.696559692914521,1.2148202880005805,5.2439452672599005,0.1721500548572232,0.5397969978275987,0.14966625028828923,-0.03432151523640325,0.21041898912309495
2019-03-24,1.8261446642100112,1.5220552981133186,0.6997523919957284,1.2140207131018967,5.261973067420955,0.18347954328354493,0.5296916504842843,0.17737700978035084,-0.03562959971849436,0.2213406792994464
2019-03-25,1.8354800158223192,1.5286718587504557,0.7034417338761814,1.2131890156481229,5.280782624097078,0.19270832157315568,0.5194978716993703,0.20496902907764883,-0.037061002557277706,0.23093888410237
2019-03-26,1.8451677369526287,1.5351575108707958,0.7076244037089958,1.2123224586456973,5.300272110178117,0.1999822348875799,0.5092196169393814,0.23237688519099345,-0.03861436768526166,0.23928688191769942
2019-03-27,1.85511998276123,1.5415112471796537,0.7122959759794135,1.2114183576690616,5.320345563589359,0.20544277980171816,0.49886227464831295,0.25953887266636627,-0.04028735263658071,0.24645668213742375
2019-03-28,1.8652554619238622,1.547732137382682,0.7174509883496529,1.21047409315527,5.340912680811467,0.20922523959305428,0.4884318904915209,0.2863973886533667,-0.04207706708922018,0.2525177590445642
2019-03-29,1.8754990738230295,1.553819329758459,0.7230830190259339,1.2094871152570443,5.361888537864466,0.2114574081315501,0.47793463360581817,0.31289912858688296,-0.043980404465760195,0.2575361612355086
