pred_price,direction,date
9.83,-1.0,2020-05-10
10.04,1.0,2020-05-25
9.33,-1.0,2020-06-23
9.89,1.0,2020-07-19
9.67,-1.0,2020-08-03
10.21,1.0,2020-08-25
9.83,-1.0,2020-09-18
10.24,1.0,2020-10-12
9.70,-1.0,2020-11-01
10.14,1.0,2020-11-21
9.80,-1.0,2020-12-13
10.42,1.0,2021-01-10
10.05,-1.0,2021-01-27
10.52,1.0,2021-02-16
10.03,-1.0,2021-03-12
10.58,1.0,2021-04-07
10.13,-1.0,2021-04-26
10.48,1.0,2021-05-13
9.79,-1.0,2021-06-10
10.25,1.0,2021-07-04
9.87,-1.0,2021-07-22
10.48,1.0,2021-08-12
10.04,-1.0,2021-09-05
10.36,1.0,2021-09-27
9.63,-1.0,2021-10-20
9.98,1.0,2021-11-06
9.55,-1.0,2021-11-30
10.20,1.0,2021-12-27
9.76,-1.0,2022-01-14
10.22,1.0,2022-02-02
9.58,-1.0,2022-03-01
10.03,1.0,2022-03-24
9.51,-1.0,2022-04-13
9.75,1.0,2022-04-28
