name,value,min,max
G,0.019502019439882945,-0.01461729981527582,0.019502019439882945
A,0.010511117528154701,-0.009835878080860061,0.011165672863322706
F,0.0051409104986064325,-0.015501968503937036,0.01686330224226329
A,0.019453236006171437,-0.001639849577707797,0.019453236006171437
