get_type,hash,hash_get,date,size
DUBS,0000000000000000001c90d49bde2cc629a10756bb0082bfe3e65788f7b839,aa,2019-03-03 22:48:32,455535
DUBS,00000000000000000016abdf36345b66cf4f7eaba089ecbe3aaaa386a3120d,cc,2019-03-03 11:41:45,1202113
DUBS,0000000000000000001a66abb1bc08348d97381b1a199877e3269f89f77a15,44,2019-03-03 09:37:15,1193874
DUBS,0000000000000000000fd942d7af607cf7d678da3b0679df7a0e2a418de9ba,55,2019-03-03 09:10:10,1182419
DUBS,0000000000000000001503b455c56265c475431de12b1b3980d4d40f5e235c,ee,2019-03-03 07:42:08,1235592
DUBS,000000000000000000032c1d0b19705385aa41bc0b919959305dfc1d32c985,00,2019-03-03 06:40:52,1074106
DUBS,0000000000000000001d61d5cc5ccf2992e41ad26d29c391d31626d973f081,88,2019-03-03 05:32:22,883137
DUBS,00000000000000000025d07679e513abfcf2a28d845f25b9646f0a5b731e64,77,2019-03-03 03:21:15,1112595
