pred_price,direction,date
287.08,-1.0,2021-07-12
312.93,1.0,2021-12-30
312.49,-1.0,2022-01-11
322.12,1.0,2022-03-23
319.99,-1.0,2022-04-11
325.79,1.0,2022-05-12
325.66,-1.0,2022-05-22
326.95,1.0,2022-06-16
323.46,-1.0,2022-07-09
328.44,1.0,2022-08-04
319.63,-1.0,2022-10-09
320.66,1.0,2022-10-23
