<?xml version="1.0" encoding="utf-8" standalone="no"?>
<!DOCTYPE svg PUBLIC "-//W3C//DTD SVG 1.1//EN"
  "http://www.w3.org/Graphics/SVG/1.1/DTD/svg11.dtd">
<!-- Created with matplotlib (https://matplotlib.org/) -->
<svg height="720pt" version="1.1" viewBox="0 0 720 720" width="720pt" xmlns="http://www.w3.org/2000/svg" xmlns:xlink="http://www.w3.org/1999/xlink">
 <metadata>
  <rdf:RDF xmlns:cc="http://creativecommons.org/ns#" xmlns:dc="http://purl.org/dc/elements/1.1/" xmlns:rdf="http://www.w3.org/1999/02/22-rdf-syntax-ns#">
   <cc:Work>
    <dc:type rdf:resource="http://purl.org/dc/dcmitype/StillImage"/>
    <dc:date>2021-04-12T00:14:41.969303</dc:date>
    <dc:format>image/svg+xml</dc:format>
    <dc:creator>
     <cc:Agent>
      <dc:title>Matplotlib v3.3.2, https://matplotlib.org/</dc:title>
     </cc:Agent>
    </dc:creator>
   </cc:Work>
  </rdf:RDF>
 </metadata>
 <defs>
  <style type="text/css">*{stroke-linecap:butt;stroke-linejoin:round;}</style>
 </defs>
 <g id="figure_1">
  <g id="patch_1">
   <path d="M 0 720 
L 720 720 
L 720 0 
L 0 0 
z
" style="fill:#ffffff;"/>
  </g>
  <g id="axes_1">
   <g id="patch_2">
    <path d="M 129.377 489.8 
L 709.2 489.8 
L 709.2 10.8 
L 129.377 10.8 
z
" style="fill:#ffffff;"/>
   </g>
   <g id="matplotlib.axis_1">
    <g id="xtick_1">
     <g id="line2d_1">
      <path clip-path="url(#p3385bda9c5)" d="M 155.732591 489.8 
L 155.732591 10.8 
" style="fill:none;stroke:#0000ff;stroke-linecap:square;stroke-width:0.1;"/>
     </g>
     <g id="line2d_2">
      <defs>
       <path d="M 0 0 
L 0 3.5 
" id="m3c5cecff81" style="stroke:#000000;stroke-width:0.8;"/>
      </defs>
      <g>
       <use style="stroke:#000000;stroke-width:0.8;" x="155.732591" xlink:href="#m3c5cecff81" y="489.8"/>
      </g>
     </g>
     <g id="text_1">
      <!-- 2021-04-11 21:27:15 -->
      <g transform="translate(160.732591 686.8)rotate(-90)scale(0.2 -0.2)">
       <defs>
        <path d="M 6.796875 6.5 
Q 12.296875 12.09375 16.796875 16.546875 
Q 21.296875 21 24.796875 24.75 
Q 28.296875 28.5 30.6875 31.796875 
Q 33.09375 35.09375 34.34375 38.34375 
Q 35.59375 41.59375 35.59375 45.09375 
Q 35.59375 48 34.84375 50 
Q 34.09375 52 32.75 53.25 
Q 31.40625 54.5 29.546875 55.09375 
Q 27.703125 55.703125 25.59375 55.703125 
Q 23.296875 55.703125 21.1875 55.046875 
Q 19.09375 54.40625 17.1875 53.15625 
Q 15.296875 51.90625 13.703125 49.90625 
Q 12.796875 48.5 12.59375 47.75 
Q 12.40625 47 12.5 46.203125 
L 12 45.703125 
L 11.296875 46.203125 
L 5.296875 50.796875 
Q 7.40625 54.703125 10.453125 57.390625 
Q 13.5 60.09375 17.34375 61.5 
Q 21.203125 62.90625 25.5 62.90625 
Q 30.90625 62.90625 35 60.703125 
Q 39.09375 58.5 41.5 54.5 
Q 43.90625 50.5 43.90625 45 
Q 43.90625 41 42.546875 37.25 
Q 41.203125 33.5 38.75 29.953125 
Q 36.296875 26.40625 33 22.796875 
Q 29.703125 19.203125 25.796875 15.34375 
Q 21.90625 11.5 17.703125 7.09375 
L 39.703125 7.09375 
Q 41.40625 7.09375 42.09375 7.296875 
Q 42.796875 7.5 43.40625 8.09375 
L 44.203125 8.09375 
L 44.203125 7.09375 
L 44.203125 0 
L 6.796875 0 
z
" id="Inconsolata-Medium-50"/>
        <path d="M 10.703125 16.5 
L 37.40625 49.796875 
L 39.59375 44.203125 
L 12.90625 11.203125 
z
M 25 -1.09375 
Q 18.703125 -1.09375 14.25 2.59375 
Q 9.796875 6.296875 7.390625 13.4375 
Q 5 20.59375 5 30.796875 
Q 5 40.796875 7.390625 47.9375 
Q 9.796875 55.09375 14.25 59 
Q 18.703125 62.90625 25 62.90625 
Q 31.296875 62.90625 35.75 59 
Q 40.203125 55.09375 42.59375 47.9375 
Q 45 40.796875 45 30.796875 
Q 45 20.59375 42.59375 13.4375 
Q 40.203125 6.296875 35.75 2.59375 
Q 31.296875 -1.09375 25 -1.09375 
z
M 25 5.796875 
Q 28.703125 5.796875 31.296875 8.6875 
Q 33.90625 11.59375 35.296875 17.1875 
Q 36.703125 22.796875 36.703125 30.796875 
Q 36.703125 38.5 35.296875 44.046875 
Q 33.90625 49.59375 31.296875 52.6875 
Q 28.703125 55.796875 25 55.796875 
Q 21.296875 55.796875 18.6875 52.6875 
Q 16.09375 49.59375 14.6875 44.046875 
Q 13.296875 38.5 13.296875 30.796875 
Q 13.296875 22.796875 14.6875 17.1875 
Q 16.09375 11.59375 18.6875 8.6875 
Q 21.296875 5.796875 25 5.796875 
z
" id="Inconsolata-Medium-48"/>
        <path d="M 22.296875 0 
L 22.296875 52.5 
L 10.09375 48.703125 
L 8.203125 53.796875 
L 24.59375 62.40625 
L 30.703125 62.40625 
L 30.703125 0 
z
" id="Inconsolata-Medium-49"/>
        <path d="M 10.90625 27.796875 
L 10.90625 35.40625 
L 39.296875 35.40625 
L 39.296875 27.796875 
z
" id="Inconsolata-Medium-45"/>
        <path d="M 30.703125 0 
L 30.703125 15.09375 
L 4.5 15.09375 
L 4.5 21 
L 32.5 62.40625 
L 39.296875 62.40625 
L 39.296875 22 
L 47.296875 22 
L 47.296875 15 
L 39.296875 15 
L 39.296875 0 
z
M 13.703125 22 
L 30.796875 22 
L 30.796875 48 
z
" id="Inconsolata-Medium-52"/>
        <path id="Inconsolata-Medium-32"/>
        <path d="M 23.703125 30.203125 
Q 21.09375 30.203125 19.1875 32.09375 
Q 17.296875 34 17.296875 36.5 
Q 17.296875 39.09375 19.1875 41 
Q 21.09375 42.90625 23.703125 42.90625 
Q 26.203125 42.90625 28.203125 41.046875 
Q 30.203125 39.203125 30.203125 36.5 
Q 30.203125 34 28.296875 32.09375 
Q 26.40625 30.203125 23.703125 30.203125 
z
M 23.703125 -1.09375 
Q 21 -1.09375 19.140625 0.75 
Q 17.296875 2.59375 17.296875 5.203125 
Q 17.296875 7.796875 19.1875 9.6875 
Q 21.09375 11.59375 23.703125 11.59375 
Q 26.203125 11.59375 28.203125 9.6875 
Q 30.203125 7.796875 30.203125 5.203125 
Q 30.203125 2.703125 28.34375 0.796875 
Q 26.5 -1.09375 23.703125 -1.09375 
z
" id="Inconsolata-Medium-58"/>
        <path d="M 14.5 0 
Q 17.40625 9.40625 20.453125 18.5 
Q 23.5 27.59375 26.75 36.59375 
Q 30 45.59375 33.5 54.703125 
L 7.40625 54.703125 
L 7.40625 62.296875 
L 43.59375 62.296875 
L 43.59375 57.59375 
Q 40.796875 50.59375 38.046875 43.5 
Q 35.296875 36.40625 32.796875 29.203125 
Q 30.296875 22 28.046875 14.75 
Q 25.796875 7.5 23.59375 0 
z
" id="Inconsolata-Medium-55"/>
        <path d="M 25 -1.09375 
Q 19 -1.09375 14.046875 1.40625 
Q 9.09375 3.90625 6.09375 8.59375 
L 12.40625 13.5 
L 13.203125 14.09375 
L 13.703125 13.59375 
Q 13.59375 12.796875 13.9375 12.09375 
Q 14.296875 11.40625 15.296875 10.09375 
Q 17.203125 8 19.546875 7 
Q 21.90625 6 25.203125 6 
Q 27.59375 6 29.6875 7 
Q 31.796875 8 33.34375 9.796875 
Q 34.90625 11.59375 35.796875 14.1875 
Q 36.703125 16.796875 36.703125 19.90625 
Q 36.703125 23.09375 35.796875 25.6875 
Q 34.90625 28.296875 33.296875 30.09375 
Q 31.703125 31.90625 29.5 32.90625 
Q 27.296875 33.90625 24.703125 33.90625 
Q 22.59375 33.90625 20.546875 33.25 
Q 18.5 32.59375 16.75 31.34375 
Q 15 30.09375 13.5 28.296875 
L 8.296875 30.09375 
L 10.40625 62.296875 
L 42.59375 62.296875 
L 42.59375 55.09375 
L 17.5 55.09375 
L 16.5 38.40625 
Q 18.09375 39.203125 19.6875 39.75 
Q 21.296875 40.296875 23 40.546875 
Q 24.703125 40.796875 26.296875 40.796875 
Q 30.40625 40.796875 33.796875 39.34375 
Q 37.203125 37.90625 39.75 35.203125 
Q 42.296875 32.5 43.640625 28.640625 
Q 45 24.796875 45 19.90625 
Q 45 13.40625 42.34375 8.703125 
Q 39.703125 4 35.25 1.453125 
Q 30.796875 -1.09375 25 -1.09375 
z
" id="Inconsolata-Medium-53"/>
       </defs>
       <use xlink:href="#Inconsolata-Medium-50"/>
       <use x="49.999985" xlink:href="#Inconsolata-Medium-48"/>
       <use x="99.999969" xlink:href="#Inconsolata-Medium-50"/>
       <use x="149.999954" xlink:href="#Inconsolata-Medium-49"/>
       <use x="199.999939" xlink:href="#Inconsolata-Medium-45"/>
       <use x="249.999924" xlink:href="#Inconsolata-Medium-48"/>
       <use x="299.999908" xlink:href="#Inconsolata-Medium-52"/>
       <use x="349.999893" xlink:href="#Inconsolata-Medium-45"/>
       <use x="399.999878" xlink:href="#Inconsolata-Medium-49"/>
       <use x="449.999863" xlink:href="#Inconsolata-Medium-49"/>
       <use x="499.999847" xlink:href="#Inconsolata-Medium-32"/>
       <use x="549.999832" xlink:href="#Inconsolata-Medium-50"/>
       <use x="599.999817" xlink:href="#Inconsolata-Medium-49"/>
       <use x="649.999802" xlink:href="#Inconsolata-Medium-58"/>
       <use x="699.999786" xlink:href="#Inconsolata-Medium-50"/>
       <use x="749.999771" xlink:href="#Inconsolata-Medium-55"/>
       <use x="799.999756" xlink:href="#Inconsolata-Medium-58"/>
       <use x="849.999741" xlink:href="#Inconsolata-Medium-49"/>
       <use x="899.999725" xlink:href="#Inconsolata-Medium-53"/>
      </g>
     </g>
    </g>
    <g id="xtick_2">
     <g id="line2d_3">
      <path clip-path="url(#p3385bda9c5)" d="M 272.107927 489.8 
L 272.107927 10.8 
" style="fill:none;stroke:#0000ff;stroke-linecap:square;stroke-width:0.1;"/>
     </g>
     <g id="line2d_4">
      <g>
       <use style="stroke:#000000;stroke-width:0.8;" x="272.107927" xlink:href="#m3c5cecff81" y="489.8"/>
      </g>
     </g>
     <g id="text_2">
      <!-- 2021-04-11 21:31:30 -->
      <g transform="translate(277.626677 709.2125)rotate(-90)scale(0.2 -0.2)">
       <defs>
        <path d="M 19.1875 8.296875 
L 53.609375 8.296875 
L 53.609375 0 
L 7.328125 0 
L 7.328125 8.296875 
Q 12.9375 14.109375 22.625 23.890625 
Q 32.328125 33.6875 34.8125 36.53125 
Q 39.546875 41.84375 41.421875 45.53125 
Q 43.3125 49.21875 43.3125 52.78125 
Q 43.3125 58.59375 39.234375 62.25 
Q 35.15625 65.921875 28.609375 65.921875 
Q 23.96875 65.921875 18.8125 64.3125 
Q 13.671875 62.703125 7.8125 59.421875 
L 7.8125 69.390625 
Q 13.765625 71.78125 18.9375 73 
Q 24.125 74.21875 28.421875 74.21875 
Q 39.75 74.21875 46.484375 68.546875 
Q 53.21875 62.890625 53.21875 53.421875 
Q 53.21875 48.921875 51.53125 44.890625 
Q 49.859375 40.875 45.40625 35.40625 
Q 44.1875 33.984375 37.640625 27.21875 
Q 31.109375 20.453125 19.1875 8.296875 
z
" id="DejaVuSans-50"/>
        <path d="M 31.78125 66.40625 
Q 24.171875 66.40625 20.328125 58.90625 
Q 16.5 51.421875 16.5 36.375 
Q 16.5 21.390625 20.328125 13.890625 
Q 24.171875 6.390625 31.78125 6.390625 
Q 39.453125 6.390625 43.28125 13.890625 
Q 47.125 21.390625 47.125 36.375 
Q 47.125 51.421875 43.28125 58.90625 
Q 39.453125 66.40625 31.78125 66.40625 
z
M 31.78125 74.21875 
Q 44.046875 74.21875 50.515625 64.515625 
Q 56.984375 54.828125 56.984375 36.375 
Q 56.984375 17.96875 50.515625 8.265625 
Q 44.046875 -1.421875 31.78125 -1.421875 
Q 19.53125 -1.421875 13.0625 8.265625 
Q 6.59375 17.96875 6.59375 36.375 
Q 6.59375 54.828125 13.0625 64.515625 
Q 19.53125 74.21875 31.78125 74.21875 
z
" id="DejaVuSans-48"/>
        <path d="M 12.40625 8.296875 
L 28.515625 8.296875 
L 28.515625 63.921875 
L 10.984375 60.40625 
L 10.984375 69.390625 
L 28.421875 72.90625 
L 38.28125 72.90625 
L 38.28125 8.296875 
L 54.390625 8.296875 
L 54.390625 0 
L 12.40625 0 
z
" id="DejaVuSans-49"/>
        <path d="M 4.890625 31.390625 
L 31.203125 31.390625 
L 31.203125 23.390625 
L 4.890625 23.390625 
z
" id="DejaVuSans-45"/>
        <path d="M 37.796875 64.3125 
L 12.890625 25.390625 
L 37.796875 25.390625 
z
M 35.203125 72.90625 
L 47.609375 72.90625 
L 47.609375 25.390625 
L 58.015625 25.390625 
L 58.015625 17.1875 
L 47.609375 17.1875 
L 47.609375 0 
L 37.796875 0 
L 37.796875 17.1875 
L 4.890625 17.1875 
L 4.890625 26.703125 
z
" id="DejaVuSans-52"/>
        <path id="DejaVuSans-32"/>
        <path d="M 11.71875 12.40625 
L 22.015625 12.40625 
L 22.015625 0 
L 11.71875 0 
z
M 11.71875 51.703125 
L 22.015625 51.703125 
L 22.015625 39.3125 
L 11.71875 39.3125 
z
" id="DejaVuSans-58"/>
        <path d="M 40.578125 39.3125 
Q 47.65625 37.796875 51.625 33 
Q 55.609375 28.21875 55.609375 21.1875 
Q 55.609375 10.40625 48.1875 4.484375 
Q 40.765625 -1.421875 27.09375 -1.421875 
Q 22.515625 -1.421875 17.65625 -0.515625 
Q 12.796875 0.390625 7.625 2.203125 
L 7.625 11.71875 
Q 11.71875 9.328125 16.59375 8.109375 
Q 21.484375 6.890625 26.8125 6.890625 
Q 36.078125 6.890625 40.9375 10.546875 
Q 45.796875 14.203125 45.796875 21.1875 
Q 45.796875 27.640625 41.28125 31.265625 
Q 36.765625 34.90625 28.71875 34.90625 
L 20.21875 34.90625 
L 20.21875 43.015625 
L 29.109375 43.015625 
Q 36.375 43.015625 40.234375 45.921875 
Q 44.09375 48.828125 44.09375 54.296875 
Q 44.09375 59.90625 40.109375 62.90625 
Q 36.140625 65.921875 28.71875 65.921875 
Q 24.65625 65.921875 20.015625 65.03125 
Q 15.375 64.15625 9.8125 62.3125 
L 9.8125 71.09375 
Q 15.4375 72.65625 20.34375 73.4375 
Q 25.25 74.21875 29.59375 74.21875 
Q 40.828125 74.21875 47.359375 69.109375 
Q 53.90625 64.015625 53.90625 55.328125 
Q 53.90625 49.265625 50.4375 45.09375 
Q 46.96875 40.921875 40.578125 39.3125 
z
" id="DejaVuSans-51"/>
       </defs>
       <use xlink:href="#DejaVuSans-50"/>
       <use x="63.623047" xlink:href="#DejaVuSans-48"/>
       <use x="127.246094" xlink:href="#DejaVuSans-50"/>
       <use x="190.869141" xlink:href="#DejaVuSans-49"/>
       <use x="254.492188" xlink:href="#DejaVuSans-45"/>
       <use x="290.576172" xlink:href="#DejaVuSans-48"/>
       <use x="354.199219" xlink:href="#DejaVuSans-52"/>
       <use x="417.822266" xlink:href="#DejaVuSans-45"/>
       <use x="453.90625" xlink:href="#DejaVuSans-49"/>
       <use x="517.529297" xlink:href="#DejaVuSans-49"/>
       <use x="581.152344" xlink:href="#DejaVuSans-32"/>
       <use x="612.939453" xlink:href="#DejaVuSans-50"/>
       <use x="676.5625" xlink:href="#DejaVuSans-49"/>
       <use x="740.185547" xlink:href="#DejaVuSans-58"/>
       <use x="773.876953" xlink:href="#DejaVuSans-51"/>
       <use x="837.5" xlink:href="#DejaVuSans-49"/>
       <use x="901.123047" xlink:href="#DejaVuSans-58"/>
       <use x="934.814453" xlink:href="#DejaVuSans-51"/>
       <use x="998.4375" xlink:href="#DejaVuSans-48"/>
      </g>
     </g>
    </g>
    <g id="xtick_3">
     <g id="line2d_5">
      <path clip-path="url(#p3385bda9c5)" d="M 388.483264 489.8 
L 388.483264 10.8 
" style="fill:none;stroke:#0000ff;stroke-linecap:square;stroke-width:0.1;"/>
     </g>
     <g id="line2d_6">
      <g>
       <use style="stroke:#000000;stroke-width:0.8;" x="388.483264" xlink:href="#m3c5cecff81" y="489.8"/>
      </g>
     </g>
     <g id="text_3">
      <!-- 2021-04-11 21:35:45 -->
      <g transform="translate(394.002014 709.2125)rotate(-90)scale(0.2 -0.2)">
       <defs>
        <path d="M 10.796875 72.90625 
L 49.515625 72.90625 
L 49.515625 64.59375 
L 19.828125 64.59375 
L 19.828125 46.734375 
Q 21.96875 47.46875 24.109375 47.828125 
Q 26.265625 48.1875 28.421875 48.1875 
Q 40.625 48.1875 47.75 41.5 
Q 54.890625 34.8125 54.890625 23.390625 
Q 54.890625 11.625 47.5625 5.09375 
Q 40.234375 -1.421875 26.90625 -1.421875 
Q 22.3125 -1.421875 17.546875 -0.640625 
Q 12.796875 0.140625 7.71875 1.703125 
L 7.71875 11.625 
Q 12.109375 9.234375 16.796875 8.0625 
Q 21.484375 6.890625 26.703125 6.890625 
Q 35.15625 6.890625 40.078125 11.328125 
Q 45.015625 15.765625 45.015625 23.390625 
Q 45.015625 31 40.078125 35.4375 
Q 35.15625 39.890625 26.703125 39.890625 
Q 22.75 39.890625 18.8125 39.015625 
Q 14.890625 38.140625 10.796875 36.28125 
z
" id="DejaVuSans-53"/>
       </defs>
       <use xlink:href="#DejaVuSans-50"/>
       <use x="63.623047" xlink:href="#DejaVuSans-48"/>
       <use x="127.246094" xlink:href="#DejaVuSans-50"/>
       <use x="190.869141" xlink:href="#DejaVuSans-49"/>
       <use x="254.492188" xlink:href="#DejaVuSans-45"/>
       <use x="290.576172" xlink:href="#DejaVuSans-48"/>
       <use x="354.199219" xlink:href="#DejaVuSans-52"/>
       <use x="417.822266" xlink:href="#DejaVuSans-45"/>
       <use x="453.90625" xlink:href="#DejaVuSans-49"/>
       <use x="517.529297" xlink:href="#DejaVuSans-49"/>
       <use x="581.152344" xlink:href="#DejaVuSans-32"/>
       <use x="612.939453" xlink:href="#DejaVuSans-50"/>
       <use x="676.5625" xlink:href="#DejaVuSans-49"/>
       <use x="740.185547" xlink:href="#DejaVuSans-58"/>
       <use x="773.876953" xlink:href="#DejaVuSans-51"/>
       <use x="837.5" xlink:href="#DejaVuSans-53"/>
       <use x="901.123047" xlink:href="#DejaVuSans-58"/>
       <use x="934.814453" xlink:href="#DejaVuSans-52"/>
       <use x="998.4375" xlink:href="#DejaVuSans-53"/>
      </g>
     </g>
    </g>
    <g id="xtick_4">
     <g id="line2d_7">
      <path clip-path="url(#p3385bda9c5)" d="M 429.556912 489.8 
L 429.556912 10.8 
" style="fill:none;stroke:#0000ff;stroke-linecap:square;stroke-width:0.1;"/>
     </g>
     <g id="line2d_8">
      <g>
       <use style="stroke:#000000;stroke-width:0.8;" x="429.556912" xlink:href="#m3c5cecff81" y="489.8"/>
      </g>
     </g>
     <g id="text_4">
      <!-- 2021-04-11 21:37:15 -->
      <g transform="translate(435.075662 709.2125)rotate(-90)scale(0.2 -0.2)">
       <defs>
        <path d="M 8.203125 72.90625 
L 55.078125 72.90625 
L 55.078125 68.703125 
L 28.609375 0 
L 18.3125 0 
L 43.21875 64.59375 
L 8.203125 64.59375 
z
" id="DejaVuSans-55"/>
       </defs>
       <use xlink:href="#DejaVuSans-50"/>
       <use x="63.623047" xlink:href="#DejaVuSans-48"/>
       <use x="127.246094" xlink:href="#DejaVuSans-50"/>
       <use x="190.869141" xlink:href="#DejaVuSans-49"/>
       <use x="254.492188" xlink:href="#DejaVuSans-45"/>
       <use x="290.576172" xlink:href="#DejaVuSans-48"/>
       <use x="354.199219" xlink:href="#DejaVuSans-52"/>
       <use x="417.822266" xlink:href="#DejaVuSans-45"/>
       <use x="453.90625" xlink:href="#DejaVuSans-49"/>
       <use x="517.529297" xlink:href="#DejaVuSans-49"/>
       <use x="581.152344" xlink:href="#DejaVuSans-32"/>
       <use x="612.939453" xlink:href="#DejaVuSans-50"/>
       <use x="676.5625" xlink:href="#DejaVuSans-49"/>
       <use x="740.185547" xlink:href="#DejaVuSans-58"/>
       <use x="773.876953" xlink:href="#DejaVuSans-51"/>
       <use x="837.5" xlink:href="#DejaVuSans-55"/>
       <use x="901.123047" xlink:href="#DejaVuSans-58"/>
       <use x="934.814453" xlink:href="#DejaVuSans-49"/>
       <use x="998.4375" xlink:href="#DejaVuSans-53"/>
      </g>
     </g>
    </g>
    <g id="xtick_5">
     <g id="line2d_9">
      <path clip-path="url(#p3385bda9c5)" d="M 580.160289 489.8 
L 580.160289 10.8 
" style="fill:none;stroke:#0000ff;stroke-linecap:square;stroke-width:0.1;"/>
     </g>
     <g id="line2d_10">
      <g>
       <use style="stroke:#000000;stroke-width:0.8;" x="580.160289" xlink:href="#m3c5cecff81" y="489.8"/>
      </g>
     </g>
     <g id="text_5">
      <!-- 2021-04-11 21:42:45 -->
      <g transform="translate(585.679039 709.2125)rotate(-90)scale(0.2 -0.2)">
       <use xlink:href="#DejaVuSans-50"/>
       <use x="63.623047" xlink:href="#DejaVuSans-48"/>
       <use x="127.246094" xlink:href="#DejaVuSans-50"/>
       <use x="190.869141" xlink:href="#DejaVuSans-49"/>
       <use x="254.492188" xlink:href="#DejaVuSans-45"/>
       <use x="290.576172" xlink:href="#DejaVuSans-48"/>
       <use x="354.199219" xlink:href="#DejaVuSans-52"/>
       <use x="417.822266" xlink:href="#DejaVuSans-45"/>
       <use x="453.90625" xlink:href="#DejaVuSans-49"/>
       <use x="517.529297" xlink:href="#DejaVuSans-49"/>
       <use x="581.152344" xlink:href="#DejaVuSans-32"/>
       <use x="612.939453" xlink:href="#DejaVuSans-50"/>
       <use x="676.5625" xlink:href="#DejaVuSans-49"/>
       <use x="740.185547" xlink:href="#DejaVuSans-58"/>
       <use x="773.876953" xlink:href="#DejaVuSans-52"/>
       <use x="837.5" xlink:href="#DejaVuSans-50"/>
       <use x="901.123047" xlink:href="#DejaVuSans-58"/>
       <use x="934.814453" xlink:href="#DejaVuSans-52"/>
       <use x="998.4375" xlink:href="#DejaVuSans-53"/>
      </g>
     </g>
    </g>
   </g>
   <g id="matplotlib.axis_2">
    <g id="ytick_1">
     <g id="line2d_11">
      <path clip-path="url(#p3385bda9c5)" d="M 129.377 448.456282 
L 709.2 448.456282 
" style="fill:none;stroke:#0000ff;stroke-linecap:square;stroke-width:0.1;"/>
     </g>
     <g id="line2d_12">
      <defs>
       <path d="M 0 0 
L -3.5 0 
" id="m9a6e170a36" style="stroke:#000000;stroke-width:0.8;"/>
      </defs>
      <g>
       <use style="stroke:#000000;stroke-width:0.8;" x="129.377" xlink:href="#m9a6e170a36" y="448.456282"/>
      </g>
     </g>
     <g id="text_6">
      <!-- 49.900 -->
      <g transform="translate(52.39575 456.054719)scale(0.2 -0.2)">
       <defs>
        <path d="M 10.984375 1.515625 
L 10.984375 10.5 
Q 14.703125 8.734375 18.5 7.8125 
Q 22.3125 6.890625 25.984375 6.890625 
Q 35.75 6.890625 40.890625 13.453125 
Q 46.046875 20.015625 46.78125 33.40625 
Q 43.953125 29.203125 39.59375 26.953125 
Q 35.25 24.703125 29.984375 24.703125 
Q 19.046875 24.703125 12.671875 31.3125 
Q 6.296875 37.9375 6.296875 49.421875 
Q 6.296875 60.640625 12.9375 67.421875 
Q 19.578125 74.21875 30.609375 74.21875 
Q 43.265625 74.21875 49.921875 64.515625 
Q 56.59375 54.828125 56.59375 36.375 
Q 56.59375 19.140625 48.40625 8.859375 
Q 40.234375 -1.421875 26.421875 -1.421875 
Q 22.703125 -1.421875 18.890625 -0.6875 
Q 15.09375 0.046875 10.984375 1.515625 
z
M 30.609375 32.421875 
Q 37.25 32.421875 41.125 36.953125 
Q 45.015625 41.5 45.015625 49.421875 
Q 45.015625 57.28125 41.125 61.84375 
Q 37.25 66.40625 30.609375 66.40625 
Q 23.96875 66.40625 20.09375 61.84375 
Q 16.21875 57.28125 16.21875 49.421875 
Q 16.21875 41.5 20.09375 36.953125 
Q 23.96875 32.421875 30.609375 32.421875 
z
" id="DejaVuSans-57"/>
        <path d="M 10.6875 12.40625 
L 21 12.40625 
L 21 0 
L 10.6875 0 
z
" id="DejaVuSans-46"/>
       </defs>
       <use xlink:href="#DejaVuSans-52"/>
       <use x="63.623047" xlink:href="#DejaVuSans-57"/>
       <use x="127.246094" xlink:href="#DejaVuSans-46"/>
       <use x="159.033203" xlink:href="#DejaVuSans-57"/>
       <use x="222.65625" xlink:href="#DejaVuSans-48"/>
       <use x="286.279297" xlink:href="#DejaVuSans-48"/>
      </g>
     </g>
    </g>
    <g id="ytick_2">
     <g id="line2d_13">
      <path clip-path="url(#p3385bda9c5)" d="M 129.377 387.296936 
L 709.2 387.296936 
" style="fill:none;stroke:#0000ff;stroke-linecap:square;stroke-width:0.1;"/>
     </g>
     <g id="line2d_14">
      <g>
       <use style="stroke:#000000;stroke-width:0.8;" x="129.377" xlink:href="#m9a6e170a36" y="387.296936"/>
      </g>
     </g>
     <g id="text_7">
      <!-- 49.925 -->
      <g transform="translate(52.39575 394.895373)scale(0.2 -0.2)">
       <use xlink:href="#DejaVuSans-52"/>
       <use x="63.623047" xlink:href="#DejaVuSans-57"/>
       <use x="127.246094" xlink:href="#DejaVuSans-46"/>
       <use x="159.033203" xlink:href="#DejaVuSans-57"/>
       <use x="222.65625" xlink:href="#DejaVuSans-50"/>
       <use x="286.279297" xlink:href="#DejaVuSans-53"/>
      </g>
     </g>
    </g>
    <g id="ytick_3">
     <g id="line2d_15">
      <path clip-path="url(#p3385bda9c5)" d="M 129.377 326.137589 
L 709.2 326.137589 
" style="fill:none;stroke:#0000ff;stroke-linecap:square;stroke-width:0.1;"/>
     </g>
     <g id="line2d_16">
      <g>
       <use style="stroke:#000000;stroke-width:0.8;" x="129.377" xlink:href="#m9a6e170a36" y="326.137589"/>
      </g>
     </g>
     <g id="text_8">
      <!-- 49.950 -->
      <g transform="translate(52.39575 333.736027)scale(0.2 -0.2)">
       <use xlink:href="#DejaVuSans-52"/>
       <use x="63.623047" xlink:href="#DejaVuSans-57"/>
       <use x="127.246094" xlink:href="#DejaVuSans-46"/>
       <use x="159.033203" xlink:href="#DejaVuSans-57"/>
       <use x="222.65625" xlink:href="#DejaVuSans-53"/>
       <use x="286.279297" xlink:href="#DejaVuSans-48"/>
      </g>
     </g>
    </g>
    <g id="ytick_4">
     <g id="line2d_17">
      <path clip-path="url(#p3385bda9c5)" d="M 129.377 264.978243 
L 709.2 264.978243 
" style="fill:none;stroke:#0000ff;stroke-linecap:square;stroke-width:0.1;"/>
     </g>
     <g id="line2d_18">
      <g>
       <use style="stroke:#000000;stroke-width:0.8;" x="129.377" xlink:href="#m9a6e170a36" y="264.978243"/>
      </g>
     </g>
     <g id="text_9">
      <!-- 49.975 -->
      <g transform="translate(52.39575 272.576681)scale(0.2 -0.2)">
       <use xlink:href="#DejaVuSans-52"/>
       <use x="63.623047" xlink:href="#DejaVuSans-57"/>
       <use x="127.246094" xlink:href="#DejaVuSans-46"/>
       <use x="159.033203" xlink:href="#DejaVuSans-57"/>
       <use x="222.65625" xlink:href="#DejaVuSans-55"/>
       <use x="286.279297" xlink:href="#DejaVuSans-53"/>
      </g>
     </g>
    </g>
    <g id="ytick_5">
     <g id="line2d_19">
      <path clip-path="url(#p3385bda9c5)" d="M 129.377 203.818897 
L 709.2 203.818897 
" style="fill:none;stroke:#0000ff;stroke-linecap:square;stroke-width:0.1;"/>
     </g>
     <g id="line2d_20">
      <g>
       <use style="stroke:#000000;stroke-width:0.8;" x="129.377" xlink:href="#m9a6e170a36" y="203.818897"/>
      </g>
     </g>
     <g id="text_10">
      <!-- 50.000 -->
      <g transform="translate(52.39575 211.417334)scale(0.2 -0.2)">
       <use xlink:href="#DejaVuSans-53"/>
       <use x="63.623047" xlink:href="#DejaVuSans-48"/>
       <use x="127.246094" xlink:href="#DejaVuSans-46"/>
       <use x="159.033203" xlink:href="#DejaVuSans-48"/>
       <use x="222.65625" xlink:href="#DejaVuSans-48"/>
       <use x="286.279297" xlink:href="#DejaVuSans-48"/>
      </g>
     </g>
    </g>
    <g id="ytick_6">
     <g id="line2d_21">
      <path clip-path="url(#p3385bda9c5)" d="M 129.377 142.659551 
L 709.2 142.659551 
" style="fill:none;stroke:#0000ff;stroke-linecap:square;stroke-width:0.1;"/>
     </g>
     <g id="line2d_22">
      <g>
       <use style="stroke:#000000;stroke-width:0.8;" x="129.377" xlink:href="#m9a6e170a36" y="142.659551"/>
      </g>
     </g>
     <g id="text_11">
      <!-- 50.025 -->
      <g transform="translate(52.39575 150.257988)scale(0.2 -0.2)">
       <use xlink:href="#DejaVuSans-53"/>
       <use x="63.623047" xlink:href="#DejaVuSans-48"/>
       <use x="127.246094" xlink:href="#DejaVuSans-46"/>
       <use x="159.033203" xlink:href="#DejaVuSans-48"/>
       <use x="222.65625" xlink:href="#DejaVuSans-50"/>
       <use x="286.279297" xlink:href="#DejaVuSans-53"/>
      </g>
     </g>
    </g>
    <g id="ytick_7">
     <g id="line2d_23">
      <path clip-path="url(#p3385bda9c5)" d="M 129.377 81.500204 
L 709.2 81.500204 
" style="fill:none;stroke:#0000ff;stroke-linecap:square;stroke-width:0.1;"/>
     </g>
     <g id="line2d_24">
      <g>
       <use style="stroke:#000000;stroke-width:0.8;" x="129.377" xlink:href="#m9a6e170a36" y="81.500204"/>
      </g>
     </g>
     <g id="text_12">
      <!-- 50.050 -->
      <g transform="translate(52.39575 89.098642)scale(0.2 -0.2)">
       <use xlink:href="#DejaVuSans-53"/>
       <use x="63.623047" xlink:href="#DejaVuSans-48"/>
       <use x="127.246094" xlink:href="#DejaVuSans-46"/>
       <use x="159.033203" xlink:href="#DejaVuSans-48"/>
       <use x="222.65625" xlink:href="#DejaVuSans-53"/>
       <use x="286.279297" xlink:href="#DejaVuSans-48"/>
      </g>
     </g>
    </g>
    <g id="ytick_8">
     <g id="line2d_25">
      <path clip-path="url(#p3385bda9c5)" d="M 129.377 20.340858 
L 709.2 20.340858 
" style="fill:none;stroke:#0000ff;stroke-linecap:square;stroke-width:0.1;"/>
     </g>
     <g id="line2d_26">
      <g>
       <use style="stroke:#000000;stroke-width:0.8;" x="129.377" xlink:href="#m9a6e170a36" y="20.340858"/>
      </g>
     </g>
     <g id="text_13">
      <!-- 50.075 -->
      <g transform="translate(52.39575 27.939296)scale(0.2 -0.2)">
       <use xlink:href="#DejaVuSans-53"/>
       <use x="63.623047" xlink:href="#DejaVuSans-48"/>
       <use x="127.246094" xlink:href="#DejaVuSans-46"/>
       <use x="159.033203" xlink:href="#DejaVuSans-48"/>
       <use x="222.65625" xlink:href="#DejaVuSans-55"/>
       <use x="286.279297" xlink:href="#DejaVuSans-53"/>
      </g>
     </g>
    </g>
    <g id="text_14">
     <!-- UK National Grid Frequency (Hz) -->
     <g transform="translate(25.546375 405.3)rotate(-90)scale(0.2 -0.2)">
      <defs>
       <path d="M 25.09375 -1.203125 
Q 15 -1.203125 9.75 4.84375 
Q 4.5 10.90625 4.5 21.59375 
L 4.5 62.296875 
L 12.796875 62.296875 
L 13.796875 62.296875 
L 13.796875 61.5 
Q 13.203125 60.90625 13.046875 60.203125 
Q 12.90625 59.5 12.90625 57.796875 
L 12.90625 21.5 
Q 12.90625 14.296875 15.59375 10.046875 
Q 18.296875 5.796875 25.203125 5.796875 
Q 32.09375 5.796875 34.84375 10.046875 
Q 37.59375 14.296875 37.59375 21.796875 
L 37.59375 62.296875 
L 45.796875 62.296875 
L 45.796875 21.90625 
Q 45.796875 14 43.1875 8.890625 
Q 40.59375 3.796875 35.9375 1.296875 
Q 31.296875 -1.203125 25.09375 -1.203125 
z
" id="Inconsolata-Medium-85"/>
       <path d="M 17.40625 30.203125 
L 12.703125 24.796875 
L 12.703125 0 
L 4 0 
L 4 62.296875 
L 12.59375 62.296875 
L 13.59375 62.296875 
L 13.59375 61.5 
Q 13 60.90625 12.84375 60.203125 
Q 12.703125 59.5 12.703125 57.796875 
L 12.703125 34.703125 
L 37 62.796875 
Q 37.59375 62.703125 38.34375 62.59375 
Q 39.09375 62.5 39.84375 62.453125 
Q 40.59375 62.40625 41.390625 62.34375 
Q 42.203125 62.296875 42.90625 62.296875 
L 46.296875 62.296875 
L 23.59375 35.703125 
L 47.796875 0 
L 37.5 -0.40625 
z
" id="Inconsolata-Medium-75"/>
       <path d="M 4.59375 62.296875 
L 13 62.296875 
L 37.5 17.796875 
L 37.296875 62.296875 
L 45.09375 62.296875 
L 46.09375 62.296875 
L 46.09375 61.5 
Q 45.5 60.90625 45.34375 60.203125 
Q 45.203125 59.5 45.203125 57.796875 
L 45.203125 0 
L 38 0 
L 12.40625 47.203125 
L 12.40625 0 
L 4.59375 0 
z
" id="Inconsolata-Medium-78"/>
       <path d="M 20.703125 -1.09375 
Q 12.90625 -1.09375 8.703125 2.453125 
Q 4.5 6 4.5 11.59375 
Q 4.5 15.296875 6.25 18.34375 
Q 8 21.40625 11.203125 23.5 
Q 14.40625 25.59375 18.796875 26.75 
Q 23.203125 27.90625 28.5 27.90625 
Q 29.90625 27.90625 31.453125 27.90625 
Q 33 27.90625 34.75 27.75 
Q 36.5 27.59375 38.296875 27.40625 
L 38.59375 21.09375 
Q 37 21.296875 35.296875 21.4375 
Q 33.59375 21.59375 31.9375 21.640625 
Q 30.296875 21.703125 28.796875 21.703125 
Q 25.09375 21.703125 22.140625 21.09375 
Q 19.203125 20.5 17.203125 19.34375 
Q 15.203125 18.203125 14.09375 16.453125 
Q 13 14.703125 13 12.40625 
Q 13 10.40625 13.703125 9.09375 
Q 14.40625 7.796875 15.59375 7 
Q 16.796875 6.203125 18.390625 5.84375 
Q 20 5.5 21.90625 5.5 
Q 25.5 5.5 28.25 6.640625 
Q 31 7.796875 32.953125 10.09375 
Q 34.90625 12.40625 35.90625 15.75 
Q 36.90625 19.09375 36.90625 23.59375 
Q 36.90625 30 35.453125 33.59375 
Q 34 37.203125 31.09375 38.640625 
Q 28.203125 40.09375 23.796875 40.09375 
Q 20.5 40.09375 17.453125 38.9375 
Q 14.40625 37.796875 11.703125 35.09375 
L 7.296875 40.40625 
Q 10.796875 43.796875 15.1875 45.390625 
Q 19.59375 47 24.296875 47 
Q 28.796875 47 32.5 45.953125 
Q 36.203125 44.90625 38.953125 42.40625 
Q 41.703125 39.90625 43.203125 35.703125 
Q 44.703125 31.5 44.703125 25.09375 
L 44.703125 0 
L 35.59375 0 
L 35.59375 6.296875 
Q 34.296875 4.09375 32.546875 2.640625 
Q 30.796875 1.203125 28.84375 0.390625 
Q 26.90625 -0.40625 24.796875 -0.75 
Q 22.703125 -1.09375 20.703125 -1.09375 
z
" id="Inconsolata-Medium-97"/>
       <path d="M 29.90625 -0.796875 
Q 25.59375 -0.796875 22.75 0.640625 
Q 19.90625 2.09375 18.25 5.140625 
Q 16.59375 8.203125 16.046875 13 
Q 15.5 17.796875 15.703125 24.59375 
L 16.90625 57.40625 
L 25.796875 58.5 
L 26.796875 58.59375 
L 26.90625 57.90625 
Q 26.40625 57.203125 26.046875 56.5 
Q 25.703125 55.796875 25.5 54.09375 
L 24.59375 41.90625 
L 24.90625 40.5 
L 24.203125 24.296875 
Q 23.90625 17.09375 24.59375 13.140625 
Q 25.296875 9.203125 27.046875 7.703125 
Q 28.796875 6.203125 31.5 6.203125 
Q 34.796875 6.203125 37.34375 7.5 
Q 39.90625 8.796875 42.5 10.703125 
L 44.703125 4.203125 
Q 41.296875 1.703125 37.640625 0.453125 
Q 34 -0.796875 29.90625 -0.796875 
z
M 6.59375 46 
L 40.5 46 
L 40.5 39.09375 
L 6.59375 39.09375 
z
" id="Inconsolata-Medium-116"/>
       <path d="M 9.5 0 
L 9.5 6.796875 
L 21.09375 6.796875 
L 21.09375 39.09375 
L 10.09375 39.09375 
L 10.09375 46 
L 29.703125 46 
L 29.703125 6.796875 
L 40.296875 6.796875 
L 40.296875 0 
z
M 24.90625 54.90625 
Q 22.5 54.90625 20.796875 56.59375 
Q 19.09375 58.296875 19.09375 60.59375 
Q 19.09375 63.09375 20.75 64.6875 
Q 22.40625 66.296875 24.90625 66.296875 
Q 27.203125 66.296875 28.953125 64.59375 
Q 30.703125 62.90625 30.703125 60.59375 
Q 30.703125 58.296875 28.953125 56.59375 
Q 27.203125 54.90625 24.90625 54.90625 
z
" id="Inconsolata-Medium-105"/>
       <path d="M 25 -0.90625 
Q 18.796875 -0.90625 13.9375 2.140625 
Q 9.09375 5.203125 6.296875 10.59375 
Q 3.5 16 3.5 23 
Q 3.5 30 6.296875 35.390625 
Q 9.09375 40.796875 13.9375 43.890625 
Q 18.796875 47 25 47 
Q 31.203125 47 36.046875 43.890625 
Q 40.90625 40.796875 43.703125 35.390625 
Q 46.5 30 46.5 23 
Q 46.5 16 43.703125 10.59375 
Q 40.90625 5.203125 36.046875 2.140625 
Q 31.203125 -0.90625 25 -0.90625 
z
M 25 6.09375 
Q 28.703125 6.09375 31.5 8.296875 
Q 34.296875 10.5 35.9375 14.296875 
Q 37.59375 18.09375 37.59375 23.09375 
Q 37.59375 28.09375 35.9375 31.890625 
Q 34.296875 35.703125 31.5 37.84375 
Q 28.703125 40 25 40 
Q 21.40625 40 18.546875 37.84375 
Q 15.703125 35.703125 14.046875 31.890625 
Q 12.40625 28.09375 12.40625 23.09375 
Q 12.40625 18.09375 14 14.296875 
Q 15.59375 10.5 18.4375 8.296875 
Q 21.296875 6.09375 25 6.09375 
z
" id="Inconsolata-Medium-111"/>
       <path d="M 6.59375 0 
L 6.59375 46 
L 15.09375 46 
L 15.09375 38.40625 
Q 16.796875 41 19.09375 42.953125 
Q 21.40625 44.90625 24.15625 46 
Q 26.90625 47.09375 29.90625 47.09375 
Q 33.796875 47.09375 36.890625 45.140625 
Q 40 43.203125 41.890625 39 
Q 43.796875 34.796875 43.796875 27.796875 
L 43.796875 0 
L 35.40625 0 
L 35.40625 27.59375 
Q 35.40625 32.09375 34.40625 34.796875 
Q 33.40625 37.5 31.59375 38.75 
Q 29.796875 40 27.5 40 
Q 25.40625 40 23.203125 39.046875 
Q 21 38.09375 19.140625 36.390625 
Q 17.296875 34.703125 16.1875 32.25 
Q 15.09375 29.796875 15.09375 26.796875 
L 15.09375 0 
z
" id="Inconsolata-Medium-110"/>
       <path d="M 7.40625 0 
L 7.40625 6.796875 
L 20.703125 6.796875 
L 20.703125 59.90625 
L 8 59.90625 
L 8 66.703125 
L 29.40625 66.703125 
L 29.40625 6.796875 
L 42.703125 6.796875 
L 42.703125 0 
z
" id="Inconsolata-Medium-108"/>
       <path d="M 27.703125 -1 
Q 20.09375 -1 14.59375 2.890625 
Q 9.09375 6.796875 6.140625 13.9375 
Q 3.203125 21.09375 3.203125 30.59375 
Q 3.203125 38.59375 4.75 44.25 
Q 6.296875 49.90625 9 53.59375 
Q 11.703125 57.296875 14.953125 59.390625 
Q 18.203125 61.5 21.453125 62.296875 
Q 24.703125 63.09375 27.40625 63.09375 
Q 31.296875 63.09375 34.890625 61.75 
Q 38.5 60.40625 41.5 58.09375 
Q 44.5 55.796875 46.203125 52.5 
L 40.796875 47.703125 
L 40 47 
L 39.5 47.59375 
Q 39.59375 48.40625 39.296875 49.09375 
Q 39 49.796875 37.90625 51.09375 
Q 36.5 52.703125 35 53.75 
Q 33.5 54.796875 31.640625 55.296875 
Q 29.796875 55.796875 27.5 55.796875 
Q 24.90625 55.796875 22.546875 55.09375 
Q 20.203125 54.40625 18.203125 52.65625 
Q 16.203125 50.90625 14.703125 48.15625 
Q 13.203125 45.40625 12.390625 41.34375 
Q 11.59375 37.296875 11.59375 31.90625 
Q 11.59375 25.59375 12.6875 20.796875 
Q 13.796875 16 15.9375 12.75 
Q 18.09375 9.5 21.046875 7.84375 
Q 24 6.203125 27.703125 6.203125 
Q 29 6.203125 30.453125 6.34375 
Q 31.90625 6.5 33.34375 6.953125 
Q 34.796875 7.40625 36.140625 8.09375 
Q 37.5 8.796875 38.703125 9.703125 
L 38.703125 23.40625 
L 27.703125 23.40625 
L 27.703125 30.59375 
L 46.40625 30.59375 
L 46.40625 5.5 
Q 42 2.203125 37.25 0.59375 
Q 32.5 -1 27.703125 -1 
z
" id="Inconsolata-Medium-71"/>
       <path d="M 10.90625 46 
L 19.796875 46 
L 19.59375 32.796875 
L 18.5 34 
Q 19.09375 37.09375 20.546875 39.5 
Q 22 41.90625 24.046875 43.59375 
Q 26.09375 45.296875 28.59375 46.1875 
Q 31.09375 47.09375 33.796875 47.09375 
Q 37.5 47.09375 40.546875 45.84375 
Q 43.59375 44.59375 46.09375 42 
L 42.40625 35.09375 
L 42 34.203125 
L 41.296875 34.59375 
Q 41 35.40625 40.640625 36.15625 
Q 40.296875 36.90625 39 37.90625 
Q 37.5 39 36.09375 39.390625 
Q 34.703125 39.796875 32.90625 39.796875 
Q 30.5 39.796875 28.09375 38.890625 
Q 25.703125 38 23.75 36.09375 
Q 21.796875 34.203125 20.6875 31.25 
Q 19.59375 28.296875 19.59375 24.296875 
L 19.59375 -0.09375 
L 10.90625 -0.09375 
z
" id="Inconsolata-Medium-114"/>
       <path d="M 23.09375 -1 
Q 19.5 -1 16.09375 0.5 
Q 12.703125 2 10 5 
Q 7.296875 8 5.6875 12.59375 
Q 4.09375 17.203125 4.09375 23.40625 
Q 4.09375 29.59375 5.75 34.046875 
Q 7.40625 38.5 10.15625 41.453125 
Q 12.90625 44.40625 16.296875 45.796875 
Q 19.703125 47.203125 23.40625 47.203125 
Q 26.296875 47.203125 28.75 46.296875 
Q 31.203125 45.40625 33.046875 43.84375 
Q 34.90625 42.296875 36 40.09375 
L 36 66.703125 
L 44.09375 66.703125 
L 45.09375 66.703125 
L 45.09375 65.90625 
Q 44.5 65.296875 44.34375 64.59375 
Q 44.203125 63.90625 44.203125 62.203125 
L 44.296875 6.796875 
Q 44.296875 5.09375 44.4375 3.390625 
Q 44.59375 1.703125 45.296875 0 
L 36.90625 0 
Q 36.40625 1.203125 36.203125 2.203125 
Q 36 3.203125 35.953125 4.25 
Q 35.90625 5.296875 35.90625 6.40625 
Q 34.5 4.09375 32.59375 2.390625 
Q 30.703125 0.703125 28.296875 -0.140625 
Q 25.90625 -1 23.09375 -1 
z
M 24.5 6.203125 
Q 27.5 6.203125 29.59375 7.390625 
Q 31.703125 8.59375 33 10.890625 
Q 34.296875 13.203125 34.9375 16.34375 
Q 35.59375 19.5 35.59375 23.203125 
Q 35.59375 28.296875 34.390625 32.140625 
Q 33.203125 36 30.59375 38.140625 
Q 28 40.296875 24 40.296875 
Q 21.203125 40.296875 19 39.1875 
Q 16.796875 38.09375 15.390625 35.9375 
Q 14 33.796875 13.25 30.84375 
Q 12.5 27.90625 12.5 24.203125 
Q 12.5 18.703125 13.953125 14.703125 
Q 15.40625 10.703125 18.09375 8.453125 
Q 20.796875 6.203125 24.5 6.203125 
z
" id="Inconsolata-Medium-100"/>
       <path d="M 7.40625 0 
L 7.40625 62.40625 
L 44.296875 62.40625 
L 44.296875 55.296875 
L 15.40625 55.296875 
L 15.40625 37.203125 
L 38.703125 37.203125 
L 38.703125 30.09375 
L 15.40625 30.09375 
L 15.40625 0 
z
" id="Inconsolata-Medium-70"/>
       <path d="M 27.203125 -1 
Q 22.203125 -1 18.046875 0.546875 
Q 13.90625 2.09375 10.84375 5.09375 
Q 7.796875 8.09375 6.1875 12.59375 
Q 4.59375 17.09375 4.59375 22.796875 
Q 4.59375 28.59375 6.25 33.09375 
Q 7.90625 37.59375 10.796875 40.6875 
Q 13.703125 43.796875 17.59375 45.4375 
Q 21.5 47.09375 25.90625 47.09375 
Q 29.796875 47.09375 33.296875 45.75 
Q 36.796875 44.40625 39.34375 41.703125 
Q 41.90625 39 43.40625 34.84375 
Q 44.90625 30.703125 44.90625 25.09375 
Q 44.90625 24.203125 44.84375 23.140625 
Q 44.796875 22.09375 44.703125 21.296875 
L 12.796875 21.296875 
Q 13 17.203125 14.25 14.25 
Q 15.5 11.296875 17.5 9.4375 
Q 19.5 7.59375 22.046875 6.6875 
Q 24.59375 5.796875 27.5 5.796875 
Q 29.796875 5.796875 31.84375 6.296875 
Q 33.90625 6.796875 35.703125 7.890625 
Q 37.5 9 39 10.59375 
L 43.59375 6.203125 
Q 41.59375 3.796875 39.046875 2.140625 
Q 36.5 0.5 33.546875 -0.25 
Q 30.59375 -1 27.203125 -1 
z
M 13.09375 27.796875 
L 36.40625 27.796875 
Q 36.40625 30.796875 35.59375 33.09375 
Q 34.796875 35.40625 33.390625 37.09375 
Q 32 38.796875 29.953125 39.640625 
Q 27.90625 40.5 25.40625 40.5 
Q 23.09375 40.5 21.09375 39.75 
Q 19.09375 39 17.4375 37.390625 
Q 15.796875 35.796875 14.640625 33.4375 
Q 13.5 31.09375 13.09375 27.796875 
z
" id="Inconsolata-Medium-101"/>
       <path d="M 36 -16.703125 
L 36 6.296875 
Q 34.703125 4.09375 32.703125 2.390625 
Q 30.703125 0.703125 28.203125 -0.140625 
Q 25.703125 -1 22.90625 -1 
Q 18.796875 -1 15.25 0.75 
Q 11.703125 2.5 9.09375 5.640625 
Q 6.5 8.796875 5.09375 13.25 
Q 3.703125 17.703125 3.703125 23.09375 
Q 3.703125 28.703125 5.203125 33.140625 
Q 6.703125 37.59375 9.453125 40.75 
Q 12.203125 43.90625 15.890625 45.5 
Q 19.59375 47.09375 23.90625 47.09375 
Q 26.203125 47.09375 28.046875 46.640625 
Q 29.90625 46.203125 31.5 45.25 
Q 33.09375 44.296875 34.296875 42.9375 
Q 35.5 41.59375 36.40625 40 
L 36.40625 46 
L 44.59375 46 
L 44.59375 -16.703125 
z
M 24.40625 6.09375 
Q 26.796875 6.09375 28.890625 7.09375 
Q 31 8.09375 32.59375 10.1875 
Q 34.203125 12.296875 35.046875 15.75 
Q 35.90625 19.203125 35.90625 24 
Q 35.90625 28.5 35.09375 31.640625 
Q 34.296875 34.796875 32.796875 36.6875 
Q 31.296875 38.59375 29.34375 39.4375 
Q 27.40625 40.296875 25 40.296875 
Q 22.40625 40.296875 20.046875 39.34375 
Q 17.703125 38.40625 16 36.34375 
Q 14.296875 34.296875 13.296875 31.09375 
Q 12.296875 27.90625 12.296875 23.40625 
Q 12.296875 19.203125 13.140625 16 
Q 14 12.796875 15.59375 10.59375 
Q 17.203125 8.40625 19.453125 7.25 
Q 21.703125 6.09375 24.40625 6.09375 
z
" id="Inconsolata-Medium-113"/>
       <path d="M 21.796875 -1.09375 
Q 19.09375 -1.09375 16.640625 -0.34375 
Q 14.203125 0.40625 12.25 2.046875 
Q 10.296875 3.703125 8.84375 6.140625 
Q 7.40625 8.59375 6.65625 12.046875 
Q 5.90625 15.5 5.90625 19.90625 
L 6 46 
L 14.40625 46 
L 14.40625 19.90625 
Q 14.40625 16 15.09375 13.25 
Q 15.796875 10.5 17.09375 8.84375 
Q 18.40625 7.203125 20.15625 6.5 
Q 21.90625 5.796875 23.796875 5.796875 
Q 26.09375 5.796875 28.140625 6.640625 
Q 30.203125 7.5 31.75 9.296875 
Q 33.296875 11.09375 34.1875 13.84375 
Q 35.09375 16.59375 35.09375 20.296875 
L 35.09375 46 
L 43.59375 46 
L 43.59375 7.203125 
Q 43.59375 5.296875 43.75 3.546875 
Q 43.90625 1.796875 44.59375 0 
L 36.5 0 
Q 36 1.09375 35.796875 2.1875 
Q 35.59375 3.296875 35.546875 4.4375 
Q 35.5 5.59375 35.5 6.703125 
Q 34.40625 4.796875 32.953125 3.34375 
Q 31.5 1.90625 29.703125 0.90625 
Q 27.90625 -0.09375 25.953125 -0.59375 
Q 24 -1.09375 21.796875 -1.09375 
z
" id="Inconsolata-Medium-117"/>
       <path d="M 28.296875 -1.09375 
Q 23.203125 -1.09375 18.953125 0.703125 
Q 14.703125 2.5 11.59375 5.703125 
Q 8.5 8.90625 6.75 13.25 
Q 5 17.59375 5 22.796875 
Q 5 27.90625 6.75 32.296875 
Q 8.5 36.703125 11.59375 39.953125 
Q 14.703125 43.203125 18.953125 45.046875 
Q 23.203125 46.90625 28.203125 46.90625 
Q 34.09375 46.90625 38.640625 44.59375 
Q 43.203125 42.296875 46 38.296875 
L 40.90625 33 
L 40.296875 32.296875 
L 39.703125 32.90625 
Q 39.703125 33.703125 39.390625 34.453125 
Q 39.09375 35.203125 37.90625 36.40625 
Q 35.796875 38.296875 33.34375 39.046875 
Q 30.90625 39.796875 27.703125 39.796875 
Q 25 39.796875 22.5 38.640625 
Q 20 37.5 18.046875 35.34375 
Q 16.09375 33.203125 14.9375 30.09375 
Q 13.796875 27 13.796875 23.203125 
Q 13.796875 19.40625 14.9375 16.34375 
Q 16.09375 13.296875 18.09375 11.046875 
Q 20.09375 8.796875 22.84375 7.546875 
Q 25.59375 6.296875 28.703125 6.296875 
Q 30.90625 6.296875 33 6.890625 
Q 35.09375 7.5 37 8.75 
Q 38.90625 10 40.5 11.90625 
L 45.40625 6.296875 
Q 41.90625 2.5 37.5 0.703125 
Q 33.09375 -1.09375 28.296875 -1.09375 
z
" id="Inconsolata-Medium-99"/>
       <path d="M 12.703125 -17.5 
Q 9.40625 -17.5 6.75 -16.453125 
Q 4.09375 -15.40625 2 -13.40625 
L 5.296875 -7.59375 
L 5.90625 -6.703125 
L 6.59375 -7.09375 
Q 6.796875 -7.90625 7.296875 -8.5 
Q 7.796875 -9.09375 9.09375 -10 
Q 10 -10.296875 10.953125 -10.4375 
Q 11.90625 -10.59375 12.90625 -10.59375 
Q 15.40625 -10.59375 17.09375 -9.390625 
Q 18.796875 -8.203125 20.140625 -5.59375 
Q 21.5 -3 22.796875 0.90625 
L 32 28.296875 
Q 33.5 32.796875 34.75 37.140625 
Q 36 41.5 36.40625 46 
L 44.703125 46 
Q 44.09375 41.40625 42.546875 36.59375 
Q 41 31.796875 39.296875 27.203125 
L 27.90625 -4.796875 
Q 25.296875 -11.796875 21.5 -14.640625 
Q 17.703125 -17.5 12.703125 -17.5 
z
M 4.09375 46 
L 12.90625 46 
L 27.296875 8.703125 
L 23.203125 -1.203125 
z
" id="Inconsolata-Medium-121"/>
       <path d="M 39.5 -10.5 
Q 30.796875 -6.5 24.5 0.046875 
Q 18.203125 6.59375 14.890625 14.84375 
Q 11.59375 23.09375 11.59375 32 
Q 11.59375 40.90625 14.890625 48.953125 
Q 18.203125 57 24.296875 63.34375 
Q 30.40625 69.703125 38.90625 73.59375 
L 41.09375 66.40625 
Q 36.296875 63.796875 32.390625 60.140625 
Q 28.5 56.5 25.703125 52.046875 
Q 22.90625 47.59375 21.40625 42.4375 
Q 19.90625 37.296875 19.90625 31.703125 
Q 19.90625 26.09375 21.453125 20.890625 
Q 23 15.703125 25.84375 11.09375 
Q 28.703125 6.5 32.703125 2.796875 
Q 36.703125 -0.90625 41.796875 -3.5 
z
" id="Inconsolata-Medium-40"/>
       <path d="M 4.59375 62.296875 
L 13.203125 62.296875 
L 14.203125 62.296875 
L 14.203125 61.5 
Q 13.59375 60.90625 13.4375 60.203125 
Q 13.296875 59.5 13.296875 57.796875 
L 13.296875 36.09375 
L 35.90625 36.09375 
L 35.90625 62.296875 
L 44.5 62.296875 
L 45.5 62.296875 
L 45.5 61.5 
Q 44.90625 60.90625 44.75 60.203125 
Q 44.59375 59.5 44.59375 57.796875 
L 44.59375 0 
L 35.90625 0 
L 35.90625 29.09375 
L 13.296875 29.09375 
L 13.296875 0 
L 4.59375 0 
z
" id="Inconsolata-Medium-72"/>
       <path d="M 4.703125 5.5 
L 32.09375 38.703125 
L 6.703125 38.703125 
L 6.703125 46 
L 43 46 
L 43 40.296875 
L 16 7.203125 
L 40.90625 7.203125 
Q 42.59375 7.203125 43.296875 7.390625 
Q 44 7.59375 44.59375 8.203125 
L 45.296875 8.203125 
L 45.296875 7.203125 
L 45.296875 0 
L 4.703125 0 
z
" id="Inconsolata-Medium-122"/>
       <path d="M 13.296875 -10.5 
L 11 -3.5 
Q 16.09375 -0.90625 20.09375 2.796875 
Q 24.09375 6.5 26.9375 11.09375 
Q 29.796875 15.703125 31.34375 20.890625 
Q 32.90625 26.09375 32.90625 31.703125 
Q 32.90625 37.296875 31.40625 42.4375 
Q 29.90625 47.59375 27.09375 52.046875 
Q 24.296875 56.5 20.390625 60.140625 
Q 16.5 63.796875 11.703125 66.40625 
L 13.90625 73.59375 
Q 22.40625 69.703125 28.5 63.34375 
Q 34.59375 57 37.890625 48.953125 
Q 41.203125 40.90625 41.203125 32 
Q 41.203125 23.09375 37.890625 14.84375 
Q 34.59375 6.59375 28.296875 0.046875 
Q 22 -6.5 13.296875 -10.5 
z
" id="Inconsolata-Medium-41"/>
      </defs>
      <use xlink:href="#Inconsolata-Medium-85"/>
      <use x="49.999985" xlink:href="#Inconsolata-Medium-75"/>
      <use x="99.999969" xlink:href="#Inconsolata-Medium-32"/>
      <use x="149.999954" xlink:href="#Inconsolata-Medium-78"/>
      <use x="199.999939" xlink:href="#Inconsolata-Medium-97"/>
      <use x="249.999924" xlink:href="#Inconsolata-Medium-116"/>
      <use x="299.999908" xlink:href="#Inconsolata-Medium-105"/>
      <use x="349.999893" xlink:href="#Inconsolata-Medium-111"/>
      <use x="399.999878" xlink:href="#Inconsolata-Medium-110"/>
      <use x="449.999863" xlink:href="#Inconsolata-Medium-97"/>
      <use x="499.999847" xlink:href="#Inconsolata-Medium-108"/>
      <use x="549.999832" xlink:href="#Inconsolata-Medium-32"/>
      <use x="599.999817" xlink:href="#Inconsolata-Medium-71"/>
      <use x="649.999802" xlink:href="#Inconsolata-Medium-114"/>
      <use x="699.999786" xlink:href="#Inconsolata-Medium-105"/>
      <use x="749.999771" xlink:href="#Inconsolata-Medium-100"/>
      <use x="799.999756" xlink:href="#Inconsolata-Medium-32"/>
      <use x="849.999741" xlink:href="#Inconsolata-Medium-70"/>
      <use x="899.999725" xlink:href="#Inconsolata-Medium-114"/>
      <use x="949.99971" xlink:href="#Inconsolata-Medium-101"/>
      <use x="999.999695" xlink:href="#Inconsolata-Medium-113"/>
      <use x="1049.99968" xlink:href="#Inconsolata-Medium-117"/>
      <use x="1099.999664" xlink:href="#Inconsolata-Medium-101"/>
      <use x="1149.999649" xlink:href="#Inconsolata-Medium-110"/>
      <use x="1199.999634" xlink:href="#Inconsolata-Medium-99"/>
      <use x="1249.999619" xlink:href="#Inconsolata-Medium-121"/>
      <use x="1299.999603" xlink:href="#Inconsolata-Medium-32"/>
      <use x="1349.999588" xlink:href="#Inconsolata-Medium-40"/>
      <use x="1399.999573" xlink:href="#Inconsolata-Medium-72"/>
      <use x="1449.999557" xlink:href="#Inconsolata-Medium-122"/>
      <use x="1499.999542" xlink:href="#Inconsolata-Medium-41"/>
     </g>
     <!--  -->
     <g transform="translate(45.055125 250.3)rotate(-90)scale(0.2 -0.2)"/>
    </g>
   </g>
   <g id="line2d_27">
    <path clip-path="url(#p3385bda9c5)" d="M 155.732591 32.572727 
L 162.578199 57.036466 
L 169.423807 74.161083 
L 176.269415 108.410317 
L 183.115023 135.320429 
L 189.960631 110.856691 
L 196.806239 140.213177 
L 203.651847 125.534934 
L 210.497455 137.766803 
L 217.343063 159.784168 
L 224.188671 123.08856 
L 231.034279 130.427681 
L 237.879887 123.08856 
L 244.725495 149.998672 
L 251.571103 169.569663 
L 258.416711 436.224413 
L 265.262319 438.670787 
L 272.107927 468.027273 
L 278.953535 431.331665 
L 285.799143 382.404188 
L 292.644751 448.456282 
L 299.49036 443.563534 
L 306.335968 436.224413 
L 313.181576 419.099796 
L 320.027184 458.241777 
L 326.872792 460.688151 
L 333.7184 433.778039 
L 340.564008 416.653422 
L 347.409616 423.992543 
L 354.255224 384.850562 
L 361.100832 394.636057 
L 367.94644 340.815832 
L 374.792048 333.476711 
L 381.637656 328.583963 
L 388.483264 286.995608 
L 395.328872 313.90572 
L 402.17448 348.154954 
L 409.020088 331.030337 
L 415.865696 353.047702 
L 422.711304 365.279571 
L 429.556912 372.618693 
L 436.40252 350.601328 
L 443.248128 335.923085 
L 450.093736 331.030337 
L 456.939344 353.047702 
L 463.784952 350.601328 
L 470.63056 365.279571 
L 477.476168 311.459346 
L 484.321776 333.476711 
L 491.167384 289.441982 
L 498.012992 311.459346 
L 504.8586 301.673851 
L 511.704208 286.995608 
L 518.549816 272.317365 
L 525.395424 272.317365 
L 532.241032 233.175383 
L 539.08664 186.69428 
L 545.932249 245.407252 
L 552.777857 235.621757 
L 559.623465 257.639122 
L 566.469073 167.123289 
L 573.314681 269.870991 
L 580.160289 125.534934 
L 587.005897 172.016037 
L 593.851505 172.016037 
L 600.697113 245.407252 
L 607.542721 267.424617 
L 614.388329 272.317365 
L 621.233937 269.870991 
L 628.079545 169.569663 
L 634.925153 189.140654 
L 641.770761 286.995608 
L 648.616369 250.3 
L 655.461977 286.995608 
L 662.307585 284.549234 
L 669.153193 277.210112 
L 675.998801 335.923085 
L 682.844409 318.798468 
" style="fill:none;stroke:#000000;stroke-linecap:square;stroke-width:0.5;"/>
   </g>
   <g id="line2d_28">
    <path clip-path="url(#p3385bda9c5)" d="M 155.732591 32.572727 
L 272.107927 468.027273 
L 388.483264 286.995608 
L 429.556912 372.618693 
L 580.160289 125.534934 
" style="fill:none;stroke:#ff0000;stroke-linecap:square;"/>
   </g>
   <g id="patch_3">
    <path d="M 129.377 489.8 
L 129.377 10.8 
" style="fill:none;stroke:#000000;stroke-linecap:square;stroke-linejoin:miter;stroke-width:0.8;"/>
   </g>
   <g id="patch_4">
    <path d="M 709.2 489.8 
L 709.2 10.8 
" style="fill:none;stroke:#000000;stroke-linecap:square;stroke-linejoin:miter;stroke-width:0.8;"/>
   </g>
   <g id="patch_5">
    <path d="M 129.377 489.8 
L 709.2 489.8 
" style="fill:none;stroke:#000000;stroke-linecap:square;stroke-linejoin:miter;stroke-width:0.8;"/>
   </g>
   <g id="patch_6">
    <path d="M 129.377 10.8 
L 709.2 10.8 
" style="fill:none;stroke:#000000;stroke-linecap:square;stroke-linejoin:miter;stroke-width:0.8;"/>
   </g>
  </g>
 </g>
 <defs>
  <clipPath id="p3385bda9c5">
   <rect height="479" width="579.823" x="129.377" y="10.8"/>
  </clipPath>
 </defs>
</svg>
