pred_price,direction,date
147.06,-1.0,2019-02-25
147.75,1.0,2019-03-16
144.39,-1.0,2019-05-27
144.62,1.0,2019-06-10
143.86,-1.0,2019-07-07
144.62,1.0,2019-08-02
144.38,-1.0,2019-08-16
147.66,1.0,2019-10-28
147.07,-1.0,2019-11-14
148.10,1.0,2019-12-07
147.50,-1.0,2020-01-02
147.67,1.0,2020-01-17
146.38,-1.0,2020-02-12
