date,mercury_dist,venus_dist,mars_dist,jupiter_dist,total,mercury_diff,venus_diff,mars_diff,jupiter_diff,total_diff
2019-01-07,2.5152906840462594,0.74256021761677,1.2431738506574237,1.3644595600539866,5.86548431237444,0.3961918474060165,0.9277153996511631,-0.4641441590161089,-0.22757970310434952,0.20650326552985998
2019-01-08,2.533642156473655,0.7544044832530828,1.2340086739588816,1.359455212459318,5.881510526144938,0.3788268076819739,0.9299500340661623,-0.46839582979989813,-0.22299712252569415,0.19676571799499534
2019-01-09,2.5511390677332213,0.7662737134837041,1.2247624689033405,1.354554388077066,5.896729638197332,0.3611862243196073,0.9319101239561101,-0.47253686774845094,-0.21838405797595503,0.18685633132812685
2019-01-10,2.5677684853233296,0.7781645067266209,1.2154375352545317,1.349757714816623,5.911128242121105,0.3432786771848843,0.9336031393472282,-0.47656037389410855,-0.21374301335787899,0.1767823442117163
2019-01-11,2.583517698044085,0.790073547704839,1.2060363080859267,1.345065758526324,5.924693312361175,0.32510873457769796,0.9350358564599796,-0.48045943309271466,-0.20907675415427074,0.16654843269052733
2019-01-12,2.5983740408673985,0.8019976000604045,1.1965613587419868,1.340479018356586,5.937412018026375,0.3066773496160112,0.9362144716062731,-0.4842270810744624,-0.20438825246956147,0.15615698679791046
2019-01-13,2.612324736599027,0.813933500210097,1.1870153971123754,1.33599792334292,5.94927155726442,0.2879822068700072,0.937144698679037,-0.48785623734358174,-0.19968063267154537,0.14560836306572839
2019-01-14,2.6253567520916907,0.8258781519336861,1.1774012752836758,1.3316228296328434,5.960259008941896,0.2690180227379404,0.9378318266693362,-0.49133963477947734,-0.19495714269862843,0.13490109699108618
2019-01-15,2.637456666436052,0.8378285206293431,1.1677219921678235,1.327354017395107,5.970361196628326,0.24977679270339817,0.9382806935330669,-0.49466976972074755,-0.19022116821617593,0.12403205410249274
2019-01-16,2.6486105480773223,0.8497816254589533,1.1579806980936114,1.3231916858644097,5.979564557494296,0.23024797558572463,0.9384955205169512,-0.49783890385236085,-0.1854763157004363,0.11299649029350127
2019-01-17,2.6588038376323366,0.8617345275573065,1.148180697211786,1.31913594451245,5.987855006913879,0.2104186112139737,0.9384796031147967,-0.5008391759443621,-0.1807265850515688,0.1017879990811282
