date,mercury_dist,venus_dist,mars_dist,jupiter_dist,total,mercury_diff,venus_diff,mars_diff,jupiter_diff,total_diff
2019-01-20,2.6834627124908845,0.8975628412267931,1.118463691656593,1.3076076549194235,6.007096900293694,0.1489617701259937,0.9370564615294293,-0.5087526974856273,-0.16649970908988967,0.06703156136166638
2019-01-21,2.689651419791486,0.9094856396614076,1.1084647145983144,1.3039769289724004,6.011578703023607,0.12775259531028998,0.9361160202656016,-0.5110080591362282,-0.16178761038263972,0.05502641763626033
2019-01-22,2.69479324977856,0.9213933830641595,1.098425474875669,1.3004512944138933,6.015063402132282,0.10614205739365112,0.934933977594203,-0.5130657242207447,-0.15710466684244903,0.042784236622191614
2019-01-23,2.6988674636634116,0.9332829191671514,1.0883498799510147,1.2970298950351389,6.017530157816716,0.08410341164275782,0.9335044352695069,-0.5149236944020706,-0.15245987654539692,0.030286189883441443
2019-01-24,2.7018519668484404,0.9451510423139475,1.0782418733596997,1.293711691040348,6.018956573562436,0.061608670289222546,0.931823201501604,-0.5165801261327534,-0.1478614202538432,0.017513164518161543
2019-01-25,2.7037232801536106,0.9569945307511772,1.0681054534890042,1.290495493414335,6.0193187578081275,0.03862925159684562,0.9298890124430419,-0.5180322161480874,-0.14331594728531427,0.00444680472696334
2019-01-26,2.704456537594776,0.9688101879412768,1.0579447087236393,1.2873800040113395,6.018591438271032,0.01513652796770367,0.9277038479076049,-0.5192753650363447,-0.13882832057218084,-0.011714127836066056
2019-01-27,2.704025503472722,0.980594877602058,1.047763859101969,1.284363850966104,6.016748091142853,-0.008910636373736045,0.9252724388334691,-0.5203028445014971,-0.13440182510526955,-0.02968874449867238
2019-01-28,2.7024026047942673,0.9923455467939689,1.0375672954318096,1.2814456136740084,6.013761060694054,-0.033549687264205576,0.9226013288502689,-0.5211059271941237,-0.13003863274360827,-0.048108781275381776
2019-01-29,2.69955898107918,1.0040592372301564,1.027359611106742,1.2786238368181175,6.009601666234196,-0.05878536202217742,0.9196979495948033,-0.5216742597593329,-0.1257402902915145,-0.0669907460728424
2019-01-30,2.6954645590050212,1.0157330879488098,1.017145625931197,1.2758970361656388,6.004240309050667,-0.08464273336305271,0.9165699425223754,-0.5219962712365652,-0.12150808625918733,-0.08634942445440265
