pred_price,direction,date
865.42,-1.0,2020-03-27
867.13,1.0,2020-04-18
864.08,-1.0,2020-05-10
866.05,1.0,2020-05-28
863.56,-1.0,2020-06-22
865.87,1.0,2020-07-17
863.93,-1.0,2020-08-04
867.48,1.0,2020-08-27
866.30,-1.0,2020-09-15
869.41,1.0,2020-10-13
867.36,-1.0,2020-10-31
870.75,1.0,2020-11-22
869.21,-1.0,2020-12-13
871.81,1.0,2021-01-08
868.80,-1.0,2021-01-28
870.89,1.0,2021-02-15
