pred_price,direction,date
116.99,1.0,2020-03-05
115.26,-1.0,2020-05-10
115.80,1.0,2020-05-31
115.42,-1.0,2020-06-27
115.46,1.0,2020-07-08
114.59,-1.0,2020-08-05
115.44,1.0,2020-08-31
115.34,-1.0,2020-09-16
115.59,1.0,2020-10-08
114.94,-1.0,2020-10-31
116.49,1.0,2021-01-04
115.70,-1.0,2021-01-28
116.58,1.0,2021-02-21
