name,value,min,max
G,-0.001420881271161023,-0.006774029660572611,0.012270491803278771
A,0.0036380172805821065,-0.01943205504628287,0.03179510844485467
F,0.009988186016539613,-0.013721127357490981,0.012461728527689786
A,0.008136782016107569,-0.017125708134439477,0.01127817486656535
