pred_price,direction,date
2.95,-1.0,2020-08-03
3.09,1.0,2020-09-04
3.09,-1.0,2020-09-10
3.15,1.0,2020-10-10
3.07,-1.0,2020-10-31
3.21,1.0,2020-11-29
3.20,-1.0,2020-12-10
3.25,1.0,2021-01-05
3.15,-1.0,2021-01-28
3.24,1.0,2021-02-18
3.18,-1.0,2021-03-18
3.18,1.0,2021-03-28
3.02,-1.0,2021-04-27
3.09,1.0,2021-05-17
3.04,-1.0,2021-06-12
3.05,1.0,2021-06-27
2.96,-1.0,2021-07-21
3.23,1.0,2021-09-26
3.14,-1.0,2021-10-18
3.26,1.0,2021-11-14
3.25,-1.0,2021-11-27
3.31,1.0,2021-12-22
3.18,-1.0,2022-01-15
3.28,1.0,2022-02-06
3.03,-1.0,2022-04-14
3.10,1.0,2022-05-04
3.03,-1.0,2022-06-01
3.04,1.0,2022-06-14
2.94,-1.0,2022-07-08
