name,value,min,max
G,-0.0012921259427245424,-0.017400796616006353,0.013399971027089563
A,-0.012304937324123855,-0.012304937324123855,0.02329013389143797
F,0.002705177293158112,-0.02476843350879343,0.011292867225774383
A,-0.00298118562782701,-0.030000000000000027,0.032949164424509236
