date,mercury_dist,venus_dist,mars_dist,jupiter_dist,total,mercury_diff,venus_diff,mars_diff,jupiter_diff,total_diff
2020-07-12,0.826291764451769,0.5041458295319028,1.0246181340093552,3.3039312033594297,5.658986931352457,-0.1392527119852705,0.26659689039283063,-0.37411421688811697,-0.41615631273409454,-0.2863445253548839
2020-07-13,0.8183896531864335,0.5074894581216653,1.0175017132441055,3.2946283867447756,5.63800921129698,-0.1633579256663278,0.2625242979540491,-0.3636920399008304,-0.4145398170706893,-0.30034250762625103
2020-07-14,0.8092766250460293,0.5107805410726474,1.0105910988576294,3.285366771903099,5.616015036879405,-0.1883908393046545,0.2583986881379215,-0.35317409215858114,-0.4127038381257606,-0.31489530226708107
2020-07-15,0.7989067193539395,0.514018620838725,1.0038880200730689,3.2761513975067453,5.592964757772479,-0.21437388393230997,0.254237154183772,-0.34256777068005256,-0.4106433325241282,-0.3300157791290499
2020-07-16,0.787232936238124,0.5172034540553584,0.997394047069599,3.2669874151722413,5.568817852535323,-0.24132854251796917,0.25005651251379,-0.33188120357158596,-0.40835326739648814,-0.345716410132344
2020-07-17,0.774207351609729,0.5203350104648607,0.9911105746927964,3.2578800902422063,5.543533027009593,-0.2692739211127113,0.24587349516786164,-0.3211233514379876,-0.4058285750310331,-0.3620082584383374
2020-07-18,0.7597813142286716,0.5234134737514705,0.9850388031112691,3.248834802076867,5.5170683931682785,-0.29822505189116677,0.24170489975142073,-0.3103041634469848,-0.4030641747258383,-0.37889982659177174
2020-07-19,0.7439057404284743,0.5264392428992953,0.9791797153286301,3.2398570417638526,5.489381740420252,-0.32819087427172816,0.23756763048857057,-0.2994347380401493,-0.4000550878321224,-0.3963957328121791
2020-07-20,0.7265315245603063,0.5294129321303345,0.9735340527358333,3.2309524045557287,5.4604309139822025,-0.35917184268885805,0.23347858673726135,-0.28852742308219465,-0.3967966726896279,-0.41449517808709907
2020-07-21,0.7076100863426081,0.5323353667616892,0.9681022915750297,3.2221265747140007,5.430174319393327,-0.3911570963858781,0.22945434258518957,-0.2775957692767834,-0.39328496299967647,-0.43319014015926044
2020-07-22,0.6870940788308907,0.5352075727204436,0.9628846247049695,3.213385301573499,5.398571577829803,-0.4241211389633203,0.22551064888309644,-0.26665425922557906,-0.3895170590507392,-0.45246321449384747
