pred_price,direction,date
120.22,-1.0,2020-12-16
120.49,1.0,2021-01-03
118.74,-1.0,2021-02-02
118.84,1.0,2021-02-11
115.39,-1.0,2021-04-27
116.13,1.0,2021-05-21
116.04,-1.0,2021-06-05
116.37,1.0,2021-06-30
115.81,-1.0,2021-07-20
119.16,1.0,2021-09-28
118.52,-1.0,2021-10-16
120.32,1.0,2021-11-15
120.25,-1.0,2021-11-27
121.00,1.0,2021-12-24
119.96,-1.0,2022-01-16
120.30,1.0,2022-01-29
113.20,-1.0,2022-05-31
119.88,1.0,2022-09-27
119.88,-1.0,2022-09-29
121.47,1.0,2022-10-28
121.19,-1.0,2022-11-15
