date,mercury_dist,venus_dist,mars_dist,jupiter_dist,total,mercury_diff,venus_diff,mars_diff,jupiter_diff,total_diff
2020-11-30,2.143423211802569,1.356176015519442,0.9388162551834786,4.184683991040618,8.623099473546109,0.6280145885194516,0.8713191965415092,-0.21064730323456235,0.9791984041206572,0.7339591636857977
2020-12-01,2.1730670209958087,1.3672586894312233,0.9345581497685601,4.207127122715837,8.682010982911429,0.6119328925609295,0.8701538193982062,-0.2176148791193332,0.9819144094592733,0.723300313289956
2020-12-02,2.2019083883932344,1.3783234281539034,0.9301634787364703,4.229627778961212,8.74002307424482,0.5953682019024776,0.8687456417849092,-0.22459420616193743,0.9844311796298015,0.712257490736594
2020-12-03,2.2299273306790406,1.3893671211421115,0.9256319942298814,4.2521814571075955,8.79710790315863,0.578390998527991,0.8670932403537513,-0.2315862002095043,0.9867509525283159,0.7008728019752202
2020-12-04,2.2571066719222133,1.4003866395333116,0.920963424245031,4.274783694191077,8.853240429891633,0.5610592348782288,0.8651951769363526,-0.23859209529053732,0.9888754653073051,0.6891806814856337
2020-12-05,2.2834315178851914,1.411378837359844,0.9161574679399896,4.297430053754613,8.908397876939638,0.5434200116231973,0.8630501085275057,-0.24561336520937124,0.9908058776745566,0.6772089046759683
2020-12-06,2.3088888014439184,1.4223405542652463,0.9112137927952092,4.320116111267253,8.962559259771627,0.5255110456043641,0.8606569053933907,-0.25265162888346526,0.9925427114113153,0.6649794852083081
2020-12-07,2.3334668899226623,1.4332686199190552,0.9061320339020985,4.342837438362496,9.015704982106312,0.5073619479323244,0.8580147844273954,-0.2597085415883391,0.9940857987074458,0.6525094676546842
2020-12-08,2.3571552464133028,1.4441598606555837,0.900911795909449,4.365589585966345,9.067816488944679,0.4889953383803963,0.8551234837651511,-0.26678565912542695,0.9954342335847502,0.6398116366102001
2020-12-09,2.3799441387077027,1.4550111093344023,0.8955526587301702,4.388368066588468,9.118875973360744,0.4704278282546737,0.8519835157358785,-0.27388424564755004,0.9965863352817121,0.6268951767225346
2020-12-10,2.4018243911383594,1.465819219749689,0.8900541887989148,4.4111683368763455,9.16886613656331,0.451670906143484,0.848596524015906,-0.28100498997494644,0.9975396597593813,0.6137663267394932
