name,value,min,max
G,-0.017977690990313322,-0.051833780305136856,0.04395905857423954
A,-0.015923566878980888,-0.034301620796480026,0.021897810218978186
F,-0.03696588274262991,-0.054083813718505014,0.033620925773760524
A,-0.07819680501860093,-0.07819680501860093,0.07088691263069347
