pred_price,direction,date
74.49,1.0,2018-11-09
74.01,-1.0,2018-11-27
75.33,1.0,2018-12-26
75.27,-1.0,2019-01-06
76.04,1.0,2019-02-05
75.46,-1.0,2019-02-24
76.64,1.0,2019-03-22
76.46,-1.0,2019-04-07
76.94,1.0,2019-05-02
76.08,-1.0,2019-05-24
76.93,1.0,2019-06-15
76.64,-1.0,2019-07-04
77.38,1.0,2019-07-31
76.91,-1.0,2019-08-18
78.29,1.0,2019-09-14
78.19,-1.0,2019-09-28
79.01,1.0,2019-10-27
78.40,-1.0,2019-11-14
79.61,1.0,2019-12-09
79.36,-1.0,2019-12-27
80.00,1.0,2020-01-21
79.16,-1.0,2020-02-11
80.06,1.0,2020-03-04
79.53,-1.0,2020-03-27
79.91,1.0,2020-04-16
78.81,-1.0,2020-05-10
79.55,1.0,2020-05-29
78.95,-1.0,2020-06-22
79.48,1.0,2020-07-15
78.78,-1.0,2020-08-04
80.06,1.0,2020-08-29
79.86,-1.0,2020-09-14
80.82,1.0,2020-10-13
80.25,-1.0,2020-10-30
