get_type,hash,hash_get,date,size
DUBS,000000000000000000097ce389e583b25752000cccfdf5cf28ea7f082c6fab,22,2020-06-23 00:07:39,1192896
DUBS,000000000000000000119293818930fc6b50dc2fbbad3f79ee579eb8208077,33,2020-06-23 05:33:00,1298523
DUBS,0000000000000000000259f479db96fcef31a68c4f63cbf6ca2891f2e035bb,55,2020-06-23 06:23:28,1349338
DUBS,00000000000000000005dcdbeaed2929ef660a7baca54d47a28384e19ca2e7,55,2020-06-23 10:38:58,1168428
DUBS,000000000000000000018c0f37deddeedbb55fd21b63f297ea6ec532c2ae45,44,2020-06-23 13:03:48,1280596
DUBS,00000000000000000004ab1f43647f100f5de1b382b0803925975f943d5bb8,33,2020-06-23 15:04:27,1443820
DUBS,0000000000000000000b13e6836be1746bde68340c48198ee88a7a0de6a97a,ff,2020-06-23 16:18:16,1673653
DUBS,0000000000000000000342e9175531e43bf883d778ea35f2824d96ca7dfec0,77,2020-06-23 17:56:28,1328373
DUBS,0000000000000000000d0dae603418df6741b8d3e52988bb5c4bb2660cdd7f,99,2020-06-23 19:38:38,1337561
