get_type,hash,hash_get,date,size
DUBS,0000000000000000000eac56da0d4a43b49dab7e2206ab7a1148c2dd84ed67,22,2020-12-26 12:39:21,1247858
DUBS,0000000000000000000ee455dc5c0fbebc33c9f184d5687ebfec872080019a,99,2020-12-26 13:37:17,1343462
DUBS,0000000000000000000b8937ca81c5e53e95477b4fb91f8fa8dedcd0fefb47,33,2020-12-26 15:30:53,1951240
DUBS,000000000000000000090b03e956704da2e6aaaebb6dd12f622b99d279039c,11,2020-12-26 18:56:00,1302411
DUBS,0000000000000000000c15de2cbe0daf1bcbf204d74a059db1e994f72384e4,bb,2020-12-26 20:02:15,1197872
