pred_price,direction,date
868.66,1.0,2020-04-16
864.82,-1.0,2020-05-10
867.56,1.0,2020-05-30
865.80,-1.0,2020-06-22
867.37,1.0,2020-07-15
864.65,-1.0,2020-08-04
869.02,1.0,2020-08-29
868.31,-1.0,2020-09-15
870.62,1.0,2020-10-11
867.83,-1.0,2020-10-31
872.03,1.0,2020-11-24
871.07,-1.0,2020-12-13
873.04,1.0,2021-01-06
869.27,-1.0,2021-01-28
872.12,1.0,2021-02-17
869.26,-1.0,2021-03-17
869.70,1.0,2021-03-31
864.53,-1.0,2021-04-27
866.73,1.0,2021-05-15
864.00,-1.0,2021-06-11
865.24,1.0,2021-07-01
862.35,-1.0,2021-07-22
867.24,1.0,2021-08-17
866.77,-1.0,2021-08-31
869.48,1.0,2021-09-28
866.35,-1.0,2021-10-18
870.51,1.0,2021-11-10
869.25,-1.0,2021-11-30
871.09,1.0,2021-12-23
866.85,-1.0,2022-01-15
869.60,1.0,2022-02-03
866.31,-1.0,2022-03-04
866.81,1.0,2022-03-18
