name,value,min,max
G,-0.04528256457881885,-0.04528256457881885,0.07198353144299086
A,-0.04140225971211886,-0.063485578887164,0.10032535543967547
F,-0.04010040406514026,-0.04010040406514026,0.08696826468602303
A,-0.028325381362216184,-0.028325381362216184,0.03693314385101609
