name,value,min,max
G,0.014701507726511132,-0.008295358849038648,0.014701507726511132
A,0.001517376407244253,-0.009075111025294458,0.01442331198357194
F,0.017181053840931604,-0.009158646383110702,0.05849490634242516
A,-0.006254389607460165,-0.011446274762575537,0.025433039821264325
