date,mercury_dist,venus_dist,mars_dist,jupiter_dist,total,mercury_diff,venus_diff,mars_diff,jupiter_diff,total_diff
2020-02-08,2.242497522826477,1.3109093013048432,3.1107645885145176,3.4541012905529556,10.118272703198794,-0.6664059215009255,-0.6987255102724076,-0.5891991121067511,0.5402420578545417,-0.6515510193272146
2020-02-09,2.210077621220852,1.301765827556238,3.099129313686683,3.4662807814389165,10.077253543902689,-0.6702066952453227,-0.7069379804852601,-0.594632748193545,0.5328675949747093,-0.6606500323656737
2020-02-10,2.177750590254866,1.292518128129664,3.0873886725474597,3.4782909415415197,10.03594833247351,-0.6682868089595884,-0.7149963062730116,-0.6000176024608449,0.5254591664839094,-0.6652571563101047
2020-02-11,2.145810047612059,1.283168169150196,3.075543549844534,3.4901309126226803,9.99465267922947,-0.6602970542410219,-0.7229026188841587,-0.6053572407830436,0.5180131890291524,-0.665103213239841
2020-02-12,2.1145589637139697,1.2737178606479067,3.063594796300261,3.5017997326696064,9.953671353331744,-0.6460440848018804,-0.7306612553669992,-0.6106534020598331,0.5105251223403362,-0.6600406918454532
2020-02-13,2.084300860934552,1.26416904230319,3.051543273290458,3.513296333016711,9.913309509544911,-0.6255164902989245,-0.7382776548863035,-0.6159055418350189,0.5029903002274567,-0.6500633816413012
2020-02-14,2.0553303153283164,1.2545234866928792,3.0393898954498355,3.524619554998376,9.873863252469407,-0.5988992152536419,-0.7457570056294632,-0.6211109382578022,0.49540478507928637,-0.6353170435677487
2020-02-15,2.027923445237663,1.244782916863385,3.027135662229752,3.535768179806893,9.835610204137694,-0.5665738302946544,-0.7531031370969598,-0.6262652566857329,0.487765945605948,-0.6160993558156908
2020-02-16,2.0023291040902667,1.2349490313212508,3.0147816747911405,3.5467409627343165,9.798800772936975,-0.5291039746524663,-0.7603179466163107,-0.631363299145815,0.48007264864047033,-0.5928486183388492
2020-02-17,1.9787614305913028,1.2250235297423389,3.0023291396579257,3.5575366646862774,9.763650764677845,-0.48720729515171857,-0.7674013437802756,-0.6363996809534849,0.4723251397836489,-0.5661221364001164
2020-02-18,1.957394259898865,1.2150081352317859,2.9897793635388084,3.5681540772067533,9.730335835876213,-0.4417169746757323,-0.774351517128117,-0.6413692820621731,0.4645247595005668,-0.536566550088896
