name,value,min,max
G,-0.006742898332295799,-0.051170671775193854,0.037647726998090825
A,-0.013128910036126484,-0.08006088280060886,0.039886544938840585
F,-0.005520534148979683,-0.040922434831818344,0.023896561061467647
A,-0.018547388909360696,-0.04628410426312135,0.03770667716455445
