get_type,hash,hash_get,date,size
DUBS,00000000000000000006c4fdf7068e9283bf46ec0e965defb6c579a3315180,44,2021-03-03 02:12:14,1370373
DUBS,0000000000000000000a8c6d1c3793a592c8d73e87b0252a7db98e3723081f,66,2021-03-03 05:00:15,1443461
DUBS,0000000000000000000b68803e49c113872254dfe9e4f901ee3a9614dd1eaf,99,2021-03-03 06:29:16,1199979
DUBS,0000000000000000000a24d65fd00a3f691154690090f2eda2c74aafcf09c4,cc,2021-03-03 06:37:55,1542696
DUBS,000000000000000000060e7d31077308d513414ae5851bc660275f4619b304,ee,2021-03-03 08:27:22,1199231
DUBS,0000000000000000000c6d244fcbe466052076bc585bba97d1fccd74d65d0d,44,2021-03-03 08:48:03,1138368
DUBS,000000000000000000034257886f7cf786b3d9068fbaf3b9367ca1a29ea5ca,cc,2021-03-03 13:22:20,1358734
DUBS,0000000000000000000b71ffc4b39b7814a75fb372ef47e47fc96dc480fa64,55,2021-03-03 16:23:48,1253941
DUBS,00000000000000000005b6266fc291a889caff9be7f0852a15d7c451cc3bb4,33,2021-03-03 20:34:17,1416492
DUBS,00000000000000000004b153b54c34e9ae5ab1802ca4ebd6dd9e285c592e47,aa,2021-03-03 20:52:49,1357337
