date,mercury_dist,venus_dist,mars_dist,jupiter_dist,total,mercury_diff,venus_diff,mars_diff,jupiter_diff,total_diff
2020-10-31,1.3468154724632844,1.0305914544569919,1.005325632003234,3.563093799269531,6.945826358193041,-0.07430589953960498,0.7922516745995284,-0.01691808408935858,0.7931226016996455,0.2982638031201923
2020-11-01,1.3459816516896848,1.0407635251901046,1.0048849296202003,3.581438140429158,6.973068246929147,-0.01723732144816119,0.7986580016757108,-0.022522550868629507,0.8025873205816237,0.33446888171286787
2020-11-02,1.34814244123323,1.051013974560166,1.0043332980089854,3.5999938896363513,7.003483603438733,0.04460486798365104,0.8048118839285885,-0.02819170374982896,0.8118366807504656,0.3734319003063921
2020-11-03,1.3534674143669339,1.061339528880483,1.0036694736447975,3.6187561360161267,7.037232552908341,0.10992265505675343,0.8107087333568654,-0.03392543037170931,0.820871184143541,0.41436089462926595
2020-11-04,1.3620525703339235,1.071736860167908,1.0028921889599824,3.637719976349751,7.074401595811565,0.17722214070804257,0.8163442868858358,-0.03972393734892609,0.8296911657311666,0.45635191945050513
2020-11-05,1.3739161458087306,1.0822025903969223,1.0020001667156302,3.656880510186736,7.11499941310802,0.24489808341059002,0.8217146154491831,-0.0455877189410046,0.8382967466274491,0.4984495268542592
2020-11-06,1.3889998069814709,1.0927332957775304,1.0009921148406364,3.67623283396956,7.158958051569198,0.31136984965983827,0.8268161258586147,-0.05151753316257072,0.8466877908958497,0.5397128220498004
2020-11-07,1.407174904468147,1.1033255111204208,0.9998667214765862,3.6957720339773266,7.20613917104248,0.375185925165616,0.8316455676555135,-0.05751439126459217,0.854863853876381,0.5792776125421292
2020-11-08,1.4282527953469903,1.1139757347108785,0.9986226500797452,3.7154931774681366,7.256344357605751,0.4351078719504023,0.8362000730554892,-0.06357955481582725,0.8628241033768829,0.6164063280879275
2020-11-09,1.4519978019181585,1.1246804346478922,0.997258534901228,3.7353913009798085,7.309328072447087,0.49016475785058444,0.840477271987793,-0.06971451637571864,0.8705671953475392,0.6505203814479854
2020-11-10,1.4781412496359982,1.1354360582017666,0.9957729780713019,3.755461394608738,7.364811680517805,0.5396754337206268,0.844475529092675,-0.0759209175133682,0.8780910979193913,0.6812134255659049
