get_type,hash,hash_get,date,size
DUBS,000000000000000000071065ee9c044aa73fa651bd60c5de2cbc9a5bd20a09,22,2020-11-04 05:47:52,1428479
DUBS,0000000000000000000881da93d74c9cc443c184b6d88a4c582fa33ab9ebd4,00,2020-11-04 09:28:52,1246205
