get_type,hash,hash_get,date,size
DUBS,0000000000000000000e2a11bb33c63f29eda85817d54a2ba3d851f3775a55,ee,2020-05-29 05:43:33,1415050
DUBS,00000000000000000011a15a0e633b6fe54a43e59d9393681cf9b9e0540cc5,cc,2020-05-29 07:14:21,1136546
DUBS,00000000000000000011cb239c754b1596a0af0f06afcce19195a02197d22a,66,2020-05-29 15:59:30,1335705
DUBS,00000000000000000008132dfa87c5b00a28df184c06dda1f4093d7c9aa681,88,2020-05-29 17:25:05,1279185
TRIPS,000000000000000000048dfc86c250f48c608d01733bf6dd213be33e60684,bbb,2020-05-29 18:36:00,1232242
DUBS,0000000000000000000fc6a11062f75c4de80c97490dacfdad852c611fdce5,dd,2020-05-29 19:34:48,1239153
