name,value,min,max
G,-0.003106578242229374,-0.03184168121391173,0.017456869009584652
A,-0.0012918042198937219,-0.046220465028711355,0.01899921042242414
F,0.000538880206929937,-0.02356624917600525,0.020961707746478986
A,-0.00565942678011655,-0.031003544528134697,0.012554910018421461
