get_type,hash,hash_get,date,size
DUBS,0000000000000000000faa9640df89fe95444e632cdd4665965a920ae8bd82,77,2019-08-31 22:23:04,1210177
DUBS,0000000000000000000075ee22662ccc9ca20a7647dd6de24d113e791b53c0,44,2019-08-31 19:07:30,195423
DUBS,000000000000000000108d1bb1f8ac814210d2bdae3bff447ac0b1432541f0,ee,2019-08-31 19:07:16,1342276
TRIPS,000000000000000000161b9fe1eb15e087143b6d44713e08646f30f200032,fff,2019-08-31 18:09:59,1316690
DUBS,000000000000000000109cc2b40b7cc61f689c06ad9fffd9654eafa544dcb4,33,2019-08-31 17:49:24,1334048
TRIPS,0000000000000000000a103174724a4a12e4b88b7672675fe07919abee5d6,888,2019-08-31 15:04:13,615075
DUBS,0000000000000000001aef28b9947357a996a64c74195477259088f8cd988a,66,2019-08-31 12:53:11,1237415
DUBS,0000000000000000000e49f3f95f4abf38611575b76eb08999f75eeef9220a,00,2019-08-31 12:10:57,1278864
DUBS,00000000000000000019567518007bba6ff5af3d68436a0d43c7f7b9ea5adf,11,2019-08-31 11:12:13,1033885
DUBS,00000000000000000006aa1564cfccd48e3dcafa74366ea16e17f3a0929298,dd,2019-08-31 08:11:30,1172803
DUBS,000000000000000000028341ea35edee344f8d6410e4f031567a68f0908c71,88,2019-08-31 03:13:27,911713
