name,value,min,max
G,0.006858142317960114,-0.004317100668188245,0.01967053523707718
A,0.006277887309328545,-0.007262425959309815,0.026616996004751092
F,0.04235371973749502,-0.017181358787198175,0.04235371973749502
A,0.00875020725582587,-0.004496431829157155,0.03137420109421685
