name,value,min,max
G,-0.0012013437252038628,-0.0012013437252038628,0.00936727557725936
A,0.01359316289692769,-0.01400022163939263,0.01931621357029889
F,-0.013418043202032992,-0.02724216355186393,0.00847712680577839
A,0.0003465259354780148,-0.011478454469554533,0.006639141772267765
