name,value,min,max
G,0.0033508147731726723,-0.004269861100903882,0.010268251575876075
A,0.0010009294344748287,-0.002389358439428002,0.017117935671452145
F,0.017580246913580178,-0.02724216355186393,0.020716769998487816
A,0.0046243616979535496,-0.0037025454301766736,0.012124055369345577
