pred_price,direction,date
3.12,1.0,2019-10-30
3.09,-1.0,2019-11-13
3.20,1.0,2019-12-09
3.18,-1.0,2019-12-25
3.26,1.0,2020-01-22
3.19,-1.0,2020-02-11
3.29,1.0,2020-03-06
3.27,-1.0,2020-03-24
3.33,1.0,2020-04-17
3.23,-1.0,2020-05-09
3.33,1.0,2020-06-01
3.31,-1.0,2020-06-20
3.37,1.0,2020-07-15
3.29,-1.0,2020-08-03
3.46,1.0,2020-09-01
3.45,-1.0,2020-09-13
3.52,1.0,2020-10-10
