date,mercury_dist,venus_dist,mars_dist,jupiter_dist,total,mercury_diff,venus_diff,mars_diff,jupiter_diff,total_diff
2020-11-13,1.5680580799527502,1.1679729771509524,0.9905732803573047,3.8166522516766763,7.543256589137684,0.6521783588840676,0.8548002304505141,-0.0949816821046172,0.8993132169935562,0.7511175774982656
2020-11-14,1.6008950592042066,1.1788969859943044,0.9885875658454935,3.8373584413705393,7.605738052414544,0.6778490431280166,0.8576962648046271,-0.10148199289274651,0.9059210773089487,0.7671312863963432
2020-11-15,1.634712148406484,1.1898545478176148,0.9864733166522514,3.8582101236029476,7.669250136479297,0.6980813119745705,0.8603306699937928,-0.10805089066221245,0.9122865534882032,0.7797849825381783
2020-11-16,1.6692664169189217,1.2008424432622167,0.984229313317309,3.8792016539693956,7.733539827467843,0.7132987985216588,0.8627123079119563,-0.11468211020938572,0.9184050800796268,0.7893322397321554
2020-11-17,1.7043373361489944,1.2118575615435363,0.981854492726609,3.9003273286288715,7.7983767190480116,0.7239639450291485,0.864849703231295,-0.12136766129947765,0.9242740566635047,0.7960506274227277
2020-11-18,1.739727302466957,1.222896878886643,0.9793479608582798,3.921581439369461,7.863553581581341,0.7305499882087878,0.8667496874956967,-0.12809890230151916,0.9298932920075251,0.8002247030758545
2020-11-19,1.7752611605867767,1.2339574273985157,0.9767089833712906,3.9429583247278264,7.9288858960844095,0.7335203259933887,0.8684166482615769,-0.13486767256108112,0.9352648314189835,0.802133302254951
2020-11-20,1.8107850458901988,1.2450362642124666,0.9739369608161166,3.9644524067595563,7.994210677678338,0.733314458577856,0.8698525504662615,-0.14166707830830477,0.940392328952872,0.8020408151399601
2020-11-21,1.8461648086601252,1.2561304479633824,0.9710313983191076,3.9860582104607074,8.059384865403324,0.7303393578332003,0.8710575120055339,-0.14849177508499883,0.9452802883803227,0.8001918624690896
2020-11-22,1.8812842224129318,1.2672370249272102,0.9679918776822469,4.0077703689619115,8.1242834939843,0.7249650104919737,0.8720305625198725,-0.15533784430365374,0.9499334407210258,0.7968086183910025
2020-11-23,1.9160431218084635,1.2783530234891027,0.9648180358238441,4.029583620101687,8.188797801223096,0.7175229644303869,0.87277029731727,-0.16220246918744882,0.9543563670728374,0.7920900201035229
