date,mercury_dist,venus_dist,mars_dist,jupiter_dist,total,mercury_diff,venus_diff,mars_diff,jupiter_diff,total_diff
2019-08-23,0.20599168288419656,1.4301498075750427,2.9999053985295006,0.4073192814807899,5.04336617046953,0.5947531233014356,-0.034502376833606005,0.7250388094095882,0.3138556385911509,0.5966090666928894
2019-08-24,0.2421642622197321,1.4298173205012055,3.0128455164631256,0.4151935707674429,5.100020669951506,0.7467053561788074,-0.025706612932729734,0.7187261944178732,0.3445097692178995,0.6955893280756762
2019-08-25,0.28298805418517126,1.429598445267729,3.0256707198099373,0.42374238407320314,5.161999603336041,0.8427196699842818,-0.016922585418442233,0.7123435536964282,0.37402101851228936,0.7609613538552585
2019-08-26,0.3267044040076489,1.4294928765748676,3.0383797025395043,0.4329383521949875,5.227515335317008,0.9024303260829991,-0.008162162498181401,0.7058883728106248,0.4023348317594894,0.804385254546734
2019-08-27,0.37219205355212853,1.4295001625456052,3.050971118047945,0.4427533548216512,5.29541668896733,0.938995011657345,0.0005720564654415043,0.6993583982105542,0.42941834706484855,0.8336753019251777
2019-08-28,0.41871404471720725,1.4296197194028184,3.0634435927182126,0.4531589446265022,5.36493630146474,0.9603467770665991,0.009386981586887102,0.692752129518161,0.45525725709895654,0.8535438665474355
2019-08-29,0.46576433933168165,1.4298508552117053,3.0757957512178438,0.4641266969474274,5.435537642708658,0.9712524692400064,0.01814757959238003,0.6860694714549043,0.47985255346480826,0.8668250530166972
2019-08-30,0.5129806493429099,1.430192800789883,3.0880262536218375,0.47562849274568114,5.506828196500312,0.9746795012139869,0.02684778540428806,0.6793123906389708,0.5032176075578318,0.8752870268645766
2019-08-31,0.5600946574971861,1.4306447414806456,3.100133838591821,0.48763675055571315,5.578509988125366,0.9725676986846594,0.03548402861567358,0.6724852519662814,0.5253759388616001,0.8800905440457576
2019-09-01,0.6069026534209352,1.4312058404290242,3.1121173617818245,0.5001246251464767,5.65035048077826,0.966250732192685,0.044054566334569126,0.6655945534846317,0.5463597585344345,0.8820390343215447
2019-09-02,0.6532474106086478,1.4318752454689339,3.1239758177541384,0.5130661837493017,5.722164657581021,0.9566881615454729,0.052558196411898926,0.6586480105027447,0.5662089879192448,0.8817159351029548
