pred_price,direction,date
19.86,1.0,2020-05-30
19.63,-1.0,2020-06-23
19.82,1.0,2020-07-15
19.52,-1.0,2020-08-04
19.98,1.0,2020-08-28
19.87,-1.0,2020-09-15
20.20,1.0,2020-10-13
19.98,-1.0,2020-10-30
20.49,1.0,2020-11-25
20.43,-1.0,2020-12-09
20.95,1.0,2021-01-11
20.77,-1.0,2021-01-26
21.23,1.0,2021-02-18
21.06,-1.0,2021-03-11
21.44,1.0,2021-04-07
21.14,-1.0,2021-04-25
21.47,1.0,2021-05-15
