get_type,hash,hash_get,date,size
DUBS,000000000000000000292ae366f7679198ad16d3e1ba9b5c748824bfc8545c,dd,2019-03-18 22:42:53,334
DUBS,0000000000000000002b209dfda6772a044f8cb700000c4a035e3db8beb4fb,cc,2019-03-18 22:07:17,1377081
DUBS,0000000000000000002d88cedb27473b128f57227d914b53f853af2f4c1335,bb,2019-03-18 17:16:02,1280621
DUBS,00000000000000000006e9dc17aadf1073935becc32290417f0a3dd0b43368,aa,2019-03-18 14:39:00,118102
DUBS,0000000000000000001b4b6b3f64a5f38cf1d719f8a3bb7fe66551657e7c93,dd,2019-03-18 13:06:02,154229
DUBS,000000000000000000040cdb70d414dfc024cd8734efe84bab3701712a035d,33,2019-03-18 12:31:37,1201517
DUBS,00000000000000000012b58d906507919be39b87666ed4e3e2ca8c06fda826,aa,2019-03-18 09:14:26,1279627
DUBS,0000000000000000002171e69e5d542ba9bb917edb2966315cf866e125d2f3,dd,2019-03-18 07:12:37,1174129
DUBS,0000000000000000002595fdd94952d5b47403f96cc2aedb310cb68fe69f5d,33,2019-03-18 06:58:04,1209353
TRIPS,000000000000000000186d9e5244fe7115da684383caef3aee41bde9e6184,333,2019-03-18 05:46:36,1155429
DUBS,0000000000000000002b357c7e82a385615b2620b945c7c7861b516c302927,88,2019-03-18 05:05:47,91263
DUBS,0000000000000000000f3cf646b08a7e76677286f435cf3f28c9f37eb9ae4b,22,2019-03-18 02:37:21,121200
