pred_price,direction,date
83.28,-1.0,2020-08-05
84.41,1.0,2020-08-31
84.25,-1.0,2020-09-16
84.54,1.0,2020-10-07
83.36,-1.0,2020-11-01
84.63,1.0,2020-11-28
84.54,-1.0,2020-12-11
85.04,1.0,2021-01-05
84.20,-1.0,2021-01-26
86.98,1.0,2021-04-05
86.18,-1.0,2021-04-24
87.86,1.0,2021-05-21
87.61,-1.0,2021-06-09
87.84,1.0,2021-06-27
86.17,-1.0,2021-07-23
87.18,1.0,2021-08-13
83.62,-1.0,2021-10-21
84.33,1.0,2021-11-10
84.04,-1.0,2021-11-29
84.62,1.0,2021-12-24
83.83,-1.0,2022-01-13
85.78,1.0,2022-02-13
85.74,-1.0,2022-02-23
86.21,1.0,2022-03-19
84.75,-1.0,2022-04-13
85.47,1.0,2022-05-01
84.18,-1.0,2022-06-05
84.20,1.0,2022-06-13
83.09,-1.0,2022-07-09
