name,value,min,max
G,-0.008182296071126527,-0.010273407621818609,0.018630409044036123
A,-0.011641443538998875,-0.011641443538998875,0.011879378617118519
F,-0.00933172787477421,-0.00933172787477421,0.02563155951690299
A,-0.0036513216072660004,-0.013998875140607492,0.007496450108939845
