name,value,min,max
G,0.013164866889583404,-0.012775174185139515,0.037547040711597646
A,-0.005291005291005346,-0.025398800769317886,0.038452708907254385
F,0.013916931064320792,-0.02291944815309299,0.03529947620132101
A,0.011705515753748008,-0.009672123581652703,0.060913609287855275
