name,value,min,max
G,0.005739369633400049,-0.005064456721915134,0.030978672907670424
A,0.002809278350515365,-0.013801692804310872,0.021073940463522955
F,-0.007776628748707326,-0.014953956482764208,0.01400652811634906
A,-0.012229589999649515,-0.02436121919584955,0.07929519880349911
