get_type,hash,hash_get,date,size
DUBS,000000000000000000050c93f549fca671f53280b0076e8f2f95518cc7a229,22,2020-08-30 07:59:00,1676991
DUBS,000000000000000000010d5159f668fa157f8a43d08ea9342fef97b9412419,77,2020-08-30 12:20:45,1609978
DUBS,0000000000000000000f68e598cb286f1b7aa698dfcbdb7fd4ebba5f0078e6,88,2020-08-30 13:45:10,1217070
DUBS,000000000000000000049fcf345ba799b748c14f69f9f87c9f0d5231b269e2,44,2020-08-30 15:45:14,1546037
DUBS,000000000000000000009a90677e80a8566189f3b83c9a63a4926e75399b5a,bb,2020-08-30 18:12:20,1319292
