pred_price,direction,date
142.37,-1.0,2019-05-26
143.20,1.0,2019-06-17
142.97,-1.0,2019-07-07
143.18,1.0,2019-07-25
142.30,-1.0,2019-08-17
146.15,1.0,2019-10-22
144.94,-1.0,2019-11-15
146.77,1.0,2019-12-14
144.33,-1.0,2020-02-12
145.82,1.0,2020-03-11
