name,value,min,max
G,-0.009075250495434561,-0.025891808904542457,0.01615313653136541
A,-0.010364683301343547,-0.022446116566764318,0.03313686967910945
F,-0.022241811893944585,-0.022241811893944585,0.021806212713433304
A,-0.026869936320509935,-0.037749086192665926,0.0094505507785827
