pred_price,direction,date
14.11,1.0,2020-09-02
14.08,-1.0,2020-09-13
14.38,1.0,2020-10-10
13.93,-1.0,2020-10-31
14.69,1.0,2020-11-28
14.65,-1.0,2020-12-11
14.92,1.0,2021-01-05
14.37,-1.0,2021-01-28
14.93,1.0,2021-02-20
14.72,-1.0,2021-03-14
14.84,1.0,2021-04-01
14.18,-1.0,2021-04-26
14.75,1.0,2021-05-19
14.56,-1.0,2021-06-09
14.70,1.0,2021-06-28
14.11,-1.0,2021-07-22
14.87,1.0,2021-08-17
14.74,-1.0,2021-09-05
14.86,1.0,2021-09-23
14.17,-1.0,2021-10-19
14.81,1.0,2021-11-13
14.74,-1.0,2021-11-27
15.09,1.0,2021-12-24
14.54,-1.0,2022-01-14
15.20,1.0,2022-02-07
14.93,-1.0,2022-03-03
14.98,1.0,2022-03-16
14.05,-1.0,2022-04-14
14.47,1.0,2022-05-03
13.98,-1.0,2022-06-01
14.04,1.0,2022-06-14
13.46,-1.0,2022-07-08
14.44,1.0,2022-08-09
14.44,-1.0,2022-08-14
