name,value,min,max
G,-0.032774950109531464,-0.032774950109531464,0.014069658734526369
A,0.1046886370724609,-0.045516461487059456,0.1046886370724609
F,0.08174840085287838,-0.030308083545253717,0.08174840085287838
A,0.03696082414773838,-0.03656880361042725,0.03696082414773838
