name,value,min,max
G,-0.007704132862969337,-0.007704132862969337,0.010932446999640577
A,-0.0010061374383740773,-0.007262425959309815,0.023518489865387515
F,0.007638380244846754,-0.005252825383350146,0.04235371973749502
A,0.0013603306649925262,-0.0035919278069430627,0.00875020725582587
