pred_price,direction,date
445.02,-1.0,2019-12-31
455.38,1.0,2020-02-09
439.86,-1.0,2020-03-27
451.37,1.0,2020-05-08
438.54,-1.0,2020-06-22
450.46,1.0,2020-08-05
438.62,-1.0,2020-09-18
452.24,1.0,2020-11-02
441.64,-1.0,2020-12-12
457.55,1.0,2021-01-29
444.97,-1.0,2021-03-13
457.25,1.0,2021-04-24
442.47,-1.0,2021-06-09
456.24,1.0,2021-07-24
445.09,-1.0,2021-09-03
459.90,1.0,2021-10-19
445.47,-1.0,2021-12-03
