get_type,hash,hash_get,date,size
DUBS,000000000000000000001367d69e8152969042eccbce7bb2ca69346152022a,55,2020-09-07 00:27:45,1675250
DUBS,00000000000000000000537a28eedc5314ed4a01ee7dbe5d25d577b17ac86b,55,2020-09-07 05:45:23,1017564
DUBS,0000000000000000000e450684882a222c8b0a75c0f516d2f3f6b655b54146,99,2020-09-07 06:03:10,1183002
DUBS,000000000000000000089c63511d09cd52c5957fb7d92f1eae710db8406a23,bb,2020-09-07 07:25:25,1110227
DUBS,000000000000000000025bb166c7a6ced574f78fb03c8d2613f761b4776fe8,aa,2020-09-07 09:35:39,1202592
DUBS,0000000000000000000f978e48ac8cda186907c5fc9cd2b9a4d16c17e0909e,00,2020-09-07 10:47:49,1673818
DUBS,0000000000000000000ec09fad587ff2144937ef153c017826493d6db80faa,77,2020-09-07 12:53:03,1158528
DUBS,000000000000000000021eb45be614bb69121f1adf6b63e34f4cc42b8cdfe0,55,2020-09-07 13:15:39,1717203
DUBS,0000000000000000000d6dcde305ec4e3341b911d95cfba796d9e2fa672f8e,88,2020-09-07 13:29:15,1375123
DUBS,000000000000000000035c086d501d36f3ddacf9dddae9982f498f78f4b353,ee,2020-09-07 13:48:25,1391706
DUBS,000000000000000000025bc3442023d7095ba1f98dbb8fc4386c8218f851fe,44,2020-09-07 14:43:54,1190083
DUBS,0000000000000000000cfdc86e31206a03a8a1f9932b9f0634dedfe6ac2aff,44,2020-09-07 15:27:49,1167936
