get_type,hash,hash_get,date,size
DUBS,000000000000000000077b32047d97a529e8bcb5f8ab001c6354438372e14c,ee,2020-12-31 02:09:01,1196326
DUBS,00000000000000000007cb96e301f6b96892dff032f46603db189e2603b0f4,bb,2020-12-31 03:11:33,1348807
DUBS,0000000000000000000eac4df2fe6e4625b26497f7dbf759d6b306fd7dd204,88,2020-12-31 04:35:26,1168219
DUBS,0000000000000000000e2fbdd701ca90c2760024854db945cbdb59d3417bfe,55,2020-12-31 06:13:07,1175455
DUBS,000000000000000000041fd4b81a5be226d3ee6d93426c95d52470204cf858,11,2020-12-31 06:51:18,1319653
DUBS,0000000000000000000e57a624f50bd9e1b4c9dca78263911d0955961826dd,cc,2020-12-31 08:16:01,1199475
DUBS,00000000000000000008d7fe74fa0fc540ce53de3142a156831a5626865286,22,2020-12-31 14:37:32,1235943
DUBS,0000000000000000000642abc58d1da81f6b8819ebc2007fd68fad55f04747,66,2020-12-31 14:56:36,1217533
DUBS,00000000000000000007f72f64376b634a9a5f73d1cbea24cc025a0f9b3867,22,2020-12-31 17:52:34,1336413
DUBS,00000000000000000006fd7138340f119c0b56b36ffa6e48d8d6cf4bac4e61,99,2020-12-31 19:01:07,1478452
DUBS,00000000000000000004ba235bafc7251a05ae1b387e80323a09756c0f3bd0,11,2020-12-31 22:53:56,1432268
DUBS,0000000000000000000cec63943dc1443ced69147df4c34ac0b766a5bbf91e,77,2020-12-31 23:16:26,1044673
