get_type,hash,hash_get,date,size
DUBS,00000000000000000001a42025c1aec97452c2cfec2bc4a33df08f41043368,22,2019-02-26 22:34:51,94287
DUBS,0000000000000000001c5feb3baf2014c47db887e7d3cb3b1fd1147e1de1d2,77,2019-02-26 21:54:15,1162965
DUBS,00000000000000000020ce9859734b1fa1b7319b8f508716b9ed383f0c88bc,33,2019-02-26 21:29:23,1156474
DUBS,0000000000000000002628e694198a0dfc82d85e9cd066515351ac0a8da0e6,00,2019-02-26 18:51:36,1154173
DUBS,000000000000000000267d37938a836e1d8f290ed66217bb5055b570df22cb,88,2019-02-26 14:03:49,1116658
DUBS,0000000000000000000d2d887f30dafdd4d8b61547c36a12acfdc9d98385ff,aa,2019-02-26 09:54:00,1216129
DUBS,0000000000000000002b1e4fecbc26686707d3d258827f24e4b9e660fad6e8,33,2019-02-26 08:19:39,1097952
DUBS,000000000000000000188f994fcf0fcd1a4ca0e89910d535337240f0afccd4,11,2019-02-26 08:06:57,1273311
DUBS,00000000000000000025726567ce6a8be4813a5da18a5882e82142e5371370,44,2019-02-26 04:09:08,1072293
