get_type,hash,hash_get,date,size
DUBS,0000000000000000001540e0c0f25ceea73fee13a24da1efff5a042ad4ea7a,44,2018-11-16 21:07:29,361275
DUBS,00000000000000000009644a66e154b16cebd66b605988ff21f1427e3c4b5f,cc,2018-11-16 20:00:04,1337830
DUBS,0000000000000000001ac8ba6f5d1dbfea5c0e754be7c3059885753ec81501,ff,2018-11-16 17:47:32,1202566
DUBS,0000000000000000000af8b94748cbc7d3bb1062d89b085080078bddb3c173,00,2018-11-16 09:48:51,1178725
DUBS,00000000000000000019887f14af8e843a679d8a2d0805d8e0c47e861fb3c5,ff,2018-11-16 08:46:07,1305980
DUBS,000000000000000000080bcd511caea85d1cb1874a829626cb2c3e8e2245d3,66,2018-11-16 07:14:12,1233972
DUBS,000000000000000000044d50358566aa9c75d5f529b8dabfc2ef5686eb8eac,22,2018-11-16 05:20:22,1085238
