date,mercury_dist,venus_dist,mars_dist,jupiter_dist,total,mercury_diff,venus_diff,mars_diff,jupiter_diff,total_diff
2019-11-29,1.7459206659295543,1.6314751813701023,3.60039731225748,2.237488384059233,9.215281543616369,0.6110411943195494,0.01820768041090435,-0.07513551763844616,0.9023630066338504,0.6014520788025022
2019-11-30,1.776526509266989,1.6315892050485965,3.598763747744083,2.2580598989491882,9.264939361008857,0.6317920250707952,0.008952545219431812,-0.08348500317576261,0.9000288901264791,0.6096858704882621
2019-12-01,1.8079114642224754,1.6315839463046682,3.596967316868981,2.278575828857541,9.315038556253665,0.647875114221386,-0.00040658571509978293,-0.0918084569559234,0.8975969793232479,0.6151049938858794
2019-12-02,1.8398685170823341,1.6314580970087904,3.5950085509882705,2.299034021217336,9.365369186296732,0.6596848490343491,-0.009730180183095138,-0.10010475523347852,0.8950708910879067,0.6179464906299386
2019-12-03,1.8722104335931447,1.6312104329886987,3.5928879899057593,2.319432396631337,9.41574125311894,0.6676295340649221,-0.019148422909748875,-0.10837346627940295,0.8924538266849174,0.6184552407137521
2019-12-04,1.9047695746101616,1.6308398041259156,3.590606173914756,2.3397689392058427,9.465984491856677,0.6721136683251043,-0.02865558834304609,-0.11661456507724796,0.8897485644715137,0.6168735227295946
2019-12-05,1.9373971081540784,1.630345127858404,3.5881636397066345,2.3600416886427613,9.515947564361879,0.6735254854279156,-0.03824645328061921,-0.12482823570763524,0.8869575368234611,0.6134337140079457
2019-12-06,1.9699618284032627,1.6297253856769554,3.5855609181816344,2.380248734791748,9.5654968670536,0.6722288396128386,-0.04791606540585163,-0.13301477413244403,0.8840829377659042,0.6083535549884759
2019-12-07,2.002348746298696,1.6289796217395724,3.5827985323679066,2.4003882147842206,9.614515115190395,0.6685584911796942,-0.05765957953262931,-0.1411745826629082,0.881126835933713,0.6018334041723821
2019-12-08,2.0344575744645415,1.6281069423458403,3.5798769940181705,2.4204583116434013,9.662899822471953,0.662817924861333,-0.06747219111447862,-0.14930823754162087,0.8780912391493042,0.594054953002007
2019-12-09,2.0662011942511938,1.6271065149180202,3.5767967979162774,2.4404572533038946,9.710561760389385,0.6552789807806474,-0.07734917438278026,-0.1574166059801275,0.8749781123405144,0.5851809772199787
