get_type,hash,hash_get,date,size
DUBS,0000000000000000000c761ea868de2a7d2af6d10208325589bca8d92dc803,cc,2019-12-03 20:17:32,1337669
DUBS,000000000000000000081c5d1098a421ed751555607d688d6e9bc95f017866,ff,2019-12-03 15:32:50,1336048
TRIPS,00000000000000000009ef5d7f7a0eec715a3b5123273037f232d9dc2cdee,111,2019-12-03 11:53:48,1223834
DUBS,000000000000000000146ca9efaf445b1f8d59038ce319dc94838722e47d42,dd,2019-12-03 09:19:40,945027
DUBS,00000000000000000009e2e3db73b5f85f37ddd199fe91266df3da2cc59883,11,2019-12-03 09:09:34,78828
DUBS,00000000000000000013ad15f2919a498aeb3f0176cf9459780a90b1bfbcb8,bb,2019-12-03 08:56:44,568647
DUBS,00000000000000000009ab905fd1f6723fdbbc11b29f74917c132696822e0c,dd,2019-12-03 05:37:37,1353279
