name,value,min,max
G,0.011196126100596171,-0.03256534904813779,0.02361628361301915
A,-0.015811895788956254,-0.034782608695652195,0.05385122876463799
F,0.008731059864531598,-0.036396655442472836,0.028297492430712
A,-0.009128119800332679,-0.032400388665402846,0.0172037517822905
