get_type,hash,hash_get,date,size
DUBS,00000000000000000004f115c76a55cb6b504c2530233c4493a57699ab4ac8,dd,2021-03-04 02:45:45,1187232
DUBS,00000000000000000002e409002ca9ef6205013cefce4d3ceb019b6f1acff8,dd,2021-03-04 04:23:58,1342514
DUBS,000000000000000000036dd2a25fdef8739b9a0b7c4da5b131fec3e796004f,33,2021-03-04 04:41:48,1463738
DUBS,00000000000000000002e5a21231c391f36c33022c3819e3d8a51425f41857,55,2021-03-04 06:03:54,1103228
DUBS,0000000000000000000223e93773ca0635f7f2c7543e06f77198890e3e6ab8,99,2021-03-04 06:57:55,1211993
DUBS,0000000000000000000a1608e958ffd76b1454a19f4f6d38aea33af82c0a86,dd,2021-03-04 09:25:49,1237734
DUBS,00000000000000000005979657b291d9110ea12ab8317955e3f6293595de4f,88,2021-03-04 09:34:34,1150778
DUBS,0000000000000000000b5d3dcee117848a0975beb085b45d3b31f738cc7eee,44,2021-03-04 11:25:15,1187261
TRIPS,000000000000000000036f96bf684563f569aa07b8be0a95694566af2f853,777,2021-03-04 12:19:13,1282065
DUBS,000000000000000000073463213d3a9addf3ebc0d4ded20b1e11c35778cd24,cc,2021-03-04 14:05:51,1443343
DUBS,0000000000000000000669f55494b592ed9cfd248318c6075e118d34884cab,cc,2021-03-04 19:01:31,1216182
TRIPS,0000000000000000000629c8f9f3bac20bb2533263f2d4c207477aeb5a950,777,2021-03-04 19:04:37,1141613
