date,mercury_dist,venus_dist,mars_dist,jupiter_dist,total,mercury_diff,venus_diff,mars_diff,jupiter_diff,total_diff
2019-11-10,1.5772990551008519,1.6090557242505046,3.6002813519986723,1.8392240634105106,8.62586019476054,-0.29281627818224254,0.16508069457850866,0.09082226227537231,0.9273213333273965,0.13221475867568744
2019-11-11,1.5642450898208027,1.611078481800092,3.6017546463399923,1.8604080958814309,8.637486313842318,-0.26986062563098745,0.15881638506817927,0.0818304161233948,0.9268272820547223,0.1427424906082726
2019-11-12,1.5526327721544544,1.6130193505795867,3.6030660239590167,1.8815788695412887,8.650297016234346,-0.24005788610881812,0.15238690544691746,0.07283716040307321,0.926247192884395,0.1572864988752151
2019-11-13,1.5427956877135913,1.6148762556796146,3.60421542128451,1.902734450189346,8.664621814867061,-0.20335903341594855,0.14579451475103394,0.063840373778913,0.9255824800704989,0.17587618188949214
2019-11-14,1.5350574256356928,1.6166471414731867,3.6052027292199007,1.9238729244296173,8.680780220758397,-0.15997072160363268,0.13904072693292996,0.05483752766101865,0.9248340538463774,0.19838873874976068
2019-11-15,1.5297178105475355,1.6183299609859676,3.6060277879786593,1.9449923849128439,8.699067944425007,-0.11038422712223973,0.1321262213538977,0.04582580660357113,0.9240021787636848,0.2245319530417527
2019-11-16,1.527038835659459,1.619922665359501,3.606690385441923,1.966090912924288,8.719742799385171,-0.05538162725550693,0.12505085008256536,0.03680230393921918,0.9230863575688596,0.25384053519664723
2019-11-17,1.527231649763168,1.6214231946597595,3.607190259954005,1.9871665599164596,8.743011664293393,0.003980233829905028,0.11781374352282199,0.02776426827003887,0.9220852850425505,0.2856891200979136
2019-11-18,1.5304460001558111,1.6228294709817948,3.6075271078901636,2.00821732923189,8.76901990825966,0.06635337316032108,0.11041349069153894,0.01870936853084001,0.9209968563144679,0.3193225094271517
2019-11-19,1.5367633304351667,1.624139394585859,3.6077005958671493,2.0292411596690934,8.797844480557268,0.13040774097387184,0.10284837723404268,0.009635951860389845,0.9198182475050818,0.3539006620814134
2019-11-20,1.5461942937514632,1.6253508435428385,3.607710377319346,2.0502359117870905,8.829491426400738,0.19468202023642686,0.09511666095688519,0.0005432860773945911,0.918546035541015,0.388553036319908
