get_type,hash,hash_get,date,size
DUBS,000000000000000000125ebcb3832669756e6cc84c9c48d72ce497f23d0ff0,ee,2019-05-22 20:14:50,1058887
DUBS,0000000000000000000ab0efaa92efd22b153a72ff7c96f0456fb965af8a87,bb,2019-05-22 19:39:57,1081504
DUBS,0000000000000000001987e16d70cffd3dc0c71ac8de9bf48830159f89a2ef,dd,2019-05-22 18:24:37,1194206
DUBS,00000000000000000017bdfcc9673635f9e6db35d6dab17053dcfa207a3566,44,2019-05-22 15:28:01,1226342
DUBS,000000000000000000143c70fca32fcf51499177c73176ff53978ad5803de7,ff,2019-05-22 13:38:18,1219185
