name,value,min,max
G,-0.009706444387262314,-0.009706444387262314,0.010323100748880876
A,-0.012154166000319822,-0.012376823019314087,0.006276150627614996
F,-0.009448579674920077,-0.012081141998497302,0.015534395409876112
A,-0.014526946589197731,-0.014526946589197731,0.004765973311792182
