get_type,hash,hash_get,date,size
DUBS,0000000000000000000a30185e47a59e056e406d0edbef07345808be389943,55,2021-05-18 00:15:52,1682124
DUBS,0000000000000000000137d5639a8676cef587fa81a3bae065fc2e187729b6,44,2021-05-18 01:48:47,1462827
DUBS,0000000000000000000a9dce192d52b06d698d408cc369cb125194d417a00f,88,2021-05-18 04:00:41,1280045
DUBS,00000000000000000008911e117f2440ea9b17f65c929708aa3aa896669156,ff,2021-05-18 05:43:15,1275681
DUBS,00000000000000000001fe5776c358c08af0041281b1573f97d6a11f056733,ee,2021-05-18 11:20:04,1302026
DUBS,00000000000000000003ed9594dc2ab40ddba653e49bc6d8016738394c8797,22,2021-05-18 16:16:38,1252499
DUBS,0000000000000000000719174a5a81a2c4f50a08181d51f0d60581dc2da4c7,22,2021-05-18 21:14:03,1506423
