date,mercury_dist,venus_dist,mars_dist,jupiter_dist,total,mercury_diff,venus_diff,mars_diff,jupiter_diff,total_diff
2020-03-01,1.880651521191819,1.088520939080466,2.832161712460528,3.681305804312072,9.482639977044887,0.0936402420689105,-0.8455845076469378,-0.6946964545727341,0.367868707581202,-0.18659565777460377
2020-03-02,1.8865769762887654,1.0775229605327765,2.818492437912048,3.689526337380212,9.472118712113803,0.12231831790718263,-0.8503211096449957,-0.6985824065908541,0.359658357352119,-0.16945432662507975
2020-03-03,1.8937396560031143,1.0664664983872363,2.8047487636855535,3.697558979596458,9.462513897672363,0.14785816785930458,-0.8548428349424999,-0.7023846790474156,0.3514379032047379,-0.15469407663374715
2020-03-04,1.9019923528202427,1.0553544227658356,2.7909322905610408,3.7054035593936816,9.4536826255408,0.17035923424503321,-0.8591426535227813,-0.7061051419874486,0.34320994278603567,-0.14223548994337187
2020-03-05,1.911194091664335,1.044189698022721,2.7770445700115483,3.7130599599351837,9.445488319633787,0.18995017240289452,-0.8632132797204459,-0.7097463152939941,0.33497687061911885,-0.13197658254289
2020-03-06,1.9212110908694158,1.0329753833010238,2.763087088383678,3.720528109318587,9.437801671872705,0.2067794748583105,-0.8670473848182872,-0.7133115273209247,0.326740652635413,-0.12380029672193503
2020-03-07,1.9319173413607436,1.0217146271148974,2.7490612498660103,3.7278079626437957,9.430501180985447,0.2210075900949872,-0.8706380589949789,-0.7168049768388267,0.31850247021770883,-0.11758089692030038
2020-03-08,1.9431948758068158,1.0104106518480918,2.734968362698845,3.7348994742611588,9.423473364614912,0.23280052266276924,-0.8739795909393805,-0.7202315673838275,0.3102622905720369,-0.1131892313817977
2020-03-09,1.9549337964371534,0.9990667264168658,2.720809635594254,3.7418025614428867,9.41661271989116,0.24232485135003354,-0.8770683829381221,-0.7235963854488562,0.30201849148458004,-0.11049678337083935
2020-03-10,1.967032126965408,0.9876861287204529,2.706586191316374,3.7485170660124103,9.409821513014645,0.24974409821515206,-0.8799037404623883,-0.7269038234920256,0.29376777197911985,-0.10937842510092699
2020-03-11,1.9793955461615818,0.9762721059672468,2.692299100153956,3.7550427248198828,9.403009477102668,0.2552162854861035,-0.882488036409062,-0.7301565633221296,0.28550553934660894,-0.10971389523703126
