name,value,min,max
G,0.015215611353711855,-0.03454535490676924,0.015215611353711855
A,0.008462136257663344,-0.0419461586620159,0.03751617076326008
F,0.018060328369606804,-0.02249263984298333,0.021199855728770034
A,0.023034683824907143,-0.04126890785844628,0.025498121242080396
