pred_price,direction,date
19.72,-1.0,2020-09-16
20.18,1.0,2020-10-16
20.07,-1.0,2020-10-30
20.43,1.0,2020-11-21
20.28,-1.0,2020-12-11
20.91,1.0,2021-01-13
20.82,-1.0,2021-01-26
21.16,1.0,2021-02-16
20.92,-1.0,2021-03-11
21.43,1.0,2021-04-09
21.25,-1.0,2021-04-25
21.50,1.0,2021-05-13
21.09,-1.0,2021-06-09
21.51,1.0,2021-07-06
21.32,-1.0,2021-07-22
21.60,1.0,2021-08-09
21.20,-1.0,2021-09-05
21.57,1.0,2021-10-01
21.29,-1.0,2021-10-19
21.47,1.0,2021-11-04
21.02,-1.0,2021-12-01
21.48,1.0,2021-12-29
21.23,-1.0,2022-01-15
21.40,1.0,2022-01-30
20.80,-1.0,2022-03-02
21.09,1.0,2022-03-25
20.75,-1.0,2022-04-14
20.86,1.0,2022-04-27
20.19,-1.0,2022-05-29
20.51,1.0,2022-06-22
20.32,-1.0,2022-07-09
20.61,1.0,2022-07-28
20.29,-1.0,2022-08-21
