get_type,hash,hash_get,date,size
DUBS,0000000000000000000e838edd84a5f80d9ded23411d0ba1f66b094904a33f,dd,2019-12-16 22:22:07,1275308
TRIPS,000000000000000000038b3d56f08deeee9f4dbdaf1e9187379bca31362af,000,2019-12-16 19:03:59,1335518
DUBS,00000000000000000007e7aa966669a2a62fcdeeb26a9c676a8975bb02ee96,bb,2019-12-16 18:10:57,1295882
DUBS,00000000000000000011bb96341b2c023b715376f91885c3ed22c1d2343970,bb,2019-12-16 16:16:26,1291376
DUBS,00000000000000000000a240bb3b06e4b42d100c35889815f2885a2f4ba9d7,44,2019-12-16 16:08:32,1163547
TRIPS,00000000000000000009269437cb1db4b803698f540ded22cbcbdd5d9818a,fff,2019-12-16 13:19:05,1185010
DUBS,0000000000000000000be12926bc2cf64f73e436cdae368c29be03baa6c180,dd,2019-12-16 10:25:29,1412778
DUBS,00000000000000000000978391d0cce1c97160465f60782dcb4d88e50efa90,77,2019-12-16 05:10:34,1311664
TRIPS,00000000000000000003365d25f72c0c6e1366a0677dd140bb4273254f336,999,2019-12-16 03:56:34,978515
