date,mercury_dist,venus_dist,mars_dist,jupiter_dist,total,mercury_diff,venus_diff,mars_diff,jupiter_diff,total_diff
2019-12-26,2.504390874481305,1.5898656789579513,3.5004615643133326,2.7678424985348515,10.36256061628744,0.39816810220427534,-0.25371658049936024,-0.29292369330039103,0.8098552404924263,0.3534227634246822
2019-12-27,2.5227787779063067,1.5864437678610357,3.4945777536377722,2.786246632949196,10.390046932354311,0.37957884752937177,-0.26456891404348853,-0.30069822704050647,0.8052033483819336,0.3374698973435022
2019-12-28,2.5402555989469278,1.5828811439008728,3.4885427293266633,2.8045423967100103,10.416221868884474,0.3607715048174636,-0.2754482876937443,-0.30842615620428476,0.8004619999911746,0.32136911772086013
2019-12-29,2.556810783770694,1.579177564294103,3.482357453391599,2.8227278300494945,10.44107363150589,0.3417463008586818,-0.2863464324131276,-0.316104920771108,0.7956349093666806,0.3051235298412093
2019-12-30,2.5724336317224568,1.575332887830797,3.476022919409821,2.840801056665416,10.46459049562849,0.3225002048136509,-0.29725549493740105,-0.3237329075458422,0.7907257282289177,0.2887339904695571
2019-12-31,2.587113151138997,1.5713470670081935,3.469540137835852,2.858760277895399,10.486760633878442,0.3030272094446155,-0.3081682301912136,-0.3313092539976676,0.7857378534164216,0.27219923765339227
2020-01-01,2.6008379288509844,1.5672201397710936,3.462910125671024,2.876603765192457,10.50757195948556,0.28331861366150174,-0.3190780316999376,-0.33883362554503543,0.7806743525630601,0.25551608659123376
2020-01-02,2.613596012842528,1.5629522225505068,3.456133900060408,2.894329852846206,10.527011988299648,0.2633632941321956,-0.3299788312139244,-0.34630601484211665,0.7755379748468682,0.23867965835379976
2020-01-03,2.6253748069219625,1.5585435055148427,3.4492124745258614,2.911936932445933,10.5450677194086,0.24314795322877075,-0.34086492764293586,-0.3537266070568808,0.7703312271984721,0.22168360827168473
2020-01-04,2.636160975886169,1.553994250217222,3.4421468563165867,2.9294234494924396,10.561725531912417,0.22265733564403098,-0.3517308017975653,-0.36109572275992885,0.7650564683123822,0.2045203242935245
2020-01-05,2.6459403595621986,1.5493047892352196,3.434938043278514,2.9467879020588184,10.576971094134752,0.20187441164432463,-0.36257096234205977,-0.3684138425151712,0.7597159982905665,0.18718107969065126
