name,value,min,max
G,-0.004317100668188245,-0.004317100668188245,0.01967053523707718
A,-0.007262425959309815,-0.007262425959309815,0.026616996004751092
F,0.021750154955767265,-0.017181358787198175,0.02982237272025179
A,-6.950756563106619e-05,-0.004496431829157155,0.03137420109421685
