name,value,min,max
G,0.010497921767351759,-0.005231317766022814,0.026654033727010917
A,0.02147168442230951,-0.009721991010487763,0.02281627788183216
F,0.014357401728464003,-0.00529125750786541,0.02207064555420213
A,0.004799230431772106,-0.012139029825975589,0.027150619101220963
