get_type,hash,hash_get,date,size
DUBS,0000000000000000000a7a4ce8b57fc40db839bef5e7d5209851405d335b03,11,2020-07-27 00:31:25,1434628
DUBS,00000000000000000001a0890f2390d0bcb86ef5b89a56d6ef8ae38c43ae92,00,2020-07-27 01:41:56,1037598
DUBS,00000000000000000000592370a209ce004f204558b970428caea69c57e54f,cc,2020-07-27 03:09:30,1315849
TRIPS,0000000000000000000510dd78996561ee7a7d5a8a1e4dd334d214c895c95,bbb,2020-07-27 10:54:56,1266659
DUBS,0000000000000000000aca9ff588d463ad0d5af9f5bdf28c6979dab817fabc,55,2020-07-27 11:37:22,1275223
DUBS,0000000000000000000c6b5617de30be3adf2ef636e9443e5daaf4ef477251,66,2020-07-27 14:25:56,1374935
DUBS,00000000000000000006abc7bc4029499dea56748154cb845c2361f1a82aa3,66,2020-07-27 18:25:40,1241920
DUBS,0000000000000000000815a363bcf60f832cf99fed9728dc8040a64ad4b732,ee,2020-07-27 18:51:50,1364147
DUBS,0000000000000000000670c5e724775489f5c3dffcb98765658b734cab35a6,aa,2020-07-27 22:45:31,1326330
