name,value,min,max
G,0.0018401941824208734,-0.029238024800453344,0.014334806565292624
A,0.0283356946412201,-0.033905097787752525,0.0283356946412201
F,0.011823101582158602,-0.020008762961881144,0.041238963462780776
A,0.011678200692041507,-0.034358825536637494,0.015511940264003599
