pred_price,direction,date
112.47,-1.0,2020-10-30
114.92,1.0,2020-12-29
113.55,-1.0,2021-01-28
115.10,1.0,2021-03-01
112.61,-1.0,2021-04-27
113.80,1.0,2021-05-25
111.81,-1.0,2021-07-22
114.04,1.0,2021-09-16
112.41,-1.0,2021-10-19
113.91,1.0,2021-11-18
110.99,-1.0,2022-01-17
111.68,1.0,2022-02-07
108.37,-1.0,2022-04-14
109.37,1.0,2022-05-12
107.51,-1.0,2022-07-09
109.63,1.0,2022-09-03
108.33,-1.0,2022-10-05
