pred_price,direction,date
730.06,-1.0,2020-03-28
731.73,1.0,2020-04-26
731.42,-1.0,2020-05-10
731.54,1.0,2020-05-20
729.59,-1.0,2020-06-21
733.28,1.0,2020-08-21
732.07,-1.0,2020-09-15
735.09,1.0,2020-10-21
735.00,-1.0,2020-10-29
735.66,1.0,2020-11-16
733.88,-1.0,2020-12-14
736.14,1.0,2021-01-13
