get_type,hash,hash_get,date,size
DUBS,00000000000000000008cba54c2ad15fde9536e9d97c72590f2e87abd12867,aa,2021-01-16 00:10:13,1277270
DUBS,000000000000000000057dd182bca5104a54a3feff93ba6bff4f597d1a9cb4,bb,2021-01-16 00:58:21,1302147
DUBS,00000000000000000007962a1440559ca6f38ea7c04c08b60b803bcc80aa41,33,2021-01-16 02:13:27,1173127
DUBS,000000000000000000049e2e954a7890f5801edd0adda2c54cc9fa7835d909,22,2021-01-16 02:31:22,1356676
DUBS,0000000000000000000c0839c1362c3e7c17d5d3ec96e5209753d8ea200a11,dd,2021-01-16 04:18:03,1361423
DUBS,0000000000000000000b5a12c510f9947a5d006e3c535724c5b8104279e3f3,ff,2021-01-16 05:39:41,1488057
DUBS,000000000000000000089b7c548a32076ec53710c60ac35abdc61f29515cb2,88,2021-01-16 05:55:19,1317573
DUBS,0000000000000000000d4015e3ba62e2ff6e9852d423dabcdb457cb3262a34,22,2021-01-16 09:26:05,1110124
DUBS,0000000000000000000587a08abc19a7a09ae37b9d51661689113e8405d78c,ee,2021-01-16 12:33:10,1186320
DUBS,0000000000000000000221ba1d9698f8ad3605862f98b4ede8f07c98941383,bb,2021-01-16 14:46:20,1142643
DUBS,000000000000000000094d8fbfde7200b401b199397473bd5d2ec00d2b64db,11,2021-01-16 15:06:09,1467114
DUBS,00000000000000000001c9ead8f7cd70028561163e5d1982a4bcadb6624a34,22,2021-01-16 20:07:18,1283421
DUBS,0000000000000000000123ccc3c9b683045d3efed2f0e24c49e1b54a682979,bb,2021-01-16 22:19:24,1350234
DUBS,00000000000000000000a6f60bae8c38beb703ef2041146f31a5094758823a,66,2021-01-16 22:43:41,1693490
