name,value,min,max
G,0.005185138723368787,-0.0014363364970286785,0.010773916967508956
A,0.004629485785303533,-0.006773495562733101,0.012297917846134654
F,0.003492734250355678,-0.016060050624072564,0.030298991514505325
A,0.0005544224294222744,-0.0061636190538721936,0.017187955520386433
