name,value,min,max
G,0.00623783344385731,-0.01640783028803572,0.014293950081389228
A,0.003622629875134953,-0.035385543986721,0.012802498048399835
F,-0.0029373164177238786,-0.01344420503171373,0.0729729729729729
A,-0.0044641101873050815,-0.02334012032000743,0.01095537739945085
