get_type,hash,hash_get,date,size
DUBS,000000000000000000045cc819798677b58ccb3ac3f6df9576be10b7d754ae,cc,2021-05-08 00:53:58,1578131
DUBS,00000000000000000003091d01e1ea2f303fefd7668b9b6c4772175d368365,88,2021-05-08 07:15:04,1081555
DUBS,0000000000000000000c02b0df2af8315e093283504fbb8477a77889b19ff2,66,2021-05-08 08:06:18,1084213
DUBS,000000000000000000091c0fcb6002f23f196c3cc916bacc36898d7f0cf531,aa,2021-05-08 09:52:37,1178918
DUBS,000000000000000000099c4017d16e62224aa1688ff3c562fe7bfbd6bfa468,22,2021-05-08 10:51:20,1312392
DUBS,0000000000000000000760920ad3ef13e407d129923f4402bfc07abd67ff00,ff,2021-05-08 11:37:53,1461578
DUBS,0000000000000000000ab090dfe1b5e74ba61a487b70d5119ec91dcdc4d05e,00,2021-05-08 18:11:28,1484699
DUBS,0000000000000000000570407ffeefbc133b86c5c0ca6b88e7ca06880c6d9e,77,2021-05-08 21:48:30,1487102
DUBS,00000000000000000003c2da66207c4d29a99384819a8e136e2cb9acca3d46,33,2021-05-08 22:10:54,1152313
