name,value,min,max
G,0.008993836733424354,-0.004371417240508935,0.04187286949825797
A,0.0202132555998773,0.0024622716441620174,0.02357723577235782
F,-0.0017890230656187889,-0.008578550386844186,0.034319962499163026
A,0.02209559603552247,-0.0009018418026918162,0.02209559603552247
