get_type,hash,hash_get,date,size
DUBS,0000000000000000000518043111533d18307c59d25786d35f86a059098c49,11,2021-04-09 05:39:36,1296048
DUBS,000000000000000000067865281a095a2ff5b7a5eab9787caa4669ac39bd47,dd,2021-04-09 09:20:21,1461606
DUBS,00000000000000000006754c07546c3aeec2df3ea8df9d7921624c736452a3,99,2021-04-09 11:53:15,1490606
DUBS,00000000000000000003c279e3c9b62e0f4f2b32391d996ccbbc3e50bbe88e,99,2021-04-09 12:30:05,1239795
DUBS,0000000000000000000a148bb8e883e4be522a2962e1597854a7de051c35b8,33,2021-04-09 14:05:19,1140832
DUBS,00000000000000000007600091e801f291acf3c39354e7777578fec6f7eda9,33,2021-04-09 19:31:43,1280430
DUBS,00000000000000000006affc411497f1c381acbc62ff85c7879d0f7e22b465,33,2021-04-09 20:21:49,1267389
DUBS,000000000000000000093b6b79641cf9a680c0933c3b40e5891eaed7606371,ee,2021-04-09 20:31:06,1222849
