get_type,hash,hash_get,date,size
DUBS,0000000000000000003ea544e36496522d63d4bb0e65351a9fbdf199262733,bb,2018-04-16 13:11:31,1024609
DUBS,0000000000000000000143f80be17b0a2503e7fbedbbc8ec74eccbdeb99625,cc,2018-04-16 12:36:40,379671
DUBS,000000000000000000251d1fa46f3e09c67567bbc28248e1c52c31d400e37c,ff,2018-04-16 08:51:56,1148271
