get_type,hash,hash_get,date,size
DUBS,00000000000000000001b65b9196fd72a52509d378a1b0b029f60997d5ee4c,88,2021-01-13 00:23:23,1236766
DUBS,00000000000000000006c5d776ceb728ffe83af798a9aee3a7191c68751aa4,aa,2021-01-13 01:33:56,1269967
DUBS,000000000000000000036fb1401adcef7176b432e90fd449846187703c5e75,ff,2021-01-13 03:38:00,1359960
DUBS,0000000000000000000d2c442ffe8aeb095bc9e288983b1d8ff1ea445b33d0,11,2021-01-13 04:31:50,1496141
DUBS,000000000000000000037e0666f48e93584c156833c606a8d3ce53269ad876,11,2021-01-13 11:17:55,1141903
DUBS,00000000000000000007003b0a5044a1f442eac2751167b4fee3b611e298b5,22,2021-01-13 15:34:40,1285861
DUBS,0000000000000000000b3d163d0a5d0ce63c8d0d454073e643d96e776750cd,cc,2021-01-13 17:50:55,1258933
DUBS,0000000000000000000b6437ac4a38404b634f3f753ae520d256bcb0c44c2f,aa,2021-01-13 18:12:43,1237495
DUBS,00000000000000000008cc4d63d64aa4865a43bc65a833d0735b6da348d78f,33,2021-01-13 21:19:31,1308143
