get_type,hash,hash_get,date,size
DUBS,00000000000000000015961bef41cd18f39ab040f11340d46ef58da1c4f69d,11,2019-12-23 01:38:36,444692
DUBS,0000000000000000000c10f47bb43235826c14be68a146770cb95a55485935,aa,2019-12-23 03:09:41,1164087
DUBS,000000000000000000110a618407c8c497887cbd946f90ec200a496a4e71ce,00,2019-12-23 03:28:46,212350
DUBS,00000000000000000006c343fd1f0904c663cb87181692f51e76d6c43feff3,77,2019-12-23 04:43:19,856376
DUBS,0000000000000000000cce6c8efc9eb14dab8f552757e972b04f01e9a1f213,99,2019-12-23 04:51:54,634008
DUBS,0000000000000000000be1ebf91035c6de57e1c2052855fbee035c4ccafe05,aa,2019-12-23 06:15:11,1171215
DUBS,000000000000000000158aa24c0d2f55464e295796a0537a0cc3239fd43211,66,2019-12-23 10:18:37,1295656
DUBS,000000000000000000056172efac661a3f6c6adc4c7cf1dc877e2cb3194786,cc,2019-12-23 10:47:17,143049
DUBS,0000000000000000000f57015474c5aafb947273a93a5493dfe93a875c800b,cc,2019-12-23 11:53:39,1251847
DUBS,0000000000000000001376dd10602d5ff06a741a4d752bc98f5120d7ead84d,cc,2019-12-23 15:32:20,1307681
DUBS,00000000000000000014011565b94d58d073bd625ca25a19991d890323be8d,11,2019-12-23 16:48:01,1184306
DUBS,0000000000000000000a9572b116281935c612e0b7ccdbc984390fde26db74,dd,2019-12-23 18:37:30,1348430
DUBS,00000000000000000002df3e5bf38cbced6291ffae75ae19a84810a9899931,bb,2019-12-23 20:57:32,1331448
