pred_price,direction,date
46.37,-1.0,2020-12-14
48.75,1.0,2021-01-16
48.41,-1.0,2021-01-31
48.42,1.0,2021-02-04
45.38,-1.0,2021-03-16
46.55,1.0,2021-04-10
42.88,-1.0,2021-06-10
45.32,1.0,2021-08-05
44.08,-1.0,2021-09-01
47.04,1.0,2021-10-10
47.01,-1.0,2021-10-16
47.43,1.0,2021-11-01
