name,value,min,max
G,0.0040977487267117585,-0.009942513279096343,0.01876980856324706
A,0.006854963405834358,-0.010331673201229297,0.01453670780171512
F,-0.003788748564867994,-0.010794370229007644,0.032602252519265074
A,0.003704561241028026,-0.010124680450284806,0.01877860452056712
