get_type,hash,hash_get,date,size
DUBS,0000000000000000000e6f4ba8f4f5ebf681437bd7b32fffc22ac67ba274d3,11,2020-12-15 01:40:39,1219709
DUBS,0000000000000000000131388f481beeac63eca273e4a115991cc0fb3c4a75,bb,2020-12-15 03:18:01,1507168
DUBS,00000000000000000007dda1a55026cf7b8c3c16644a2ec0e6d416f75269f9,dd,2020-12-15 06:49:48,1230926
DUBS,00000000000000000008e47426ff0258d4b7c13c93fe7ac4d36902fbe5f573,00,2020-12-15 06:50:25,1293307
DUBS,0000000000000000000586c80febf96b42bc1f5aab2eed11ab5dbaa0d2470a,88,2020-12-15 11:09:57,1346045
DUBS,000000000000000000073d101fd8673183f40be1072990ae80d3fec1fe25c3,66,2020-12-15 14:38:25,1241202
DUBS,0000000000000000000add69d8dbcec97a90d915fc3556d60db7663431ee5d,33,2020-12-15 19:37:47,1406529
DUBS,000000000000000000099cd156419ffbcd4619fa9d4cdec19b5da969fbc3bf,77,2020-12-15 21:02:35,1232954
DUBS,0000000000000000000653071ae5979695d06d0b63702b2acaf4a6a49d49d3,99,2020-12-15 21:10:25,1284443
DUBS,0000000000000000000a9a2d8450d30b477b368362ebb710d6c4d3590df979,aa,2020-12-15 21:53:40,1214552
