name,value,min,max
G,-0.01032034418743788,-0.026592100304888677,0.0032869572527427504
A,0.015830282145164798,-0.05811948473476014,0.015830282145164798
F,-0.004461826594689855,-0.036104916640118945,-0.0012119934657744968
A,0.009568327956635203,-0.035608842421612885,0.009568327956635203
