pred_price,direction,date
83.08,-1.0,2019-11-17
83.73,1.0,2019-12-10
83.61,-1.0,2019-12-27
83.84,1.0,2020-01-18
83.11,-1.0,2020-02-10
84.26,1.0,2020-03-11
84.20,-1.0,2020-03-26
84.26,1.0,2020-04-09
82.97,-1.0,2020-05-11
83.54,1.0,2020-05-31
82.03,-1.0,2020-08-05
82.88,1.0,2020-09-01
82.77,-1.0,2020-09-19
82.83,1.0,2020-10-04
81.93,-1.0,2020-11-01
82.86,1.0,2020-11-30
82.85,-1.0,2020-12-08
83.29,1.0,2021-01-06
82.84,-1.0,2021-01-25
85.60,1.0,2021-04-05
85.00,-1.0,2021-04-24
86.59,1.0,2021-05-24
86.49,-1.0,2021-06-09
86.56,1.0,2021-06-23
84.98,-1.0,2021-07-24
85.71,1.0,2021-08-13
