get_type,hash,hash_get,date,size
DUBS,0000000000000000001c83ea075ef92d9e6f2509d25b9bce2c7414fba90c0e,33,2018-12-15 20:37:20,565927
DUBS,0000000000000000001b55c83ef48a1831bfdec0f29f3e6556dc7293b7ef25,88,2018-12-15 19:16:31,650234
TRIPS,0000000000000000002f922859ed1b36346101d155664daecd3e333475593,111,2018-12-15 17:10:42,1263927
DUBS,000000000000000000147723401db6d95c028670aa431027364d9531a1a500,33,2018-12-15 15:40:22,1265990
DUBS,0000000000000000002f01eb59b561c121c46c6c65a07bd58ea094140c6678,ee,2018-12-15 15:02:03,1269174
DUBS,0000000000000000002db08e56461f6d6e3f960ef0a66c10beb18003e96b77,99,2018-12-15 14:50:10,1221452
DUBS,0000000000000000000200cfaff0b1ad84ef5b4942312f66707eaf60cdb508,66,2018-12-15 11:09:16,1255177
DUBS,0000000000000000000f9f6ca8a53404f297d3fa52ca38ed0c9a7e9a05a680,33,2018-12-15 07:00:39,969132
DUBS,000000000000000000319921f0d661187487b2a1251071da554f714f45af76,dd,2018-12-15 05:17:45,418120
DUBS,0000000000000000001b297e953e2154c35e1c9fa3602d7b0b1c5a9e73f339,bb,2018-12-15 05:12:11,1163211
DUBS,000000000000000000290e2420db4993cbd7220b4157941629e64aeef81498,aa,2018-12-15 01:43:53,1290206
