name,value,min,max
G,-0.007740605033971004,-0.015928675345991627,0.035768932772160644
A,0.0015105740181271532,-0.014900328881132907,0.011989100817438647
F,-0.0056374190667559665,-0.04007715387912558,0.05296278367835083
A,-0.07564890330896235,-0.07564890330896235,0.014735579605043014
