name,value,min,max
G,0.0032869572527427504,-0.0750192871470452,0.01975122373575866
A,-0.015442739079102763,-0.0192561458384245,0.04908556336273495
F,-0.008134240548421823,-0.009158646383110702,0.017181053840931604
A,-0.006201400283317948,-0.0077860598384652535,0.03242810997359036
