date,mercury_dist,venus_dist,mars_dist,jupiter_dist,total,mercury_diff,venus_diff,mars_diff,jupiter_diff,total_diff
2018-10-05,1.6036204122071303,0.36841264183962075,1.6267684058239043,2.0670399916828144,5.66584145155347,0.5900033347415873,-0.2530442644182847,0.04722190804173174,-0.30245552909344364,0.23783334550773916
2018-10-06,1.6312373742129427,0.3651114876034497,1.6275416352981316,2.060175100349815,5.68406559746434,0.5700929773307095,-0.25523246122351934,0.04295836485805228,-0.3059042132367634,0.22375136175950405
2018-10-07,1.6578910016024062,0.3617845319217329,1.6282362639764714,2.0532341869403297,5.70114598444094,0.5502069993044337,-0.25722732907234996,0.03859153485426457,-0.30929180851950355,0.2097085846483494
2018-10-08,1.6835821266486952,0.3584345528361855,1.6288504183520052,2.046218724746387,5.717085822583273,0.5303382017736749,-0.25900740949422885,0.03412061829344395,-0.3126137529103041,0.19570522031683893
2018-10-09,1.708311158042836,0.35506465010678,1.6293822462341903,2.0391303060976997,5.731888360481506,0.5104778407930324,-0.2605478284794256,0.02954679945099446,-0.31586474200927306,0.18174174133728627
2018-10-10,1.7320780231847772,0.35167829343380014,1.629829952780236,2.0319706467267356,5.745556916125549,0.4906159811399609,-0.26181998367572057,0.024873264400055748,-0.31903927690595624,0.1678189997818292
2018-10-11,1.7548821190123736,0.3482793682981854,1.6301918300219453,2.024741577252528,5.7580948945850325,0.4707416725617054,-0.26279172853300214,0.020104839638594683,-0.3221322381770605,0.153938064792786
2018-10-12,1.776722265393672,0.3448722140634207,1.630466275182223,2.0174450249095877,5.769505779548903,0.45084300268916216,-0.26342797061059947,0.015247369276132199,-0.32513932057143263,0.14009990163787256
2018-10-13,1.7975966589868744,0.3414616521266886,1.6306517970392642,2.0100829908258797,5.779793098978707,0.43090710669106824,-0.2636914409297793,0.01030705099787492,-0.3280572313465911,0.12630505388461458
2018-10-14,1.817502828395697,0.3380530050550821,1.630747012542214,2.002657528048633,5.788960374041626,0.41092019401470714,-0.26354339097392737,0.005289894464966681,-0.33088365694496247,0.11255343811358334
2018-10-15,1.836437593245799,0.3346521095904157,1.6307506378307022,1.9951707236699097,5.797011064336827,0.39086762932793195,-0.2629440667448232,0.0002014104102045534,-0.33361708030567316,0.09884429840856783
