pred_price,direction,date
59.20,1.0,2018-11-09
58.57,-1.0,2018-11-28
59.62,1.0,2018-12-22
59.38,-1.0,2019-01-09
60.06,1.0,2019-02-05
59.37,-1.0,2019-02-24
60.34,1.0,2019-03-19
59.99,-1.0,2019-04-09
60.45,1.0,2019-05-02
59.49,-1.0,2019-05-24
60.22,1.0,2019-06-14
59.72,-1.0,2019-07-07
60.22,1.0,2019-07-30
59.48,-1.0,2019-08-19
60.50,1.0,2019-09-11
60.16,-1.0,2019-10-01
60.77,1.0,2019-10-26
60.11,-1.0,2019-11-14
61.30,1.0,2019-12-09
61.12,-1.0,2019-12-25
62.01,1.0,2020-01-23
61.39,-1.0,2020-02-10
62.60,1.0,2020-03-06
62.34,-1.0,2020-03-24
63.01,1.0,2020-04-18
62.07,-1.0,2020-05-09
62.99,1.0,2020-05-30
62.42,-1.0,2020-06-22
62.91,1.0,2020-07-14
62.01,-1.0,2020-08-04
63.09,1.0,2020-08-27
62.63,-1.0,2020-09-18
63.14,1.0,2020-10-10
62.18,-1.0,2020-11-01
