name,value,min,max
G,0.015258871324874246,-0.061238138273836396,0.015258871324874246
A,0.03675706866705131,-0.018115535614133593,0.03675706866705131
F,0.020408163265306145,-0.07505493886290637,0.020408163265306145
A,0.021781897453166277,-0.0464094373743007,0.021781897453166277
