get_type,hash,hash_get,date,size
DUBS,000000000000000000161c3dbe1e5d4dec93afbb69cdefa07b8bdfc0e7c7d0,55,2019-06-04 22:54:19,1201639
DUBS,0000000000000000001bbef3399306e5d7bc5e21929fdb2914439141811b37,11,2019-06-04 12:52:00,1290682
DUBS,00000000000000000019fbfae2ba84383167fa33ec06c80f4d153a13ddb2bd,11,2019-06-04 12:05:16,1172932
DUBS,00000000000000000001fce71d0aa301407e2ab893951cc13f2ac8272a681f,bb,2019-06-04 09:38:49,1258740
DUBS,0000000000000000000173138d1f4925b959b0ad10612c3eb4d7906406a447,ee,2019-06-04 06:23:36,1390900
DUBS,000000000000000000011aeb9fc474359219783eee78dee5f828cd00d712e8,ff,2019-06-04 04:36:22,1286605
DUBS,00000000000000000012e19e00481088e55b518dc971738758198294a339a9,11,2019-06-04 04:19:36,1252666
DUBS,0000000000000000000dd7a234aa4cfc2b5f5c66749db0b2b740de3e6dc355,cc,2019-06-04 00:38:08,1097809
