pred_price,direction,date
83.58,-1.0,2020-02-15
83.74,1.0,2020-02-27
79.77,-1.0,2020-05-13
80.08,1.0,2020-05-30
79.87,-1.0,2020-06-19
80.51,1.0,2020-07-20
80.45,-1.0,2020-07-29
86.12,1.0,2020-10-19
86.10,-1.0,2020-10-25
89.07,1.0,2021-01-03
87.58,-1.0,2021-01-30
87.92,1.0,2021-02-14
83.80,-1.0,2021-04-29
84.16,1.0,2021-05-15
83.75,-1.0,2021-06-07
84.42,1.0,2021-07-06
84.29,-1.0,2021-07-17
90.19,1.0,2021-10-03
90.00,-1.0,2021-10-15
92.14,1.0,2021-11-16
92.04,-1.0,2021-11-30
92.26,1.0,2021-12-18
