name,value,min,max
G,0.0043547348078161185,-0.027140624869435914,0.025750270003656706
A,-0.0049815043156595795,-0.029765038043738312,0.04234836392657626
F,0.01597017416949531,-0.046378349694879195,0.02705914123683484
A,0.007464718428098038,-0.03364504423517545,0.02208502341841645
