get_type,hash,hash_get,date,size
DUBS,00000000000000000016ae4842da9cd5d842befdd4f87e1958f7fbba4b5186,99,2019-08-15 19:13:42,1543071
DUBS,0000000000000000000f9c3b3c0f02b566d934301e09cb1b9785bd50c8242d,88,2019-08-15 06:28:17,1204823
DUBS,000000000000000000166c8299acd2d45ac8f1ed4ea3cd0559b39eb9329215,11,2019-08-15 04:55:40,882814
