pred_price,direction,date
655.48,-1.0,2020-06-24
659.65,1.0,2020-07-23
659.19,-1.0,2020-08-04
660.15,1.0,2020-08-19
656.41,-1.0,2020-09-16
662.77,1.0,2020-10-22
662.65,-1.0,2020-10-29
664.28,1.0,2020-11-16
661.21,-1.0,2020-12-12
667.98,1.0,2021-01-16
667.53,-1.0,2021-01-27
668.44,1.0,2021-02-10
662.97,-1.0,2021-03-14
666.92,1.0,2021-04-11
665.36,-1.0,2021-04-28
665.56,1.0,2021-05-06
658.98,-1.0,2021-06-10
663.52,1.0,2021-07-10
662.96,-1.0,2021-07-21
664.20,1.0,2021-08-06
660.03,-1.0,2021-09-04
665.09,1.0,2021-10-05
663.94,-1.0,2021-10-20
664.40,1.0,2021-10-30
658.04,-1.0,2021-12-03
661.47,1.0,2021-12-30
649.79,-1.0,2022-03-04
651.99,1.0,2022-03-27
641.74,-1.0,2022-05-29
