pred_price,direction,date
380.65,-1.0,2020-12-15
382.10,1.0,2021-01-06
378.71,-1.0,2021-01-29
380.03,1.0,2021-02-14
376.55,-1.0,2021-03-16
377.44,1.0,2021-04-04
374.48,-1.0,2021-04-26
376.39,1.0,2021-05-15
374.37,-1.0,2021-06-08
376.62,1.0,2021-07-04
374.94,-1.0,2021-07-21
378.24,1.0,2021-08-14
377.15,-1.0,2021-09-02
379.78,1.0,2021-09-29
377.74,-1.0,2021-10-18
380.95,1.0,2021-11-09
380.01,-1.0,2021-11-28
383.37,1.0,2021-12-27
381.11,-1.0,2022-01-14
383.48,1.0,2022-02-02
379.93,-1.0,2022-03-05
380.31,1.0,2022-03-18
375.13,-1.0,2022-04-15
375.88,1.0,2022-04-28
371.18,-1.0,2022-05-31
372.17,1.0,2022-06-19
370.19,-1.0,2022-07-08
375.00,1.0,2022-08-06
374.97,-1.0,2022-08-12
379.75,1.0,2022-09-18
377.90,-1.0,2022-10-05
381.11,1.0,2022-10-26
378.83,-1.0,2022-11-20
380.10,1.0,2022-12-10
