get_type,hash,hash_get,date,size
DUBS,0000000000000000000057739695b3338705918b8d88974ca54f13762b87ec,00,2020-01-13 01:46:52,605673
DUBS,00000000000000000009d67e30b198aca68cc09febda5a065deab702c5fdb0,33,2020-01-13 04:30:16,638793
DUBS,000000000000000000058fda7add89c488d6d171da44f27ab53870ba4dbb14,dd,2020-01-13 05:38:21,450274
DUBS,000000000000000000140797d77e5ce8ceb6d8aba52c06777434bd4c07969b,ee,2020-01-13 05:51:44,676906
DUBS,0000000000000000000c1498d7e6dedd3ddb38b370560445a944906777eb14,77,2020-01-13 09:14:39,1219416
DUBS,00000000000000000005af7ec9a16b9797b13067220ba69e0555e24cd847d3,99,2020-01-13 12:45:30,482707
TRIPS,00000000000000000008bfa442e0ef50b30436a3234049717f2fc311db662,ddd,2020-01-13 12:57:09,1006018
DUBS,00000000000000000004d97683c7be67b010a179850eafbe14a4a4348a36f4,ff,2020-01-13 15:17:36,1469574
DUBS,0000000000000000000cc46aef117a486d8fcbdaa2a0a02e360780db7d53f9,cc,2020-01-13 19:47:32,1350769
DUBS,00000000000000000009ba9f70880643f47320b2b5abf77df0f0eff7ab174f,11,2020-01-13 21:55:32,1188387
