get_type,hash,hash_get,date,size
DUBS,000000000000000000093298f027692350a0108a59192d5a94b11d0cd126da,77,2021-01-01 01:06:53,1403820
DUBS,0000000000000000000cff85f9ba62ddcd45c938676dc72798ae20c8932617,44,2021-01-01 01:27:34,1225396
DUBS,00000000000000000001068cd4c84c9856d7bc1aa677b56d2bada7e7793b30,aa,2021-01-01 06:28:14,1206428
DUBS,0000000000000000000e95d5e894d8db40a254732af215dcbb52cc20869ed9,44,2021-01-01 10:09:43,1590678
DUBS,00000000000000000006aab96c3cd5755b52317701ab029ef4f82b60a76662,00,2021-01-01 12:28:24,1231569
TRIPS,0000000000000000000a5dd4aa8d67865b09c60a7923eed0179fb91c9c687,999,2021-01-01 13:31:13,1448992
DUBS,00000000000000000005cab1069087ccf0d6ea6d224fd2cf296c06f430ed83,bb,2021-01-01 16:33:35,1475214
