name,value,min,max
G,-0.0167900143598807,-0.0167900143598807,0.02021864986768085
A,-0.004613219349457798,-0.004613219349457798,0.026750157919310125
F,-0.02452360550046917,-0.02452360550046917,0.02938908405449414
A,-0.030000000000000027,-0.030000000000000027,0.05768951319932181
