get_type,hash,hash_get,date,size
DUBS,0000000000000000000a4ad102308b9bd2d29dd71772a5ef96fd8f026c7826,11,2020-06-24 03:09:17,1365037
DUBS,000000000000000000052ceb030a6295ce0aa291e6a4da55366d54a5a7fe8b,dd,2020-06-24 03:45:27,1249236
TRIPS,000000000000000000074ef60a8d97c9ab342fe5ba4ee3ae2ec782c558153,777,2020-06-24 08:32:53,1351302
DUBS,0000000000000000000be4e5289d7bc0d91999a05ddfab2483675cafb584bb,ff,2020-06-24 08:39:50,1365580
DUBS,000000000000000000008ddcbb9cf730abff225eaebddd82e878c7f8da31d8,66,2020-06-24 11:20:08,1367301
DUBS,0000000000000000000e3a3058cc835cfa594c733a0a0c49c23348700682f7,cc,2020-06-24 14:58:54,1481134
DUBS,00000000000000000001adc1d5f88d60cfe54230bf17b225cd4528fdf54d6c,99,2020-06-24 17:33:19,1298919
DUBS,0000000000000000000a8a15b268dd401ac9f20fa5065038609b9dd91b6850,99,2020-06-24 17:34:00,1344515
DUBS,0000000000000000000258e5fff01fcd7e9da2ef1444d11fbe33fbd8d16b71,22,2020-06-24 18:38:21,1119149
DUBS,00000000000000000003760f1b4a206343ea79e84fbedb6fec36e248ab0cec,ff,2020-06-24 18:58:23,1385721
