pred_price,direction,date
3.20,1.0,2020-01-22
3.13,-1.0,2020-02-10
3.25,1.0,2020-03-06
3.22,-1.0,2020-03-23
3.29,1.0,2020-04-18
3.20,-1.0,2020-05-09
3.30,1.0,2020-06-01
3.27,-1.0,2020-06-20
3.33,1.0,2020-07-16
3.26,-1.0,2020-08-03
3.41,1.0,2020-08-31
3.40,-1.0,2020-09-15
3.47,1.0,2020-10-11
3.38,-1.0,2020-10-31
3.51,1.0,2020-11-25
3.48,-1.0,2020-12-12
3.55,1.0,2021-01-06
3.45,-1.0,2021-01-28
3.54,1.0,2021-02-17
3.46,-1.0,2021-03-16
3.48,1.0,2021-04-01
3.32,-1.0,2021-04-27
3.38,1.0,2021-05-15
3.30,-1.0,2021-06-11
3.34,1.0,2021-07-02
3.27,-1.0,2021-07-21
3.47,1.0,2021-08-21
3.47,-1.0,2021-08-27
3.58,1.0,2021-09-28
3.49,-1.0,2021-10-18
3.62,1.0,2021-11-11
3.60,-1.0,2021-11-28
3.70,1.0,2021-12-25
