get_type,hash,hash_get,date,size
DUBS,000000000000000000028361d4814548fca2f3e77a354bff6d2a1db80971db,55,2020-02-29 00:21:31,927644
DUBS,0000000000000000000d82428c6338cde75f44a8a3090b13ddef64b2d79d81,ff,2020-02-29 02:59:22,1292941
DUBS,0000000000000000000306cd841dbaba6aeaf88e2fb50b5a61d9add5dcf9d8,22,2020-02-29 04:16:58,1187265
DUBS,000000000000000000113319b97eefaf84ca7fd1e5e6cb0ae51334fafedce6,dd,2020-02-29 06:29:33,1048438
DUBS,0000000000000000000ec98bd2403d533f68484aa10978773c34482e1b9ff5,dd,2020-02-29 07:32:25,210964
DUBS,00000000000000000005cdf722e2c052f87c14ea0627f54e5061f4ba6291c9,cc,2020-02-29 08:08:42,52898
DUBS,000000000000000000018093777ee2eacfea8934fd74c642d69afa0cc50c55,cc,2020-02-29 13:08:52,1017798
DUBS,0000000000000000000de3fbb45ccc05abf8715f80d3c8a9c4cd044dd1e600,66,2020-02-29 16:36:57,1134738
DUBS,000000000000000000028c9561f30d276ee51c30329b71a2f2f722c8d2e9ce,bb,2020-02-29 16:58:03,1362920
DUBS,0000000000000000000e580d7dac13fdca206670ef2bcb80eb87db55318728,ff,2020-02-29 19:23:06,1209438
