date,mercury_dist,venus_dist,mars_dist,jupiter_dist,total,mercury_diff,venus_diff,mars_diff,jupiter_diff,total_diff
2019-12-06,1.9699618284032627,1.6297253856769554,3.5855609181816344,2.380248734791748,9.5654968670536,0.6722288396128386,-0.04791606540585163,-0.13301477413244403,0.8840829377659042,0.6083535549884759
2019-12-07,2.002348746298696,1.6289796217395724,3.5827985323679066,2.4003882147842206,9.614515115190395,0.6685584911796942,-0.05765957953262931,-0.1411745826629082,0.881126835933713,0.6018334041723821
2019-12-08,2.0344575744645415,1.6281069423458403,3.5798769940181705,2.4204583116434013,9.662899822471953,0.662817924861333,-0.06747219111447862,-0.14930823754162087,0.8780912391493042,0.594054953002007
2019-12-09,2.0662011942511938,1.6271065149180202,3.5767967979162774,2.4404572533038946,9.710561760389385,0.6552789807806474,-0.07734917438278026,-0.1574166059801275,0.8749781123405144,0.5851809772199787
2019-12-10,2.097504164015236,1.6259775650342365,3.5735584135294047,2.460383310315817,9.757423452894695,0.6461827056980438,-0.0872860329514079,-0.16550098181320622,0.8717893199879994,0.5753557705090616
2019-12-11,2.1283013061558247,1.6247193701945304,3.5701622744116457,2.4802347902746713,9.803417741036672,0.6357409787691398,-0.09727875241885138,-0.17356320041616632,0.8685264828726743,0.5647060035218346
2019-12-12,2.1585363950492567,1.6233312494217849,3.566608766767406,2.500010027602753,9.848486438841201,0.6241385943713698,-0.10732412239976782,-0.18160568164372476,0.8651907746994154,0.5533418441561179
2019-12-13,2.188160957020822,1.621812548769066,3.56289821947211,2.519707367715995,9.892579092977993,0.6115355748736343,-0.11742005302508846,-0.18963135535274883,0.8617826764533063,0.541358231817789
2019-12-14,2.217133186844209,1.6201626238960063,3.559030898518929,2.5393251460664423,9.935651855325586,0.5980695760977629,-0.12756580155229996,-0.19764343520577005,0.8583017522021053,0.5288362635567492
2019-12-15,2.245416980636448,1.6183808221545721,3.555007008491351,2.558861664381593,9.977666475663964,0.5838582900549234,-0.13776201029797308,-0.20564505960814985,0.8547465264556838,0.5158446689626954
2019-12-16,2.2729810819826475,1.6164664672543416,3.550826702469355,2.578315167507715,10.01858941921406,0.5690017823319208,-0.14801050720000938,-0.21363886069995877,0.8511145105907912,0.5024413430030492
