get_type,hash,hash_get,date,size
DUBS,00000000000000000008af964f4db4d6841a97902850d634b3503f7d55f666,33,2020-08-13 00:22:52,1609965
DUBS,0000000000000000001054c18167104332c2572a70317ece40af60ee589d58,55,2020-08-13 02:41:24,1268256
DUBS,00000000000000000002c8f857bc1add0597533ee93a0ff3f693738d0520d0,22,2020-08-13 06:47:54,1391221
DUBS,00000000000000000009fc29fa2cec25a6da3da005c5aa3ab227492c1a3971,33,2020-08-13 12:20:39,1189954
DUBS,0000000000000000000e01560bbbaf060502d64bf28ca54469bcd83e06a0bd,66,2020-08-13 13:24:33,1144712
DUBS,0000000000000000000cc518267e96b5f4f7bb1b1881f370b85cdb338a2440,bb,2020-08-13 16:26:09,1300049
DUBS,00000000000000000003e273605a7d7156720a53bd700c0f667ebfbf323f3b,33,2020-08-13 16:31:24,1227944
DUBS,0000000000000000000e98770f138135615c4f150835b8a52571f83a08107a,ee,2020-08-13 22:11:19,1140938
