date,mercury_dist,venus_dist,mars_dist,jupiter_dist,total,mercury_diff,venus_diff,mars_diff,jupiter_diff,total_diff
2020-10-09,1.5703808827915635,0.832331520605166,0.990020526310725,3.2229758679667744,6.615708797674229,-0.0651240797983039,0.5994671469444751,0.09124870878982314,0.5317222255467151,0.2244495790018918
2020-10-10,1.5661207072220695,0.8401005644707726,0.9915987896411953,3.235443596553935,6.633263657887973,-0.08806930463000516,0.6099848508168579,0.08766065370919007,0.5454783463431683,0.21553404469105986
2020-10-11,1.560758026416191,0.8480018673591614,0.993109757245183,3.2482227742091614,6.650092425229697,-0.11086105767760324,0.6203691402708142,0.08392288241247083,0.5591046232893442,0.20661926373453568
2020-10-12,1.5543060501780908,0.8560336075622581,0.994550717799936,3.2613102967864434,6.666200672326728,-0.13337972848999413,0.6306103986971338,0.0800345175359059,0.5725950900580471,0.19777290205865736
2020-10-13,1.5467850947287205,0.8641938573363174,0.9959189372098108,3.2747029089799273,6.681600798254776,-0.15547840828962858,0.6407003007273125,0.07599429421672835,0.5859431332215568,0.18907877303545342
2020-10-14,1.5382241240889234,0.872480605485668,0.9972116570160918,3.2883971817123605,6.696313568303044,-0.17697832375823308,0.6506322941508856,0.07180085926956287,0.5991411500690241,0.180639594875836
2020-10-15,1.5286625359725394,0.8808917853139419,0.9984261034667554,3.3023894827813596,6.710369907534597,-0.1976637823563872,0.6604020213422748,0.06745336326622645,0.6121802536280139,0.17258010666210138
2020-10-16,1.518152210027249,0.8894253040026359,0.9995595119997012,3.3166759461817863,6.723812972211372,-0.2172767488890996,0.6700074313275158,0.06295231663780247,0.6250502147425705,0.1650504798984644
2020-10-17,1.506759822269126,0.8980790661669477,1.0006091679337552,3.3312524500997087,6.736700506469537,-0.23551134256479705,0.6794483226141671,0.05830048989447765,0.6377398414656769,0.15822982074115988
2020-10-18,1.4945694043531694,0.9068509834485365,1.001572457089712,3.3461146149078296,6.749107459799248,-0.2520087755761154,0.688725246883391,0.05350346516444974,0.6502378541478606,0.15232937208762773
2020-10-19,1.481685089856672,0.9157389657120119,1.0024469135671608,3.361257827544499,6.761128796680343,-0.2663534870408171,0.6978380646104831,0.04856947821917227,0.6625340397512117,0.14759487281748285
