get_type,hash,hash_get,date,size
DUBS,00000000000000000003f23072ec92d59ed21cf8884fa6d2faa0ab159a3632,99,2020-12-10 07:57:10,1388782
DUBS,00000000000000000007b79b0f7d68646b82f2f2b5f18170f575986dca4f41,66,2020-12-10 10:55:28,1286818
DUBS,0000000000000000000b827c4bc41adcacb5608b7f0e70f324ec79b07d303f,11,2020-12-10 12:43:07,1245869
TRIPS,0000000000000000000d328a9b9dcbc2d64a2411dd8ca6043c7ce87093c35,222,2020-12-10 17:20:03,1261677
DUBS,00000000000000000001fddb2d6f5acf78145635f5eb23e2b0d8b1078db8e7,dd,2020-12-10 19:27:01,1403357
TRIPS,0000000000000000000ce2d4fa944b992b70275bda17359d98d37f47995b1,ddd,2020-12-10 20:21:28,1451644
