name,value,min,max
G,0.006458701638974773,-0.005231317766022814,0.026654033727010917
A,0.0022607628459774265,-0.009721991010487763,0.02281627788183216
F,-0.0010994044892350674,-0.00529125750786541,0.02207064555420213
A,-0.009410588885089721,-0.012139029825975589,0.027150619101220963
