name,value,min,max
G,-0.001034457443755521,-0.032774950109531464,0.017483723100014226
A,0.014534818314771103,-0.022735768156731728,0.10469445673965683
F,-0.020265236179406898,-0.020265236179406898,0.08174840085287838
A,-0.0060932103325693765,-0.017841860465116266,0.03696082414773838
