date,mercury_dist,venus_dist,mars_dist,jupiter_dist,total,mercury_diff,venus_diff,mars_diff,jupiter_diff,total_diff
2020-08-06,0.17542401595266177,0.5733330117656399,0.9097270813245971,3.0962405911465374,4.754724700189437,-0.9283854089837196,0.18202806685458872,-0.10890884430373836,-0.3031749821102112,-0.7376954049103195
2020-08-07,0.1295892173636569,0.5756313683065382,0.9077873700072997,3.0896097192984486,4.702617674975944,-0.9475287514210803,0.18045498210979913,-0.09913095207234807,-0.2954761462884234,-0.7460274317789319
2020-08-08,0.08316595234207075,0.5779123812705219,0.906036438669983,3.0831572702719523,4.650272042554528,-0.9596939377267248,0.1790932548032924,-0.08948315604166987,-0.2875255043605101,-0.7494436222407954
2020-08-09,0.03738047666418595,0.5801788718452662,0.9044715625279032,3.0768889513613993,4.598919862398755,-0.9465091139877595,0.17795303245581467,-0.07997461295210145,-0.27932054152590896,-0.7352201535377693
2020-08-10,0.020676968775213078,0.582433787429561,0.9030898330321302,3.070810517672336,4.57701110690924,-0.3453065020817462,0.17704422450660856,-0.07061471426235859,-0.2708591272853275,-0.31367234119292176
2020-08-11,0.06430137930873614,0.5846801974873227,0.9018881563848941,3.064927763587539,4.615797496768492,0.9005324365554418,0.1763764148734858,-0.061412927305903864,-0.2621395114187452,0.47620928800652995
2020-08-12,0.11216869269173753,0.5869212892687926,0.9008632537308421,3.0592465153258144,4.659199751017187,0.9881180702495087,0.17595885152506097,-0.05237870964180696,-0.25316027529110363,0.5328816801112939
2020-08-13,0.16053282551379466,0.5891603646559028,0.9000116613762719,3.0537726247669994,4.703477476312969,0.9983738425226303,0.17580053474451277,-0.043521507625010246,-0.243920275429456,0.5436304877604777
2020-08-14,0.20891881933078954,0.5914008389930434,0.8993297296180796,3.048511964179854,4.748161352121767,0.9988251158990736,0.17591037301294996,-0.03485082745826382,-0.23441860328956682,0.5486170989745861
2020-08-15,0.2571114323044212,0.5936462422694679,0.8988136192289453,3.0434704204556025,4.793041714258437,0.9948331829439402,0.17629736764780182,-0.026376354972548866,-0.22465460728453807,0.5510295074157562
2020-08-16,0.3049613973128386,0.5959002228814895,0.8984592953266289,3.0386538866743984,4.8379748021953555,0.9877599502464346,0.17697081535452802,-0.018108089314832036,-0.2146280116314405,0.5516768611882271
