get_type,hash,hash_get,date,size
DUBS,00000000000000000008a748eeeb51f25ffdc3a213634fac8156c3317dd77a,22,2021-01-29 00:38:12,1274366
TRIPS,000000000000000000097df216a0d884d745d44dfdabee0cec6991f14a84b,222,2021-01-29 02:07:32,1352391
DUBS,00000000000000000002d250551c0b5c9dc2c07a4e8b091434b90ba84a737d,ee,2021-01-29 03:46:39,1292149
DUBS,000000000000000000069dc08c3f85eb712518cc42402f7c1b226bffcaf4c4,ff,2021-01-29 12:18:45,1250867
DUBS,0000000000000000000793e4940f1707476395cfc5d9008ba07384005ffc5b,88,2021-01-29 12:39:24,1268705
DUBS,0000000000000000000119be90fee0ccf4b646151871c20e0c8cb7f530abd6,ee,2021-01-29 12:54:30,1090775
DUBS,0000000000000000000352b9bdbd9fe6020158af312d0c308f9dd4b262d05c,00,2021-01-29 13:49:00,1395499
DUBS,0000000000000000000ab265bf57033230b0f71ecbc717602f29265f583a9d,aa,2021-01-29 20:55:25,1276955
DUBS,0000000000000000000b5d07efe71d2d090c966c2625514b4318ca3b8335f4,99,2021-01-29 22:46:13,1337271
