pred_price,direction,date
829.61,-1.0,2019-11-14
838.67,1.0,2020-01-22
836.47,-1.0,2020-02-10
842.18,1.0,2020-03-11
842.03,-1.0,2020-03-21
844.11,1.0,2020-04-17
840.59,-1.0,2020-05-09
844.74,1.0,2020-06-02
843.71,-1.0,2020-06-21
845.05,1.0,2020-07-13
841.47,-1.0,2020-08-04
846.10,1.0,2020-08-30
845.11,-1.0,2020-09-18
846.09,1.0,2020-10-07
841.46,-1.0,2020-11-01
845.10,1.0,2020-11-24
843.43,-1.0,2020-12-17
843.99,1.0,2021-01-02
838.64,-1.0,2021-01-29
841.47,1.0,2021-02-18
838.79,-1.0,2021-03-19
838.93,1.0,2021-03-28
833.28,-1.0,2021-04-27
836.02,1.0,2021-05-17
833.85,-1.0,2021-06-12
834.52,1.0,2021-06-28
830.68,-1.0,2021-07-22
835.43,1.0,2021-08-17
834.88,-1.0,2021-09-02
836.50,1.0,2021-09-26
832.79,-1.0,2021-10-18
