name,value,min,max
G,0.02066702746583693,-0.051508240457851184,0.08281321497208749
A,0.02559457271711052,-0.052617090723190096,0.08723747980613905
F,0.03228099271456486,-0.043165467625899345,0.07374497340770536
A,0.015609465102406128,-0.02155181256795846,0.04772919190806624
