date,mercury_dist,venus_dist,mars_dist,jupiter_dist,total,mercury_diff,venus_diff,mars_diff,jupiter_diff,total_diff
2018-10-31,2.0017125240729188,0.2881700699245315,1.6175708426990876,1.868763200157459,5.776216636853997,0.04831376199613238,-0.1576553133687909,-0.08099035530589367,-0.36467555637845206,-0.15247750343836192
2018-11-01,2.002917677651188,0.2863182146097827,1.6158801803258505,1.8605522460243522,5.765668318611173,0.02487781210082859,-0.1431782812915194,-0.08640304832855332,-0.36588568444445174,-0.1698900442649197
2018-11-02,2.0029746581433865,0.2846672286736715,1.6140826019260142,1.8523159031982483,5.75404039194132,0.0011762401107082464,-0.12764783883828149,-0.09186710239374082,-0.3670170218217884,-0.1872780979085839
2018-11-03,2.0018713974043103,0.2832306493395436,1.6121770555051949,1.84405598090215,5.741335083151198,-0.022807371315459964,-0.11107075070130273,-0.09738491971942673,-0.3680677389952048,-0.20463029490238288
2018-11-04,1.9995970752707015,0.2820218381776783,1.6101624631657059,1.835774350953067,5.727555727567153,-0.04701636481292645,-0.09346059769543087,-0.10295782412068033,-0.3690350467332769,-0.22192877349980078
2018-11-05,1.9961426643784,0.28105389122916025,1.6080377463541733,1.827472965783934,5.712707267745667,-0.07141197824447479,-0.07483790950967639,-0.10858584910707804,-0.36991535273575454,-0.23914764783041678
2018-11-06,1.9915015858586358,0.28033954662981664,1.605801853326863,1.8191538710415833,5.696796856856899,-0.09594359461490518,-0.05523035799250384,-0.11426762454426093,-0.37070450332810284,-0.25625131399545387
2018-11-07,1.9856704920181216,0.2798910881559549,1.6034537858789844,1.8108192110885921,5.679834577141653,-0.12054441682322438,-0.034673072462385005,-0.12000041426917481,-0.3713980996698239,-0.2731925967077734
2018-11-08,1.9786501929560187,0.27972024302286563,1.600992622174173,1.8024712265343448,5.661834284687402,-0.14512849209972603,-0.01320908406176643,-0.12578031539444934,-0.3719918529378995,-0.2899107148112966
2018-11-09,1.9704467454599215,0.27983807305419794,1.5984175327773567,1.7941122444218085,5.6428145957132845,-0.1695873572615643,0.009251400214763453,-0.13160260565653834,-0.37248191159326793,-0.3063290021531232
2018-11-10,1.961072723832569,0.28025486054891724,1.5957277887650536,1.785744663305807,5.622800036452347,-0.19378627771455476,0.032723982795882206,-0.13746214830668735,-0.3728650890191104,-0.3223522727043947
