get_type,hash,hash_get,date,size
DUBS,000000000000000000106c7fbd8b8e6750fdfcdd7ce0f6391ad111bdb35c99,aa,2020-07-09 05:18:46,1303272
DUBS,00000000000000000006db7b13afef83923fbe5b5ce5267780672a3389819a,ff,2020-07-09 11:14:32,1279298
DUBS,0000000000000000000f9aefde2ea5c721344070b267a1c7a464a31a76980e,ff,2020-07-09 13:37:23,1323797
TRIPS,0000000000000000000f0a198c1dfc5731f063a568ffc0ff6ec120ba52c22,ddd,2020-07-09 17:49:05,1391752
DUBS,0000000000000000000393588d04cd9a681d84a0bfeea30258ef8ebc85c1b2,55,2020-07-09 17:57:40,1675513
DUBS,00000000000000000001bba504cdb2503ecb925a78d85f78c7f591168beb58,ff,2020-07-09 18:52:38,1251782
DUBS,00000000000000000005e24c5ad1bace8dc6736447485c7c802ed548853262,99,2020-07-09 19:43:56,1373774
