pred_price,direction,date
67.92,-1.0,2020-12-11
69.68,1.0,2021-01-13
69.27,-1.0,2021-01-28
69.58,1.0,2021-02-12
68.32,-1.0,2021-03-14
68.98,1.0,2021-04-07
68.17,-1.0,2021-04-27
68.42,1.0,2021-05-10
67.09,-1.0,2021-06-10
68.24,1.0,2021-07-09
68.11,-1.0,2021-07-19
69.30,1.0,2021-08-13
68.99,-1.0,2021-08-31
70.32,1.0,2021-10-01
69.66,-1.0,2021-10-19
70.21,1.0,2021-11-04
69.05,-1.0,2021-12-02
