name,value,min,max
G,-0.02979828289385056,-0.02979828289385056,0.022506898419166088
A,0.00017385257301794077,-0.0255419257267685,0.013191929643041833
F,-0.026932125425752407,-0.026932125425752407,0.041747645387950394
A,0.0008238671826239496,-0.020013994518304434,0.008815010703941528
