get_type,hash,hash_get,date,size
DUBS,00000000000000000023e08d77ec4e4703cc63aeb1c247ef21f1ab69a191af,22,2019-05-21 21:51:28,1199531
DUBS,0000000000000000000a4ebc96f622f42867650ea2a8c793a04e62fead1083,11,2019-05-21 20:40:08,1157639
DUBS,0000000000000000001b263badfc4f4176781ef3379f93b4b7ed4e9b635278,ee,2019-05-21 19:52:21,1425193
DUBS,0000000000000000000ba6f4a3565b8e232e5e84f3bb769f6753280fa4e0c0,ff,2019-05-21 16:44:59,1090106
DUBS,0000000000000000001d5ac290a81e2a638edb947da1907f5d7b1d2f702338,bb,2019-05-21 16:42:34,1227736
DUBS,000000000000000000216d0a342a52cfced806ee30fcf71a5047937b49d7c1,ff,2019-05-21 14:10:28,1379953
DUBS,00000000000000000003905e6651c1845e8248eec879641ecb4129c046a154,ee,2019-05-21 13:15:21,1052563
DUBS,000000000000000000284f8f50869b22984a6cc91333e9e83ac600991b7b0f,cc,2019-05-21 09:45:39,1354216
DUBS,000000000000000000232f6821ee9aa3ef95e0278a3a964167c464c3c6970d,22,2019-05-21 08:50:58,1118666
DUBS,00000000000000000016ea09ffac3221626513f7da88e504b0ed196a7112d8,aa,2019-05-21 08:19:45,1255997
DUBS,000000000000000000060e5aae066619d04f1a3f0b277b76feb07ba06829d3,44,2019-05-21 02:26:51,1299776
