pred_price,direction,date
65.83,-1.0,2020-09-09
67.69,1.0,2020-10-17
67.43,-1.0,2020-10-29
68.92,1.0,2020-11-24
68.68,-1.0,2020-12-11
69.86,1.0,2021-01-09
69.05,-1.0,2021-01-28
69.75,1.0,2021-02-14
68.49,-1.0,2021-03-15
69.07,1.0,2021-04-06
68.06,-1.0,2021-04-27
68.43,1.0,2021-05-11
67.12,-1.0,2021-06-09
68.20,1.0,2021-07-06
67.87,-1.0,2021-07-20
69.33,1.0,2021-08-14
