get_type,hash,hash_get,date,size
DUBS,0000000000000000002e50f45157837db4554f6c65a4a539b307526a21fcc9,dd,2018-12-05 22:00:40,1287249
DUBS,000000000000000000173a0eb65854380cf9cc6d8199646d04753ccd6373f7,55,2018-12-05 20:25:01,1225501
DUBS,0000000000000000002546a7b004420bde1dcba55b692ce5e0643ace8842c3,77,2018-12-05 19:13:56,1392528
DUBS,00000000000000000012fa35adbca0da2e25cae8e3fac2c5fdf33fc71fee23,99,2018-12-05 17:05:41,1191007
DUBS,000000000000000000088cfb4e931dea373e67f43419052ecb3275496066c2,00,2018-12-05 16:26:36,1448822
DUBS,0000000000000000001d8d5b15a9f65c71c4e2cb35d1bb8d97396ce9b376e3,00,2018-12-05 01:27:27,835807
DUBS,000000000000000000094fe306a6acb6f0b6605ee44bb28bc512e83ef9ce3a,bb,2018-12-05 01:19:40,1058021
