name,value,min,max
G,0.021047537868698063,-0.01133715188623341,0.021047537868698063
A,0.018038502349552843,-0.012830020765351446,0.018707869423615797
F,0.015547012005935557,-0.0164195442332572,0.016511458952513047
A,0.009622126054686708,-0.01575838335286528,0.013828382838283915
