pred_price,direction,date
298.75,1.0,2020-02-13
292.62,-1.0,2020-03-23
303.74,1.0,2020-05-15
298.07,-1.0,2020-06-20
306.43,1.0,2020-08-05
297.81,-1.0,2020-09-20
303.69,1.0,2020-10-27
294.41,-1.0,2020-12-16
301.70,1.0,2021-01-24
