name,value,min,max
G,0.020246041816075477,-0.006555418984326766,0.020246041816075477
A,0.011070930085014696,-0.013503281171125647,0.021364354074694614
F,0.0016683951841998113,-0.01284304447749085,0.017655691094194292
A,-0.00703962852913298,-0.01155818749008608,0.008549854459135808
