date,mercury_dist,venus_dist,mars_dist,jupiter_dist,total,mercury_diff,venus_diff,mars_diff,jupiter_diff,total_diff
2020-01-14,2.6858113240998107,1.5008778449608675,3.363764237932946,3.097348986178765,10.64780239317239,-0.0018655962982434444,-0.4581819987295477,-0.4322791810844609,0.7089788807424618,0.02124015935198069
2020-01-15,2.6845126244969006,1.4948176010710925,3.3551702124649414,3.113418002266539,10.647918440299474,-0.026847619081970257,-0.468554588166149,-0.4392065557282469,0.7030390708836703,0.0014247966867949986
2020-01-16,2.6819785674900873,1.4886237428334572,3.3464411864809227,3.1293496230545927,10.64639311985906,-0.05238578428643166,-0.4788851320969636,-0.44610589665769185,0.6970278587888101,-0.024566641921001848
2020-01-17,2.678181217468159,1.482296771089236,3.33757776015464,3.1451421332096627,10.643197881921697,-0.07850145382442551,-0.489176952920036,-0.45297456508719264,0.6909415987696167,-0.0514621480049376
2020-01-18,2.673091790572521,1.4758371614576868,3.328580610772817,3.1607937556577426,10.638303318460768,-0.10521216325426194,-0.49943200070402033,-0.4598086200785529,0.6847775895931831,-0.07883129650553367
2020-01-19,2.6666808984291626,1.4692453851422764,3.319450509069342,3.1763026772731315,10.631679469913912,-0.13253040953798204,-0.5096506168607637,-0.46660328591775163,0.6785342539538819,-0.10668297039624423
2020-01-20,2.658918861707736,1.462521929879455,3.310188327159545,3.191667074729975,10.623296193476712,-0.16046220752679438,-0.5198315231240318,-0.47335338140148664,0.6722111455825207,-0.13502012095339858
2020-01-21,2.6497761087787493,1.455667319084985,3.300795039603731,3.206885138469004,10.613123605936469,-0.18900533075392495,-0.5299719609075648,-0.48005367097335255,0.6658088667840473,-0.1638385672214942
2020-01-22,2.639223678451337,1.4486821286807285,3.2912717192932,3.2219550936664474,10.601132620091713,-0.21814715980860072,-0.5400678706430743,-0.48669912932620396,0.6593289372788669,-0.19312548873195703
2020-01-23,2.627233848547811,1.441567001343834,3.2816195291711927,3.236875217982315,10.587295597045152,-0.24786208095096848,-0.550114091070371,-0.4932851542625711,0.6527736532964845,-0.22285755925823775
2020-01-24,2.61378091462444,1.4343226579269504,3.271839710707088,3.2516438555648763,10.571587138823354,-0.27810838218497047,-0.5601045779624696,-0.499807732622924,0.646145923779454,-0.2529986867290865
