get_type,hash,hash_get,date,size
DUBS,00000000000000000002051f586ea8fe88ebeccd577f7b0bb139c56dc5d39c,ee,2019-07-29 23:28:18,1009964
DUBS,000000000000000000197f8dc9153cfef85374dc16cee78f6e50f33b1c9500,66,2019-07-29 23:00:41,601795
DUBS,000000000000000000123e97bb0bec3aa9a52b156100ba6685d7f35d1bd81f,55,2019-07-29 14:56:24,1461286
TRIPS,000000000000000000027c1d95fd3b0514027bc94dc80c3d86096ca9a74ae,555,2019-07-29 12:31:34,1472248
DUBS,0000000000000000000c2c0021bfeca4d915d007a70bc4bddd217d4f05346c,22,2019-07-29 09:24:07,617738
DUBS,0000000000000000001b2cedf49675cc0af9e7735c127283f7a062ece0da9f,11,2019-07-29 09:16:53,1151726
DUBS,0000000000000000000995329841bffc292a6e63d2683a748c1a152e322de8,cc,2019-07-29 07:07:28,743900
DUBS,0000000000000000001113df48d21c2f3f3e04c4c957a0f2924cb4924244ef,22,2019-07-29 03:39:45,685271
DUBS,000000000000000000095a62f0f9349f9565e33a8dbf1270196ca23ead973e,33,2019-07-29 03:26:27,834330
