get_type,hash,hash_get,date,size
DUBS,00000000000000000005bb208c74e7f2db65a53d71b4d676256e199c03b2c3,88,2020-12-05 00:07:07,1143989
DUBS,0000000000000000000e70baac9bdef571efe3d79a83fcfe6d895e46180a76,dd,2020-12-05 00:55:58,1693185
DUBS,00000000000000000001a1f391cbe3044b6bb4363f3358c2d87da9e1ae9945,dd,2020-12-05 05:40:48,1530372
DUBS,0000000000000000000be7ec936c95821f52c1355a4eb2c7ed03942feb2559,44,2020-12-05 05:45:43,1186548
DUBS,00000000000000000005c67cf9de8ea2a770fafb84edd8f0cea9408d9d7788,22,2020-12-05 06:53:14,1398876
DUBS,00000000000000000003a347bc1478c67644291e9e35e5a9e4dc71ee682e37,11,2020-12-05 14:55:21,1285139
DUBS,00000000000000000006734e2fb666e8bf588ec60eea84150e523464485cd3,aa,2020-12-05 18:20:47,1244333
DUBS,00000000000000000008d8cecfeefd58bb7144e0f1478fc4324e764b391b23,ee,2020-12-05 18:36:58,1343512
DUBS,0000000000000000000d1c936ad888a984dd27114c784d9d9a4670103de5e8,33,2020-12-05 19:24:24,1393607
DUBS,0000000000000000000796734c61ea492c7f27d5322f02d46977e8d1b53ccd,99,2020-12-05 19:53:21,1399420
