get_type,hash,hash_get,date,size
DUBS,00000000000000000005d16208db7de2fd899fcb926a1f26039d0bd57bb0e6,11,2019-06-30 23:03:40,1795606
DUBS,0000000000000000000a0a320b2874b9dfa9feb1ecfb4bbf355d640c2605ed,ff,2019-06-30 20:13:29,1294885
DUBS,000000000000000000010006e9fe5b90dacd169c686c4cbd6209e863a96ecc,aa,2019-06-30 16:03:14,1214424
DUBS,0000000000000000000b3b34195b16f7462a63e320ed7c1d8d2cdbee251043,66,2019-06-30 13:05:24,683800
DUBS,0000000000000000000a460d0e2bfca321abfa75361c782a2701f6ed2afde6,22,2019-06-30 12:09:56,840489
DUBS,00000000000000000012b04c5de7241cdf36cb9e9c2775dddc30a6f6b7cb90,ee,2019-06-30 12:01:58,897505
DUBS,000000000000000000103f6e07649124b319145cc1c577f842975f7f0d1c35,dd,2019-06-30 07:09:02,128343
