name,value,min,max
G,-0.08269881906020327,-0.08269881906020327,0.048840671497544896
A,-0.0992629706277457,-0.0992629706277457,0.07202164030506797
F,-0.0926339285714286,-0.0926339285714286,0.05126843657817104
A,-0.07922080775018403,-0.07922080775018403,0.05065505578665008
