name,value,min,max
G,-0.003519041737865325,-0.015453911377406593,0.012705734175276318
A,-0.01135108873282975,-0.01661744611451499,0.025282828745476937
F,0.005949429846306309,-0.02781433185787774,0.010719941527591592
A,-0.009890093322679316,-0.01830240322435106,0.024827102490446284
