date,mercury_dist,venus_dist,mars_dist,jupiter_dist,total,mercury_diff,venus_diff,mars_diff,jupiter_diff,total_diff
2019-01-24,2.7018519668484404,0.9451510423139475,1.0782418733596997,1.293711691040348,6.018956573562436,0.061608670289222546,0.931823201501604,-0.5165801261327534,-0.1478614202538432,0.017513164518161543
2019-01-25,2.7037232801536106,0.9569945307511772,1.0681054534890042,1.290495493414335,6.0193187578081275,0.03862925159684562,0.9298890124430419,-0.5180322161480874,-0.14331594728531427,0.00444680472696334
2019-01-26,2.704456537594776,0.9688101879412768,1.0579447087236393,1.2873800040113395,6.018591438271032,0.01513652796770367,0.9277038479076049,-0.5192753650363447,-0.13882832057218084,-0.011714127836066056
2019-01-27,2.704025503472722,0.980594877602058,1.047763859101969,1.284363850966104,6.016748091142853,-0.008910636373736045,0.9252724388334691,-0.5203028445014971,-0.13440182510526955,-0.02968874449867238
2019-01-28,2.7024026047942673,0.9923455467939689,1.0375672954318096,1.2814456136740084,6.013761060694054,-0.033549687264205576,0.9226013288502689,-0.5211059271941237,-0.13003863274360827,-0.048108781275381776
2019-01-29,2.69955898107918,1.0040592372301564,1.027359611106742,1.2786238368181175,6.009601666234196,-0.05878536202217742,0.9196979495948033,-0.5216742597593329,-0.1257402902915145,-0.0669907460728424
2019-01-30,2.6954645590050212,1.0157330879488098,1.017145625931197,1.2758970361656388,6.004240309050667,-0.08464273336305271,0.9165699425223754,-0.5219962712365652,-0.12150808625918733,-0.08634942445440265
2019-01-31,2.6900881628514552,1.0273643332446707,1.0069304036737527,1.2732636995936506,5.997646599363529,-0.11114459082090386,0.9132247866812432,-0.5220594935858817,-0.11734326344969297,-0.10619755726273909
2019-02-01,2.683397673829895,1.0389502986974941,0.9967192657714823,1.2707222861768923,5.989789524475763,-0.13831043015680122,0.9096696492950873,-0.5218507583924668,-0.11324710531479766,-0.12654517713128266
2019-02-02,2.675360252865751,1.0504883969029755,0.9865178030649079,1.2682712249825099,5.980637677816144,-0.16615514162262995,0.9059113624022354,-0.52135629751456,-0.10922094901320853,-0.14739862775434806
2019-02-03,2.6659426430979156,1.0619761237237224,0.97633188681884,1.2659089142930218,5.9701595679335,-0.19468736199112707,0.9019564636868515,-0.5205617795790192,-0.10526616632880423,-0.1687592761989461
