date,mercury_dist,venus_dist,mars_dist,jupiter_dist,total,mercury_diff,venus_diff,mars_diff,jupiter_diff,total_diff
2018-09-28,1.3832187349214298,0.39061657319482584,1.6193040300692707,2.1128567920386176,5.505996130224144,0.730015628379223,-0.2337419643474384,0.07444820839779137,-0.27674807492223436,0.3372735526661109
2018-09-29,1.4176139685551468,0.38755361882682415,1.6205786660801766,2.106559975159778,5.532306228621925,0.7100158643120906,-0.23681576988876332,0.07081504345450315,-0.2805904303187045,0.3230286002604227
2018-09-30,1.4510387356828178,0.38445193028029717,1.621786453744113,2.1001782538270084,5.557455373534236,0.6899826637118576,-0.23981054656722228,0.06710114509056529,-0.28437383036393993,0.3087747128857307
2018-10-01,1.4834927430471516,0.38131273890404266,1.6229259018494508,2.0937129076481704,5.581444291448816,0.6699434094435089,-0.24271012012525958,0.06330439937618597,-0.288100210215081,0.2945297451400827
2018-10-02,1.5149766072088973,0.37813747945420145,1.6239954660513671,2.087165181973098,5.604274734687564,0.6499168827500867,-0.24549876389484004,0.05942185438668888,-0.2917710964330863,0.28030629195062245
2018-10-03,1.5454915128960067,0.3749277864550191,1.6249935372400683,2.0805363017185257,5.62594913830962,0.6299148122254974,-0.24816103257974445,0.05544991197002949,-0.29538739953073323,0.2661127357890301
2018-10-04,1.5750389345766684,0.37168549413050417,1.625918434665836,2.0738274900252587,5.646470353398268,0.6099431789357983,-0.2506814861676751,0.05138459202179693,-0.29894919864461067,0.25195418449244666
2018-10-05,1.6036204122071303,0.36841264183962075,1.6267684058239043,2.0670399916828144,5.66584145155347,0.5900033347415873,-0.2530442644182847,0.04722190804173174,-0.30245552909344364,0.23783334550773916
2018-10-06,1.6312373742129427,0.3651114876034497,1.6275416352981316,2.060175100349815,5.68406559746434,0.5700929773307095,-0.25523246122351934,0.04295836485805228,-0.3059042132367634,0.22375136175950405
2018-10-07,1.6578910016024062,0.3617845319217329,1.6282362639764714,2.0532341869403297,5.70114598444094,0.5502069993044337,-0.25722732907234996,0.03859153485426457,-0.30929180851950355,0.2097085846483494
2018-10-08,1.6835821266486952,0.3584345528361855,1.6288504183520052,2.046218724746387,5.717085822583273,0.5303382017736749,-0.25900740949422885,0.03412061829344395,-0.3126137529103041,0.19570522031683893
