name,value,min,max
G,0.003991213143157868,-0.03075249112358258,0.02213508954527521
A,-0.0012815378454145154,-0.02493844809784762,0.019844762743058464
F,0.01171118854045683,-0.017434857034172357,0.03498656882657403
A,-0.00014850198621407795,-0.02232382417623313,0.01943083439033111
