date,mercury_dist,venus_dist,mars_dist,jupiter_dist,total,mercury_diff,venus_diff,mars_diff,jupiter_diff,total_diff
2020-05-21,1.044786020966579,0.3550428344511429,1.6180278570013447,3.744007409980961,6.761864122400027,-0.8183678283074024,-0.09783534256515589,-0.7377025119663552,-0.26922375738146204,-0.8780571270355432
2020-05-22,1.0069738690581271,0.35409236855885495,1.603663178920002,3.7378284408492264,6.702557857386211,-0.7816790340375616,-0.0734863419405177,-0.7341217230202642,-0.27533905478905074,-0.849100488760993
2020-05-23,0.9710938070587858,0.35345110710475586,1.589371211881105,3.731514429850499,6.645430555895146,-0.7417375311714002,-0.04957985222990477,-0.7304057500300907,-0.2813566119611314,-0.8179038016701754
2020-05-24,0.9372851465472062,0.35311244878389053,1.5751545940576215,3.72506766561401,6.590619855002728,-0.6989160827127725,-0.026183749853668642,-0.7265549504831488,-0.28727218626263984,-0.7847365351070771
2020-05-25,0.9056687774931997,0.3530689704833569,1.5610159432558313,3.718490527717016,6.538244218949404,-0.6535955129384416,-0.0033615738196734095,-0.722570365240089,-0.2930817249878611,-0.7498731906601249
2020-05-26,0.8763465921172662,0.35331248908800134,1.5469578433716502,3.7117854788959996,6.488402403472918,-0.6061685565006646,0.019119812206047696,-0.7184537273251113,-0.29878152250532186,-0.713595939180459
2020-05-27,0.8494006720750436,0.35383412697122557,1.5329828316425043,3.7049550535837805,6.441172684272553,-0.5570447511385866,0.040956289074380495,-0.7142074212685786,-0.3043683839776106,-0.6761979977618129
2020-05-28,0.8248922588639547,0.3546243793527077,1.5190933880672934,3.6980018430766193,6.396611869360575,-0.5066549190593734,0.062046500107788574,-0.7098343723045295,-0.3098397755312313,-0.6379867238736805
2020-05-29,0.8028605953817535,0.35567318207719,1.5052919277832861,3.690928477670818,6.354754182913048,-0.4554538305755157,0.08234652610042677,-0.7053378952536993,-0.3151939592978904,-0.5992854551322564
2020-05-30,0.7833217883464126,0.35696997846949574,1.4915807976105366,3.6837376062971217,6.315610170723566,-0.4039197728447107,0.10181769695406918,-0.7007214815379388,-0.3204301049141763,-0.5604332000069798
2020-05-31,0.7662678844620687,0.35850378399732574,1.477962277937286,3.676431874153512,6.279165820550192,-0.3525501311630903,0.12042641955642712,-0.6959885262237344,-0.3255483787145589,-0.5217815611483815
