get_type,hash,hash_get,date,size
DUBS,00000000000000000009ae968a937bea55223270e64058a2fea352d73a57fc,22,2020-01-01 00:37:32,1123752
DUBS,000000000000000000129c1fc0167dbd228be33d886d786a23fd3da2cbb1c8,dd,2020-01-01 03:17:43,273164
TRIPS,0000000000000000000dafe57023d627a4b8f2b352625b6583e889ff9f074,666,2020-01-01 03:33:28,1028474
DUBS,000000000000000000052edb0af275c6764ed8d3659af45edb1a94cb22fb1f,88,2020-01-01 06:24:11,1253847
DUBS,0000000000000000001412b3e34a69c8c106f3f77a8c6030abfbad9eb6f74d,bb,2020-01-01 07:29:15,69986
DUBS,0000000000000000001021f97079f2b38b2f746bd49c58034f897b10981c8c,88,2020-01-01 07:55:18,466879
TRIPS,00000000000000000005a6156a715c1a693a3ecb19c462c79fd7b8e1e3024,ccc,2020-01-01 10:24:24,442577
DUBS,0000000000000000000926191ab52bd7518c95b4f32ec2548cea063f3ecde5,88,2020-01-01 10:31:08,508065
DUBS,0000000000000000000299dbcde4710774c6e25f449dfead9880d832853ce0,66,2020-01-01 14:11:17,397170
DUBS,00000000000000000006acd45e115ab5dacb7349fce807d62635f737cd156f,77,2020-01-01 15:14:48,717718
DUBS,00000000000000000010b15200849d7e1cb8a4ff87b189509b0faf11217225,ee,2020-01-01 15:19:57,394598
DUBS,00000000000000000000e6743970d6ac2947c2b94afc90550b54ebad228509,44,2020-01-01 19:15:07,90152
DUBS,000000000000000000133807b9d15982049cc153b8f6a633b945b26c73d6e3,99,2020-01-01 19:28:34,537993
DUBS,000000000000000000108a3d674f7d2e03e22d4ccf0a16aed32f55cc73ee0c,ee,2020-01-01 22:24:23,528836
DUBS,0000000000000000000dd48089e07320bdbb700601b10379fda17e8b7b3e3e,99,2020-01-01 22:43:38,503601
