date,mercury_dist,venus_dist,mars_dist,jupiter_dist,total,mercury_diff,venus_diff,mars_diff,jupiter_diff,total_diff
2020-02-15,2.027923445237663,1.244782916863385,3.027135662229752,3.535768179806893,9.835610204137694,-0.5665738302946544,-0.7531031370969598,-0.6262652566857329,0.487765945605948,-0.6160993558156908
2020-02-16,2.0023291040902667,1.2349490313212508,3.0147816747911405,3.5467409627343165,9.798800772936975,-0.5291039746524663,-0.7603179466163107,-0.631363299145815,0.48007264864047033,-0.5928486183388492
2020-02-17,1.9787614305913028,1.2250235297423389,3.0023291396579257,3.5575366646862774,9.763650764677845,-0.48720729515171857,-0.7674013437802756,-0.6363996809534849,0.4723251397836489,-0.5661221364001164
2020-02-18,1.957394259898865,1.2150081352317859,2.9897793635388084,3.5681540772067533,9.730335835876213,-0.4417169746757323,-0.774351517128117,-0.6413692820621731,0.4645247595005668,-0.536566550088896
2020-02-19,1.9383576899767831,1.2049046116190543,2.9771337433884524,3.5785920407363494,9.69898808572064,-0.39353717884422534,-0.7811653180126678,-0.6462674903586405,0.45667364707837627,-0.5048833888908321
2020-02-20,1.9217368701664421,1.1947147763706862,2.9643937548436265,3.58884945713231,9.669694858513065,-0.34359711676065,-0.7878385994226473,-0.6510902847125806,0.4487744895700058,-0.4717934700484349
2020-02-21,1.9075728696899106,1.1844405100949416,2.95156094031071,3.598925298210452,9.642499618306013,-0.2928080432292983,-0.7943664794849762,-0.6558342527940361,0.440830347748417,-0.43800352399437364
2020-02-22,1.8958653228490243,1.1740837637735353,2.9386368973875943,3.6088186113420355,9.61740459535219,-0.24202652966407676,-0.8007435171966255,-0.6604965739836957,0.43284452725650885,-0.404177657737496
2020-02-23,1.8865764468671382,1.1636465642542022,2.925623267453747,3.6185285229183664,9.594374801493453,-0.192026087867072,-0.8069638468907578,-0.6650750107788737,0.42482048531770594,-0.37091530687693586
2020-02-24,1.8796359903123825,1.153131018339856,2.912521724639229,3.6280542397633084,9.573342973054777,-0.14347793240216183,-0.81302128674258,-0.6695678894266406,0.41676174095464924,-0.33873629730973454
2020-02-25,1.874946683258404,1.1425393153732983,2.8993339652013126,3.6373950488001805,9.554215012633197,-0.0969406083296742,-0.8189094550875995,-0.6739740790929722,0.408671798616264,-0.30807281008330506
