pred_price,direction,date
637.70,-1.0,2020-05-11
639.58,1.0,2020-05-29
637.08,-1.0,2020-06-27
637.44,1.0,2020-07-10
633.85,-1.0,2020-08-04
639.03,1.0,2020-09-04
639.00,-1.0,2020-09-10
641.55,1.0,2020-10-11
639.03,-1.0,2020-10-30
645.21,1.0,2020-12-02
645.20,-1.0,2020-12-06
647.54,1.0,2021-01-05
643.83,-1.0,2021-01-27
648.29,1.0,2021-02-21
647.03,-1.0,2021-03-15
647.57,1.0,2021-03-30
642.31,-1.0,2021-04-26
