date,mercury_dist,venus_dist,mars_dist,jupiter_dist,total,mercury_diff,venus_diff,mars_diff,jupiter_diff,total_diff
2018-10-24,1.9622306414049735,0.30562337756610414,1.6264879167888922,1.9253799508226863,5.819721886582656,0.20480192334494002,-0.23030160990442727,-0.04426415849550763,-0.35394969415962996,-0.030065164988222766
2018-10-25,1.9711059688392554,0.30274112862600977,1.6255212082704906,1.917396730284955,5.816765036020711,0.18321210858492598,-0.2228443260174429,-0.04940463818044444,-0.3557377209965734,-0.04762270736335235
2018-10-26,1.9789239010941537,0.29996726576242416,1.624453269751988,1.9093753941322,5.812719830740766,0.16138445187514663,-0.21446433432648274,-0.05457810198344322,-0.35743617865020455,-0.06515162779981629
2018-10-27,1.9856723165035461,0.29731418579629376,1.623283448613104,1.901317892718969,5.807587843631913,0.13930656935383595,-0.20512586844887595,-0.05978491862051948,-0.35904772718255634,-0.08265521545894665
2018-10-28,1.9913385707262827,0.2947946854069388,1.622011062075862,1.8932261138570579,5.8013704320661414,0.11696767151552516,-0.1947980128836842,-0.0650266293319206,-0.36057515354104563,-0.10013694143525285
2018-10-29,1.9959096009018726,0.2924218888721513,1.6206353767775121,1.8851018874189749,5.79406875397051,0.09435911892561212,-0.183455438985757,-0.07030581930478802,-0.3620210395396488,-0.11760001796673761
2018-10-30,1.9993720649154452,0.2902091699006371,1.6191555940355231,1.8769469974312856,5.785683826282891,0.07147514697607064,-0.17107886172280046,-0.07562582677405068,-0.3633874281046486,-0.1350467158095955
2018-10-31,2.0017125240729188,0.2881700699245315,1.6175708426990876,1.868763200157459,5.776216636853997,0.04831376199613238,-0.1576553133687909,-0.08099035530589367,-0.36467555637845206,-0.15247750343836192
2018-11-01,2.002917677651188,0.2863182146097827,1.6158801803258505,1.8605522460243522,5.765668318611173,0.02487781210082859,-0.1431782812915194,-0.08640304832855332,-0.36588568444445174,-0.1698900442649197
2018-11-02,2.0029746581433865,0.2846672286736715,1.6140826019260142,1.8523159031982483,5.75404039194132,0.0011762401107082464,-0.12764783883828149,-0.09186710239374082,-0.3670170218217884,-0.1872780979085839
2018-11-03,2.0018713974043103,0.2832306493395436,1.6121770555051949,1.84405598090215,5.741335083151198,-0.022807371315459964,-0.11107075070130273,-0.09738491971942673,-0.3680677389952048,-0.20463029490238288
