date,mercury_dist,venus_dist,mars_dist,jupiter_dist,total,mercury_diff,venus_diff,mars_diff,jupiter_diff,total_diff
2020-12-27,2.6255566925688885,1.6403118954863722,0.7752161309126544,4.797609570300848,9.838694289268762,0.10078025832164789,0.7594688523782739,-0.4013605838517093,0.983216687396035,0.35819623220135427
2020-12-28,2.6293108017604254,1.6498976965878096,0.7672297980497783,4.820026654239827,9.866464950637841,0.07749553647412774,0.7526271644192585,-0.4081497969666458,0.9807747891995917,0.34096101568140486
2020-12-29,2.6319164897079736,1.6593942169469647,0.7591115348093374,4.842384437453567,9.892806678917843,0.05378884179358344,0.7456173056510528,-0.41489223529740216,0.978180310075786,0.3234169438670079
2020-12-30,2.6333522196612282,1.6687993103809107,0.7508622723617755,4.864679500977388,9.917693303381302,0.02963756707190676,0.7384389397801687,-0.4215870852000057,0.9754362470734105,0.3055515546126211
2020-12-31,2.6335954002032116,1.6781108190961231,0.7424829502224182,4.886908483508833,9.941097653030585,0.0050199409765579895,0.7310911552029521,-0.42823392020066314,0.9725451229849795,0.2873525668591941
2021-01-01,2.6326224546147,1.687326567188585,0.7339745093671024,4.9090680667361655,9.962991597906553,-0.020113406132042,0.7235725299778848,-0.4348326656584193,0.9695088187071067,0.2688082067247634
2021-01-02,2.6304089274878075,1.6964443563472165,0.7253378877027798,4.931154957515641,9.983346129053444,-0.04575956827719182,0.7158813048191043,-0.44138347841183345,0.9663284353701344,0.2499076821155655
2021-01-03,2.6269296385133702,1.7054619648633498,0.7165740194079889,4.953165868323736,10.002131491108445,-0.07192627524079499,0.7080156426699378,-0.44788654900531877,0.963004218865542,0.23064182883838635
2021-01-04,2.622158894801577,1.7143771505369902,0.7076838391629702,4.975097497803465,10.019317382305003,-0.09862412344557489,0.699973934658117,-0.45434185179886954,0.9595355639625791,0.21100393828909544
2021-01-05,2.6160707745982053,1.7231876575483045,0.6986682916772844,4.996946513179931,10.034873237003726,-0.12585784413540627,0.6917551114248695,-0.4607488742337057,0.9559210960891704,0.19099077070504006
2021-01-06,2.608639497094692,1.7318912270622258,0.6895283464803447,5.018709536002972,10.048768606640234,-0.15362452358384096,0.6833589362297771,-0.46710634786561833,0.9521588168967743,0.17060376350300108
