name,value,min,max
G,0.010863185046172674,-0.006560334577063398,0.010863185046172674
A,-0.00040211108318666255,-0.008324194995513956,0.015736040609137136
F,0.008957241845529929,-0.004495788754837249,0.015148916709540883
A,-0.0005477015514595562,-0.007578951920685917,0.0101272225459903
