pred_price,direction,date
420.42,-1.0,2020-03-21
424.77,1.0,2020-04-27
424.57,-1.0,2020-05-07
425.85,1.0,2020-05-26
423.94,-1.0,2020-06-21
426.55,1.0,2020-07-20
425.67,-1.0,2020-08-05
426.38,1.0,2020-08-20
423.09,-1.0,2020-09-21
424.25,1.0,2020-10-13
422.71,-1.0,2020-11-03
422.97,1.0,2020-11-14
419.86,-1.0,2020-12-16
421.95,1.0,2021-01-12
421.10,-1.0,2021-01-29
421.32,1.0,2021-02-08
417.31,-1.0,2021-03-17
418.56,1.0,2021-04-09
412.34,-1.0,2021-06-12
414.58,1.0,2021-07-13
414.51,-1.0,2021-07-20
415.05,1.0,2021-08-06
413.50,-1.0,2021-09-01
417.57,1.0,2021-10-09
417.50,-1.0,2021-10-15
418.45,1.0,2021-11-03
416.92,-1.0,2021-11-28
420.78,1.0,2022-01-03
420.54,-1.0,2022-01-13
421.61,1.0,2022-01-30
419.80,-1.0,2022-02-25
