get_type,hash,hash_get,date,size
DUBS,00000000000000000010188b6c2769495dc328e40e5a899e8e42c4bce24027,99,2020-02-15 08:26:17,1092956
DUBS,0000000000000000000b3c07f908000965be44eb75f3ae09e6f584c4e824ba,66,2020-02-15 10:18:18,1172524
DUBS,0000000000000000000af14ec921ccce326d5bf93dcde3c2aa6120a9c25842,ee,2020-02-15 10:32:32,37003
DUBS,0000000000000000000bd44fc753d76b38b8dbecb4c58b6cb7ffd4c8cd68ff,22,2020-02-15 11:26:13,807733
DUBS,00000000000000000007bdc11911d5755ff82d8eb41691f594311e8d40785e,cc,2020-02-15 15:53:15,1319063
DUBS,00000000000000000007dad75e64a3b0753d4f4f799b1f4bab727df2c39b6f,44,2020-02-15 17:27:33,1285304
DUBS,0000000000000000000e387c22b9aebb9248ca3a23cabc19d6d0c77e83b308,99,2020-02-15 21:04:04,1267318
