pred_price,direction,date
55.65,1.0,2021-01-03
54.73,-1.0,2021-01-27
55.98,1.0,2021-02-26
55.94,-1.0,2021-03-10
56.14,1.0,2021-03-30
55.03,-1.0,2021-04-26
56.15,1.0,2021-05-22
55.95,-1.0,2021-06-12
55.99,1.0,2021-06-23
54.65,-1.0,2021-07-23
55.73,1.0,2021-08-17
53.79,-1.0,2021-10-19
54.71,1.0,2021-11-13
54.53,-1.0,2021-12-02
54.64,1.0,2021-12-18
