name,value,min,max
G,0.018196703585275698,-0.011678641811531443,0.018196703585275698
A,0.00882636346116783,-0.01783010296789833,0.017533807013522917
F,-0.0005532642591288273,-0.009621106923229483,0.015228426395939021
A,-0.005412551696083456,-0.010661928031985846,0.016107966913365246
