name,value,min,max
G,0.01061330565448726,-0.018839095849413345,0.013096212814461605
A,-0.0051317139924734745,-0.02691440672177059,0.025974025974026205
F,0.013375870748697505,-0.01266721576869545,0.013978335064549707
A,0.0033611422846251404,-0.01585426305353599,0.0066486551967972485
