name,value,min,max
G,0.011036975257158854,-0.009341008449582189,0.01967053523707718
A,-0.00020598383026926292,-0.0031825881628253505,0.026616996004751092
F,0.013882541133455328,-0.017181358787198175,0.02982237272025179
A,0.008074078865101475,-0.004496431829157155,0.03137420109421685
