date,mercury_dist,venus_dist,mars_dist,jupiter_dist,total,mercury_diff,venus_diff,mars_diff,jupiter_diff,total_diff
2020-05-18,1.1681534109543394,0.3598020258869419,1.6615317403823784,3.761712613407374,6.951199790631033,-0.9053035201948341,-0.17280805190810877,-0.7476387286158134,-0.25033417453848017,-0.9488635723621667
2020-05-19,1.1255595057998913,0.3578933472629058,1.6469647705275687,3.7559515454181245,6.88636916900849,-0.8805307541773233,-0.1475716395070644,-0.7444600532250524,-0.25671709647950447,-0.9281938846352265
2020-05-20,1.0843729195445218,0.3563082281789155,1.6324626009571532,3.7500491438267614,6.823192892507352,-0.8514376816571978,-0.12255526891359907,-0.7411483677029505,-0.2630150176353238,-0.9045082714738257
2020-05-21,1.044786020966579,0.3550428344511429,1.6180278570013447,3.744007409980961,6.761864122400027,-0.8183678283074024,-0.09783534256515589,-0.7377025119663552,-0.26922375738146204,-0.8780571270355432
2020-05-22,1.0069738690581271,0.35409236855885495,1.603663178920002,3.7378284408492264,6.702557857386211,-0.7816790340375616,-0.0734863419405177,-0.7341217230202642,-0.27533905478905074,-0.849100488760993
2020-05-23,0.9710938070587858,0.35345110710475586,1.589371211881105,3.731514429850499,6.645430555895146,-0.7417375311714002,-0.04957985222990477,-0.7304057500300907,-0.2813566119611314,-0.8179038016701754
2020-05-24,0.9372851465472062,0.35311244878389053,1.5751545940576215,3.72506766561401,6.590619855002728,-0.6989160827127725,-0.026183749853668642,-0.7265549504831488,-0.28727218626263984,-0.7847365351070771
2020-05-25,0.9056687774931997,0.3530689704833569,1.5610159432558313,3.718490527717016,6.538244218949404,-0.6535955129384416,-0.0033615738196734095,-0.722570365240089,-0.2930817249878611,-0.7498731906601249
2020-05-26,0.8763465921172662,0.35331248908800134,1.5469578433716502,3.7117854788959996,6.488402403472918,-0.6061685565006646,0.019119812206047696,-0.7184537273251113,-0.29878152250532186,-0.713595939180459
2020-05-27,0.8494006720750436,0.35383412697122557,1.5329828316425043,3.7049550535837805,6.441172684272553,-0.5570447511385866,0.040956289074380495,-0.7142074212685786,-0.3043683839776106,-0.6761979977618129
2020-05-28,0.8248922588639547,0.3546243793527077,1.5190933880672934,3.6980018430766193,6.396611869360575,-0.5066549190593734,0.062046500107788574,-0.7098343723045295,-0.3098397755312313,-0.6379867238736805
