get_type,hash,hash_get,date,size
DUBS,0000000000000000000ca427463b78ecae990c5930b2b78b45fcdad7a793a2,dd,2020-11-08 04:08:06,1213643
DUBS,00000000000000000009d944c31c253364e6908588e5ae8ace70b5f217e23d,99,2020-11-08 06:11:22,1306155
DUBS,00000000000000000009665fa7eddf89268eb035aeae9a51efc52e6683565d,33,2020-11-08 06:31:35,1719978
DUBS,00000000000000000009ef10e6732f3f1101c35d007d3fe0dbe3133627933c,44,2020-11-08 10:48:11,1354494
DUBS,000000000000000000084e5af372a2a3ebd44148955e7e30bd3926a602f85d,77,2020-11-08 11:03:49,1836070
DUBS,00000000000000000005802f812f959af21f54666d1aaa09e2ce2b9f681b1c,55,2020-11-08 11:52:12,1344629
