date,mercury_dist,venus_dist,mars_dist,jupiter_dist,total,mercury_diff,venus_diff,mars_diff,jupiter_diff,total_diff
2019-11-17,1.527231649763168,1.6214231946597595,3.607190259954005,1.9871665599164596,8.743011664293393,0.003980233829905028,0.11781374352282199,0.02776426827003887,0.9220852850425505,0.2856891200979136
2019-11-18,1.5304460001558111,1.6228294709817948,3.6075271078901636,2.00821732923189,8.76901990825966,0.06635337316032108,0.11041349069153894,0.01870936853084001,0.9209968563144679,0.3193225094271517
2019-11-19,1.5367633304351667,1.624139394585859,3.6077005958671493,2.0292411596690934,8.797844480557268,0.13040774097387184,0.10284837723404268,0.009635951860389845,0.9198182475050818,0.3539006620814134
2019-11-20,1.5461942937514632,1.6253508435428385,3.607710377319346,2.0502359117870905,8.829491426400738,0.19468202023642686,0.09511666095688519,0.0005432860773945911,0.918546035541015,0.388553036319908
2019-11-21,1.558680852943659,1.626461677515571,3.6075561131667313,2.0711993584525885,8.86389800207855,0.25775824672521497,0.08721689655602034,-0.0078838289919511,0.9171763837765012,0.4224350594559234
2019-11-22,1.5741025312581707,1.6274697465354826,3.6072374961569365,2.092129180847444,8.900938954798034,0.31834748890576636,0.07914832782319704,-0.016283251660053805,0.9157052808874074,0.45477926111811096
2019-11-23,1.592285884343827,1.6283729057587206,3.6067542778099737,2.113022972225347,8.940436040137868,0.37535634427405984,0.07091135712478289,-0.02469537315479718,0.9141288799090863,0.4849350237614082
2019-11-24,1.6130159779892679,1.6291690364703442,3.606106295478646,2.133878251114502,8.98216956105276,0.42792834360950005,0.06250803596683874,-0.03311580690268415,0.9124439115103479,0.5123934027633171
2019-11-25,1.636048604956772,1.6298560721704516,3.6052934954997022,2.154692484995805,9.025890657622732,0.4754592080362937,0.053942464002222475,-0.041538983166497546,0.9106481423091225,0.5367963438722709
2019-11-26,1.6611221226776347,1.6304320262440106,3.6043159475530424,2.1754631223668746,9.071333218841563,0.5175890225229155,0.04522091337471136,-0.04995859836698526,0.9087407417638008,0.5579320427021105
2019-11-27,1.6879680710806833,1.6308950162582827,3.603173846506186,2.1961876287121482,9.1182245625573,0.5541770543457836,0.03635156393525882,-0.058368254661444435,0.9067224530685124,0.5757198204208325
