pred_price,direction,date
484.91,-1.0,2020-02-10
489.92,1.0,2020-03-11
489.67,-1.0,2020-03-25
490.24,1.0,2020-04-12
485.61,-1.0,2020-05-09
489.35,1.0,2020-06-04
488.63,-1.0,2020-06-23
489.19,1.0,2020-07-10
485.55,-1.0,2020-08-04
491.00,1.0,2020-09-05
490.95,-1.0,2020-09-12
492.23,1.0,2020-10-07
488.65,-1.0,2020-10-31
493.94,1.0,2020-11-30
493.80,-1.0,2020-12-11
495.02,1.0,2021-01-03
491.00,-1.0,2021-01-27
495.54,1.0,2021-02-23
494.89,-1.0,2021-03-13
495.58,1.0,2021-03-31
491.10,-1.0,2021-04-26
495.35,1.0,2021-05-21
494.46,-1.0,2021-06-09
495.14,1.0,2021-06-27
490.96,-1.0,2021-07-22
495.82,1.0,2021-08-18
495.14,-1.0,2021-09-05
495.76,1.0,2021-09-22
490.92,-1.0,2021-10-19
495.50,1.0,2021-11-14
495.13,-1.0,2021-11-28
496.71,1.0,2021-12-22
492.74,-1.0,2022-01-14
