pred_price,direction,date
90.62,-1.0,2018-12-02
91.24,1.0,2018-12-30
89.04,-1.0,2019-02-27
90.09,1.0,2019-04-05
88.27,-1.0,2019-05-24
89.54,1.0,2019-07-05
87.96,-1.0,2019-08-20
89.54,1.0,2019-10-04
88.27,-1.0,2019-11-14
90.24,1.0,2020-01-05
89.34,-1.0,2020-02-09
91.52,1.0,2020-04-06
90.65,-1.0,2020-05-08
92.34,1.0,2020-06-28
91.16,-1.0,2020-08-05
92.28,1.0,2020-09-09
90.44,-1.0,2020-11-03
