date,mercury_dist,venus_dist,mars_dist,jupiter_dist,total,mercury_diff,venus_diff,mars_diff,jupiter_diff,total_diff
2018-09-12,0.7166719230319333,0.4342133057927158,1.5910643183907043,2.2008702124774397,4.942819759692793,0.937521240216002,-0.1880596567763921,0.12028057468633632,-0.20616493036639133,0.49752220760802757
2018-09-13,0.7623882626541947,0.43175544594416826,1.593192647592225,2.1961331773428383,4.983469533533427,0.9437158280636229,-0.1900322049826039,0.11824373672296375,-0.21108549802667873,0.4990874357866339
2018-09-14,0.8081398539461739,0.4292695244823909,1.5952818891146472,2.191287132594496,5.0239784001377075,0.9444435232149252,-0.19220182024385804,0.1160721397570846,-0.21594304034004425,0.49735741309202364
2018-09-15,0.8537121668829789,0.4267532192883054,1.5973297369699437,2.1863335567766002,5.064128679917828,0.9407427058965413,-0.19455097275942435,0.11377242885046474,-0.2207346977217164,0.49295477657850606
2018-09-16,0.8989319544402369,0.4242044315877007,1.5993339990794635,2.1812739692669214,5.103744354374323,0.9334655751546339,-0.1970623943691006,0.11135093247442376,-0.22545865059959655,0.4863910303403994
2018-09-17,0.9436598191994702,0.4216212805410955,1.6012925868538,2.1761099136113127,5.142683600205679,0.9233108835385279,-0.1997192352035861,0.10881340018827441,-0.23011382202749284,0.4780860141959913
2018-09-18,0.9877840990930568,0.4190020986174981,1.6032035040794694,2.1708429471832633,5.180832648973288,0.9108511679095651,-0.2025050030765283,0.10616496412773162,-0.23469959583657116,0.4683841785140085
2018-09-19,1.031215837009695,0.4163454296789025,1.6050648374734686,2.1654746353331924,5.2181007394952585,0.8965551234177119,-0.20540335390094122,0.10341023166738163,-0.23921561656943083,0.45756800045666646
2018-09-20,1.0738846376289533,0.41365002977039494,1.6068747497358817,2.160006548054683,5.254415965189914,0.8808059184440229,-0.20839788250183996,0.1005534242050228,-0.24366167732353183,0.4458689719410211
2018-09-21,1.1157352516082155,0.41091487044809616,1.6086314747636417,2.1544402573716694,5.289721854191622,0.8639162092316448,-0.2114719264006539,0.09759849722903541,-0.24803768762505685,0.43347659642860564
2018-09-22,1.156724757147008,0.4081391437435972,1.6103333142963598,2.1487773340481056,5.3239745492350705,0.8461404714611883,-0.21460843928784015,0.09454921987993566,-0.2523437036195745,0.42054575272760303
