date,mercury_dist,venus_dist,mars_dist,jupiter_dist,total,mercury_diff,venus_diff,mars_diff,jupiter_diff,total_diff
2020-01-23,2.627233848547811,1.441567001343834,3.2816195291711927,3.236875217982315,10.587295597045152,-0.24786208095096848,-0.550114091070371,-0.4932851542625711,0.6527736532964845,-0.22285755925823775
2020-01-24,2.61378091462444,1.4343226579269504,3.271839710707088,3.2516438555648763,10.571587138823354,-0.27810838218497047,-0.5601045779624696,-0.499807732622924,0.646145923779454,-0.2529986867290865
2020-01-25,2.5988421454531707,1.4269499057245787,3.261933570076524,3.266259426820235,10.553985048074509,-0.30882459913363797,-0.5700326479701429,-0.5062635575269819,0.6394490851010619,-0.2834973222874424
2020-01-26,2.582398943050349,1.41944964329631,3.2519024631061137,3.2807204338619287,10.534471483314702,-0.33992528650158366,-0.579891244830078,-0.5126500915104368,0.6326867120613396,-0.31428331080788385
2020-01-27,2.564438235519858,1.4118228618379878,3.2417477804192907,3.2950254616806722,10.513034339457807,-0.3712962051738531,-0.5896732062659694,-0.5189655562457127,0.6258624306379431,-0.3452642625035441
2020-01-28,2.5449541281973445,1.4040706437274246,3.2314709341339216,3.3091731757834677,10.489668881842158,-0.4027889824366795,-0.5993714824411032,-0.5252088532376187,0.6189797635167411,-0.3763214701351172
2020-01-29,2.523949832366079,1.396194159089624,3.221073346919017,3.3231623176494707,10.46437965602419,-0.4342153738241155,-0.6089792890824826,-0.5313794432590354,0.612042034572194,-0.4073054675386648
2020-01-30,2.5014398787408503,1.3881946616710459,3.2105564438096095,3.3369916992939004,10.437182683515406,-0.4653413761956846,-0.6184901609029534,-0.5374772053919831,0.6050523298431972,-0.43803142425405045
2020-01-31,2.4774526036517814,1.380073485017838,3.1999216464487605,3.350660198192759,10.40810793331114,-0.49588159029440254,-0.6278979280996633,-0.5435023129866083,0.5980135133189222,-0.46827470365283874
2020-02-01,2.4520328680315653,1.3718320400055024,3.1891703688899664,3.364166753535221,10.377202030462255,-0.5254944080730671,-0.6371966118664305,-0.5494551539155206,0.5909282850259792,-0.4977670451511251
2020-02-02,2.4252449316302247,1.3634718140433477,3.17830401376083,3.377510364086253,10.344531123520657,-0.553778803723126,-0.6463802949057178,-0.5553363121107993,0.5837992514780503,-0.5261940054054769
