name,value,min,max
G,0.01876980856324706,-0.023039647933469798,0.01876980856324706
A,0.006791260858120651,-0.020708390999025994,0.00899405749772475
F,0.012058311836342872,-0.010794370229007644,0.012058311836342872
A,0.018862838691562578,-0.029951738618998913,0.018862838691562578
