get_type,hash,hash_get,date,size
DUBS,00000000000000000011001b34e5c7a25934b4f15bd07c809398cb63f9c4db,55,2020-05-18 00:15:19,1147999
DUBS,0000000000000000000831688bdb5eebfdb8a2b34e08d6f88fd8e45332a36a,00,2020-05-18 01:24:45,1240612
DUBS,0000000000000000000449edda1543f4f518b1368b919ac28f385faad30c35,44,2020-05-18 06:00:32,1428884
DUBS,00000000000000000003e77ada0237102d30e0c9d1c796dd21ca552f8e419f,bb,2020-05-18 06:29:26,1238151
TRIPS,0000000000000000000b49d7b90d9997e1b37ed85dbe906dc53c7ef8e7ad8,777,2020-05-18 07:29:03,1525184
DUBS,00000000000000000005ffe1bd93e9980c86b4dbc386d833e996a7e6c92ab5,66,2020-05-18 14:33:20,1375193
