get_type,hash,hash_get,date,size
DUBS,00000000000000000011b339d4f262da6caec1c261fe55f20ffe182e7b1ebb,66,2020-01-08 01:28:43,278365
DUBS,0000000000000000001099b2506403c54e5d81dc5eb8c7dcf1efdedb31d657,dd,2020-01-08 02:44:45,1530350
