pred_price,direction,date
13.73,1.0,2018-11-01
13.05,-1.0,2018-11-28
14.31,1.0,2019-01-28
13.55,-1.0,2019-02-24
14.47,1.0,2019-03-26
14.41,-1.0,2019-04-13
14.41,1.0,2019-04-21
13.35,-1.0,2019-05-25
13.93,1.0,2019-06-18
13.80,-1.0,2019-07-08
13.88,1.0,2019-07-24
13.29,-1.0,2019-08-18
14.27,1.0,2019-09-21
14.27,-1.0,2019-09-27
14.45,1.0,2019-10-21
13.82,-1.0,2019-11-15
14.66,1.0,2019-12-13
14.59,-1.0,2019-12-29
14.68,1.0,2020-01-14
13.75,-1.0,2020-02-12
14.40,1.0,2020-03-08
12.60,-1.0,2020-05-11
13.25,1.0,2020-06-06
12.13,-1.0,2020-08-04
