pred_price,direction,date
19.44,-1.0,2020-06-23
19.69,1.0,2020-07-17
19.46,-1.0,2020-08-04
19.83,1.0,2020-08-26
19.66,-1.0,2020-09-16
20.07,1.0,2020-10-15
19.93,-1.0,2020-10-30
20.35,1.0,2020-11-22
20.21,-1.0,2020-12-10
20.86,1.0,2021-01-13
20.77,-1.0,2021-01-26
21.12,1.0,2021-02-16
20.83,-1.0,2021-03-11
21.36,1.0,2021-04-09
21.17,-1.0,2021-04-25
21.39,1.0,2021-05-12
20.93,-1.0,2021-06-09
21.37,1.0,2021-07-06
21.19,-1.0,2021-07-22
21.47,1.0,2021-08-09
21.05,-1.0,2021-09-04
21.50,1.0,2021-10-02
21.27,-1.0,2021-10-19
21.42,1.0,2021-11-03
20.91,-1.0,2021-12-01
21.40,1.0,2021-12-29
21.13,-1.0,2022-01-16
21.27,1.0,2022-01-30
20.66,-1.0,2022-03-02
20.91,1.0,2022-03-24
20.50,-1.0,2022-04-14
20.65,1.0,2022-04-28
20.05,-1.0,2022-05-29
