name,value,min,max
G,0.00617168171628113,-0.008475026567481336,0.023100932747795122
A,0.002992606501584394,-0.005750836218531674,0.008617128017470277
F,-0.0012923076923077037,-0.00920337058507159,0.00570982089193417
A,0.012208091047607228,-0.016198269293904,0.029547454431175346
