date,mercury_dist,venus_dist,mars_dist,jupiter_dist,total,mercury_diff,venus_diff,mars_diff,jupiter_diff,total_diff
2018-11-16,1.882189904858294,0.2894838902825569,1.577152693251183,1.7354979749162864,5.484324463308321,-0.3215581458336553,0.1860293903226711,-0.1731355869861172,-0.3728270591657822,-0.4016788422625963
2018-11-17,1.865886663299257,0.2921939785692777,1.5736476264267214,1.7271402637451123,5.458868532040368,-0.3370319188498901,0.21278201384065693,-0.17913006347263793,-0.37242527758427924,-0.40999040703566764
2018-11-18,1.8489703875885122,0.29524576890753995,1.5700251710154007,1.7187941111310485,5.433035438642501,-0.3497049860876196,0.23961067880213946,-0.1851293285560522,-0.37191022044098704,-0.4160649384890366
2018-11-19,1.831602697509793,0.2986389760792477,1.5662852971963765,1.710462052328878,5.406989023114296,-0.3590369370425188,0.2664169499245981,-0.19113011766455026,-0.37128219062527684,-0.4195006810720414
2018-11-20,1.8139731773330738,0.30237210997657216,1.562428037280075,1.7021466077358065,5.3809199323255275,-0.3644496704564249,0.29310622554317733,-0.19712925551532057,-0.3705418502008729,-0.4198658863049523
2018-11-21,1.7963003846951273,0.3064425360352917,1.5584534805694583,1.6938502708665288,5.355046672166406,-0.36534422879244705,0.31958864890406347,-0.20312382944588145,-0.36969039707068074,-0.41671185989304393
2018-11-22,1.7788316717122625,0.3108465426945287,1.5543617625222466,1.685575492235818,5.329615469164855,-0.3611253525952594,0.3457796598405256,-0.20911148066963411,-0.36872974734038816,-0.40959213631830194
2018-11-23,1.7618414208710558,0.31557941250646104,1.5501530468004407,1.6773246608012733,5.304898540979231,-0.35123425130009095,0.3716002813499329,-0.21509076777763478,-0.36766264403938514,-0.39808810531528677
2018-11-24,1.745627323066314,0.3206354963265717,1.5458275005244273,1.6691000861484868,5.2811904060658,-0.33518907732326614,0.396977361461558,-0.22106151402552462,-0.366492624038158,-0.38184059270504883
2018-11-25,1.7305044225525754,0.3260082928629672,1.541385265682759,1.6609039862091741,5.258801967307475,-0.3126310899746228,0.42184399400273614,-0.22702500380164659,-0.3652237714955886,-0.36058571272836026
2018-11-26,1.716796834420944,0.3316905378940951,1.5368264322110556,1.6527384847894213,5.238052289315516,-0.28337277062835725,0.44614027771118847,-0.23298389732493313,-0.36386028071355925,-0.33419201349322786
