pred_price,direction,date
141.70,1.0,2020-04-11
140.75,-1.0,2020-05-09
141.54,1.0,2020-06-04
139.71,-1.0,2020-08-07
140.11,1.0,2020-08-26
138.06,-1.0,2020-11-02
138.73,1.0,2020-12-01
138.72,-1.0,2020-12-10
138.86,1.0,2021-01-01
138.19,-1.0,2021-01-26
139.92,1.0,2021-03-29
