name,value,min,max
G,-0.0038483088083512973,-0.004269861100903882,0.010268251575876075
A,-0.002071280622812588,-0.002389358439428002,0.017117935671452145
F,0.0011161797534697815,-0.02724216355186393,0.020716769998487816
A,-0.0032249425313009006,-0.0037025454301766736,0.012124055369345577
