pred_price,direction,date
140.49,-1.0,2020-02-11
142.76,1.0,2020-04-10
141.03,-1.0,2020-05-09
143.13,1.0,2020-06-10
143.09,-1.0,2020-06-22
143.14,1.0,2020-07-04
141.03,-1.0,2020-08-05
142.87,1.0,2020-09-03
139.99,-1.0,2020-11-01
141.86,1.0,2020-12-02
