get_type,hash,hash_get,date,size
DUBS,0000000000000000000b1b1a9a1f04532cb7872e18ecb8683898c5946ce9da,00,2020-05-13 00:00:30,1183362
DUBS,00000000000000000010ebc121c548694e45b0b3f33405611ed88c3d6a84b4,77,2020-05-13 05:06:21,1377135
DUBS,0000000000000000000ad81748b5d1915c39388cc799242b397e448eae6bfc,ee,2020-05-13 07:23:45,1172190
DUBS,0000000000000000000f420c6581383e41a22d415ecf8f9d4e5017167158fd,ee,2020-05-13 08:19:07,1313807
DUBS,00000000000000000004f1e8153d01d836c5bce2bd89acf59db6ed88398a52,ee,2020-05-13 10:43:13,1293087
DUBS,00000000000000000001ec86dfa0fa8d5bddea8115c67960649245c624792f,33,2020-05-13 11:09:28,1771098
DUBS,0000000000000000000c9d005656bb2fbf9f12c5483207902df18225b49b43,00,2020-05-13 11:29:13,1365375
DUBS,0000000000000000000ee0b9277b2718d1a6bf52be9a75a890c77a34ef1087,11,2020-05-13 13:34:33,1207341
DUBS,000000000000000000078a442913b0038c80f77922f49e9ff27fac7ed9805e,cc,2020-05-13 14:14:33,1323622
DUBS,0000000000000000000a1db8730fe08a0f4679b94346d8ca284eaf912b096a,66,2020-05-13 15:03:21,1379222
DUBS,00000000000000000005db443dc69fd766f8481fd12c1af552f1cd26351709,ee,2020-05-13 17:13:03,1290018
DUBS,0000000000000000000bd5570fb38fe19dbac3fe7f5c5e4cb081c1a335a90a,44,2020-05-13 19:20:37,1233381
DUBS,00000000000000000004b7c9a9d0aa7d0a7a7e21456ccf61155972daadacd0,cc,2020-05-13 21:21:01,1340439
