pred_price,direction,date
13.13,-1.0,2020-05-10
13.49,1.0,2020-05-30
13.19,-1.0,2020-06-23
13.39,1.0,2020-07-14
13.01,-1.0,2020-08-04
13.71,1.0,2020-08-31
13.66,-1.0,2020-09-13
14.01,1.0,2020-10-11
13.59,-1.0,2020-10-31
14.35,1.0,2020-11-28
14.30,-1.0,2020-12-10
14.64,1.0,2021-01-06
14.13,-1.0,2021-01-27
14.72,1.0,2021-02-20
14.51,-1.0,2021-03-13
14.68,1.0,2021-04-02
