name,value,min,max
G,0.006306254658029031,-0.04827295854383884,0.014692179543893014
A,0.006587928066947413,-0.043988745806730845,0.03494232276850706
F,0.03223693785475201,-0.022397051527393796,0.03223693785475201
A,0.007304512224316051,-0.05865625493692017,0.04862824449611569
