pred_price,direction,date
137.48,1.0,2020-12-30
136.81,-1.0,2021-01-25
139.22,1.0,2021-03-27
138.25,-1.0,2021-04-25
139.50,1.0,2021-05-28
137.48,-1.0,2021-07-25
138.12,1.0,2021-08-17
135.15,-1.0,2021-10-22
135.69,1.0,2021-11-15
