pred_price,direction,date
697.70,-1.0,2019-11-13
705.87,1.0,2020-01-16
704.29,-1.0,2020-02-08
712.75,1.0,2020-04-10
709.65,-1.0,2020-05-08
715.75,1.0,2020-07-04
712.02,-1.0,2020-08-04
717.29,1.0,2020-09-11
