pred_price,direction,date
1.67,-1.0,2020-05-11
1.78,1.0,2020-05-26
1.42,-1.0,2020-06-24
1.60,1.0,2020-07-17
1.41,-1.0,2020-08-04
1.68,1.0,2020-08-25
1.47,-1.0,2020-09-18
1.71,1.0,2020-10-13
1.53,-1.0,2020-10-31
1.76,1.0,2020-11-20
1.61,-1.0,2020-12-11
2.03,1.0,2021-01-11
1.85,-1.0,2021-01-27
2.13,1.0,2021-02-17
1.91,-1.0,2021-03-12
2.15,1.0,2021-04-05
