name,value,min,max
G,0.005045726900031466,-0.03454535490676924,0.020753212972156376
A,-0.007567849686847539,-0.0419461586620159,0.03751617076326008
F,0.019352075383537226,-0.02249263984298333,0.026596816441668336
A,-0.009190151383878686,-0.04126890785844628,0.056923393920560006
