date,mercury_dist,venus_dist,mars_dist,jupiter_dist,total,mercury_diff,venus_diff,mars_diff,jupiter_diff,total_diff
2018-11-10,1.961072723832569,0.28025486054891724,1.5957277887650536,1.785744663305807,5.622800036452347,-0.19378627771455476,0.032723982795882206,-0.13746214830668735,-0.3728650890191104,-0.3223522727043947
2018-11-11,1.9505486925833684,0.28097999280089364,1.5929227621993116,1.7773709361619845,5.601822383745558,-0.21756007436375027,0.056933606787786716,-0.14335378237502777,-0.37313896018674936,-0.3378637489776984
2018-11-12,1.9389048987193798,0.28202185112357697,1.590001921166991,1.7689935540938355,5.579922225103783,-0.24070858390105784,0.08180128784861465,-0.1492726004142476,-0.3733018260933327,-0.35272152730042916
2018-11-13,1.9261831951152109,0.2833877110724988,1.5869648218579793,1.7606150328370318,5.55715076088272,-0.26299188178169175,0.10724020762716543,-0.15521409982804676,-0.3733525891123308,-0.3667546783701969
2018-11-14,1.9124391943419972,0.2850836598769065,1.5838111002785815,1.7522379028019546,5.533571857299441,-0.2841255180141127,0.13315706493428003,-0.16117420151592154,-0.37329059532873904,-0.37975920722782547
2018-11-15,1.897744633753681,0.28711453554904626,1.5805404651880328,1.7438647025925536,5.509264337083313,-0.30377614990259205,0.1594537777589445,-0.16714918736415732,-0.3731154796315889,-0.39149422594427635
2018-11-16,1.882189904858294,0.2894838902825569,1.577152693251183,1.7354979749162864,5.484324463308321,-0.3215581458336553,0.1860293903226711,-0.1731355869861172,-0.3728270591657822,-0.4016788422625963
2018-11-17,1.865886663299257,0.2921939785692777,1.5736476264267214,1.7271402637451123,5.458868532040368,-0.3370319188498901,0.21278201384065693,-0.17913006347263793,-0.37242527758427924,-0.40999040703566764
2018-11-18,1.8489703875885122,0.29524576890753995,1.5700251710154007,1.7187941111310485,5.433035438642501,-0.3497049860876196,0.23961067880213946,-0.1851293285560522,-0.37191022044098704,-0.4160649384890366
2018-11-19,1.831602697509793,0.2986389760792477,1.5662852971963765,1.710462052328878,5.406989023114296,-0.3590369370425188,0.2664169499245981,-0.19113011766455026,-0.37128219062527684,-0.4195006810720414
2018-11-20,1.8139731773330738,0.30237210997657216,1.562428037280075,1.7021466077358065,5.3809199323255275,-0.3644496704564249,0.29310622554317733,-0.19712925551532057,-0.3705418502008729,-0.4198658863049523
