get_type,hash,hash_get,date,size
DUBS,00000000000000000002f2340d0ccc2968a7422a44db036a3d14b949e0a45d,44,2020-03-13 05:14:39,1213504
DUBS,0000000000000000000a54ec342da34a6faed809f5ec81b8df15122f83a28e,bb,2020-03-13 07:50:54,1264883
DUBS,000000000000000000052616be99528af14e3a364cde6c753a01125aae4e57,66,2020-03-13 08:26:30,1185211
DUBS,0000000000000000000e308da042a42e507310af60ae93f7277eec2b41b48f,aa,2020-03-13 08:45:14,1281919
DUBS,0000000000000000000b5b743f48191a30aee2fac3d8e08da585ea98490d0c,66,2020-03-13 10:31:25,1321096
DUBS,0000000000000000000d2d89f04d7fa67274ff9c3e7619d2e5b066413667c2,44,2020-03-13 11:11:00,1339526
DUBS,000000000000000000045eab7846e5cf400cf0f83355da61acae2d63448651,dd,2020-03-13 21:19:37,1403632
DUBS,00000000000000000001471e866fe6cd4b3f53d428adb7ab4a1c9b74258f8c,77,2020-03-13 22:04:47,1238252
DUBS,000000000000000000056eb381391145afecb3429b83af4097ca503bd1346a,ff,2020-03-13 22:25:28,1287456
