pred_price,direction,date
115.06,-1.0,2018-10-11
115.59,1.0,2018-11-10
115.34,-1.0,2018-11-26
117.21,1.0,2019-02-05
116.78,-1.0,2019-02-23
117.89,1.0,2019-03-27
117.88,-1.0,2019-04-04
118.14,1.0,2019-04-29
117.27,-1.0,2019-05-24
118.12,1.0,2019-06-19
117.99,-1.0,2019-07-06
118.15,1.0,2019-07-25
117.34,-1.0,2019-08-19
118.36,1.0,2019-09-16
118.27,-1.0,2019-10-02
118.41,1.0,2019-10-20
117.53,-1.0,2019-11-15
118.35,1.0,2019-12-10
118.06,-1.0,2020-01-03
118.10,1.0,2020-01-14
117.04,-1.0,2020-02-13
117.46,1.0,2020-03-02
115.62,-1.0,2020-05-11
115.90,1.0,2020-05-28
115.33,-1.0,2020-06-27
115.42,1.0,2020-07-12
114.83,-1.0,2020-08-04
115.53,1.0,2020-08-29
115.42,-1.0,2020-09-14
