name,value,min,max
G,0.019590386696087148,-0.009706444387262314,0.019590386696087148
A,0.01902217905131942,-0.012376823019314087,0.01902217905131942
F,0.013219236903447396,-0.012081141998497302,0.015534395409876112
A,0.006027593261395348,-0.014526946589197731,0.006027593261395348
