pred_price,direction,date
400.85,-1.0,2018-10-20
401.66,1.0,2018-11-10
400.04,-1.0,2018-12-04
400.05,1.0,2018-12-08
396.40,-1.0,2019-01-16
397.33,1.0,2019-02-07
396.54,-1.0,2019-02-26
397.06,1.0,2019-03-13
395.98,-1.0,2019-04-07
398.11,1.0,2019-05-07
397.41,-1.0,2019-05-24
398.13,1.0,2019-06-10
396.37,-1.0,2019-07-10
396.87,1.0,2019-07-29
395.12,-1.0,2019-08-24
395.20,1.0,2019-08-31
392.13,-1.0,2019-10-10
392.51,1.0,2019-10-27
391.88,-1.0,2019-11-15
392.68,1.0,2019-12-05
392.35,-1.0,2019-12-21
399.97,1.0,2020-03-07
399.85,-1.0,2020-03-18
403.82,1.0,2020-04-26
403.46,-1.0,2020-05-08
404.47,1.0,2020-05-25
402.18,-1.0,2020-06-23
404.11,1.0,2020-07-20
403.19,-1.0,2020-08-06
403.64,1.0,2020-08-19
400.34,-1.0,2020-09-22
