pred_price,direction,date
144.26,1.0,2019-10-26
143.49,-1.0,2019-11-14
144.99,1.0,2019-12-10
144.62,-1.0,2020-01-01
144.73,1.0,2020-01-15
143.03,-1.0,2020-02-12
143.99,1.0,2020-03-05
143.55,-1.0,2020-03-27
143.80,1.0,2020-04-14
142.51,-1.0,2020-05-09
143.83,1.0,2020-06-03
143.54,-1.0,2020-06-22
143.81,1.0,2020-07-11
142.48,-1.0,2020-08-05
