get_type,hash,hash_get,date,size
DUBS,0000000000000000000af87bec9e207a3a98831e14e06c1dd66615777a76a9,cc,2021-02-06 01:36:01,1204268
DUBS,00000000000000000003704466683f49bf7a2386e2e0d2c7703f707ac9aa45,33,2021-02-06 05:25:10,1378032
DUBS,0000000000000000000120140f39de8cb52b28161265a545b50322108bec86,33,2021-02-06 07:40:47,1230855
DUBS,00000000000000000005537ede4fef8bcc9c92407f0e103cb46052a9304a83,ee,2021-02-06 10:16:07,1308510
DUBS,000000000000000000001162454adc58d648e9cb7a495b7d084a5b4bb1f56b,99,2021-02-06 15:05:42,1200273
DUBS,00000000000000000007f6a2aa2b1b1244499ef8505cfa44889c76e82858c4,bb,2021-02-06 16:11:41,1230484
DUBS,00000000000000000000a027b1837c4860f63655f51251015f69a63e8e5ac9,77,2021-02-06 16:17:34,1356636
DUBS,00000000000000000004b719a3889643a78f08a2e2cb098b3875403002db24,ee,2021-02-06 17:19:37,1164245
DUBS,0000000000000000000cde8931efc9c4e7845bacebf9aa54f57181f4be8f25,11,2021-02-06 21:10:34,1341655
DUBS,000000000000000000011807512fdaf4906e349b63384dc94c0b81edb3b2a0,dd,2021-02-06 22:51:40,1096377
