get_type,hash,hash_get,date,size
DUBS,000000000000000000128dbf6cd5d21250e5e585f465a1c580bbee9a3109d6,bb,2019-07-06 21:16:47,1201116
DUBS,0000000000000000000d90a7995ac60db97c4770f6377b3ecc9bd9ca866ff2,bb,2019-07-06 20:35:28,1264144
DUBS,00000000000000000021e5df730ec40ed4e77115dc691089fe98e086b6783c,ee,2019-07-06 19:19:32,720574
DUBS,00000000000000000020e6ba79d63a2d3b370257fc0e4e4b1335d60e01b89f,aa,2019-07-06 17:53:23,304724
DUBS,0000000000000000001532accfd9e302607d938e8cfbe36b97037c1aa20f9f,bb,2019-07-06 17:09:10,409050
DUBS,0000000000000000000088cee1ceed041f6a71a644bcd8e8d39643d49bd9c2,dd,2019-07-06 16:52:13,1220840
DUBS,0000000000000000000f9ff3129a6a83500b3b724ee45e58c20ed179ee2e2d,cc,2019-07-06 16:05:30,1235560
TRIPS,00000000000000000021696aa1c5578d228782a15c72782083bda62c86c33,000,2019-07-06 12:19:32,847688
DUBS,0000000000000000000150be086a80a8a82e5ebe567335572aa5cefd15dc07,cc,2019-07-06 12:02:19,820402
DUBS,000000000000000000078e16f8b5aaee22538147d535b48099de21627d3da3,aa,2019-07-06 09:58:44,1143920
DUBS,0000000000000000001037f678c795caae2cd91f2141dc5cfc3cb9544d5b93,dd,2019-07-06 09:23:26,988300
DUBS,0000000000000000001f4c72fbce4aa50fac699192f0ef685cafd92f6f80bd,ff,2019-07-06 08:19:58,1190627
DUBS,000000000000000000164b1f2ff4661a1b7ad4f0bcab548b96c41f4bdd75aa,ff,2019-07-06 07:36:54,1158452
DUBS,000000000000000000167a20ebcf61ae07e4cde4e3e01324f266b9a8464bbf,ee,2019-07-06 05:56:25,184798
