get_type,hash,hash_get,date,size
DUBS,0000000000000000000ae3eb357ec3bb16f5b4b9d26f102e0b2009f9b4b26c,33,2021-04-20 03:20:22,1284555
DUBS,00000000000000000002d619fcb7958f9c8d3690fea4b9e316acc2436e6653,11,2021-04-20 12:02:54,1252362
DUBS,00000000000000000007c9606e0a95d750ecd01aec78743c840b2e97c99acc,11,2021-04-20 21:56:42,1559640
DUBS,0000000000000000000b0cbd71cfd70e14b05a8776ffdbf2f41fbf67e026d9,ff,2021-04-20 22:09:59,1401791
DUBS,0000000000000000000af8bf38cdc084319bdaeed636400014df5e85877bed,44,2021-04-20 23:25:47,1400999
