get_type,hash,hash_get,date,size
DUBS,000000000000000000162e8172fdbacc143d8750840a10b0ab6fd852115a13,77,2019-01-26 21:17:04,1206185
DUBS,000000000000000000133a54692a3eabe9fd88155833bc2e30d11b75475597,dd,2019-01-26 18:20:05,1325242
DUBS,00000000000000000007d5b21ef2b42c2df93e449cb77aac03742929ab2ade,bb,2019-01-26 17:23:37,1226884
DUBS,00000000000000000001bd9680cb949e6500956982f628c131e067ce8a6239,ee,2019-01-26 15:10:56,486348
DUBS,00000000000000000007bfbf82bf40e732681015b90cefa2f5fddfdf315b1f,33,2019-01-26 14:21:16,1065366
DUBS,000000000000000000150277a966c9dfb1c2024e65cff6dba1794b1a739d17,00,2019-01-26 14:18:31,1107735
DUBS,0000000000000000002593e1504eb5c5813cac4657d78a04d81ff4e2250d33,77,2019-01-26 12:12:29,1177359
DUBS,00000000000000000017e4576f60568af86b39ddd76dc4b182ea0bd645f5c4,99,2019-01-26 10:27:27,1051988
DUBS,00000000000000000016c6702e2c46b60dd4e0bbc6a0189629d4e7a2c0baa1,66,2019-01-26 05:31:44,1116731
DUBS,00000000000000000000370886b9525b177d1a002cfea67980d9dd4adc4ecf,22,2019-01-26 04:11:40,1263157
DUBS,0000000000000000001294e7cb013821b59f4a165e24660df8296a2f6717e7,cc,2019-01-26 03:38:04,1151154
