date,mercury_dist,venus_dist,mars_dist,jupiter_dist,total,mercury_diff,venus_diff,mars_diff,jupiter_diff,total_diff
2020-10-20,1.468233945001735,0.9247408966488236,1.0032302511182394,3.376677288729982,6.77288238149878,-0.27807139741719256,0.7067847208153262,0.043508507406078194,0.6746202510071972,0.1443074820700502
2020-10-21,1.4543687303613873,0.9338546027889744,1.0039203710443698,3.3923680707070853,6.784511774901817,-0.2866313352588499,0.715560727478844,0.038330969676844566,0.6864908668701253,0.1427826919121539
2020-10-22,1.4402703811184463,0.9430778259968715,1.0045153489750955,3.4083251712859712,6.796188727376384,-0.29145085548768784,0.7241594370995915,0.033046547647036864,0.6981426308209706,0.1433666099225491
2020-10-23,1.426149923241508,0.9524082056968743,1.005013409157791,3.4245435549016556,6.808115092997829,-0.291907900506303,0.7325728066186529,0.02766349591901498,0.7095740826563227,0.1464288401933206
2020-10-24,1.4122494642733063,0.9618432718602388,1.0054128955489179,3.441018178501326,6.820523810183789,-0.28735993045301894,0.7407922423485578,0.0221884634319422,0.7207848947745402,0.15235102825959834
2020-10-25,1.398841823340664,0.9713804462747083,1.0057122459223977,3.4577440050834887,6.833678520621259,-0.2771720541571129,0.7488092502835062,0.016626661039836215,0.7317753319282364,0.1615101409413522
2020-10-26,1.3862283183741022,0.9810170485577303,1.0059099714587558,3.474716009418649,6.847871347809237,-0.26075512457909517,0.7566158085441038,0.010982165927270885,0.7425459091566967,0.17425587057828773
2020-10-27,1.3747342391702302,0.9907503039238307,1.0060046416496182,3.491929179917133,6.863418364660812,-0.23761357867404706,0.764204505104765,0.005258216837173135,0.753097223218773,0.19088226189784654
2020-10-28,1.364701634991803,1.0005773508154676,1.0059948731455397,3.509378519197123,6.880652378149933,-0.20740095313187001,0.7715685270747764,-0.0004992294992924802,0.7634298957254813,0.2115947713820209
2020-10-29,1.356479261380941,1.010495247520584,1.0058793209754646,3.527059044546153,6.899912874423142,-0.1699786110934228,0.7787015811391639,-0.005905413105736282,0.7735445684788973,0.23647540418873195
2020-10-30,1.350409870979519,1.0205009776126546,1.0056566708814692,3.544965788504988,6.921533307978631,-0.12547064867675617,0.7855978011071361,-0.011378763222013881,0.7834419088264846,0.2654501052956485
