pred_price,direction,date
354.63,-1.0,2019-02-26
357.35,1.0,2019-03-21
356.13,-1.0,2019-04-15
356.20,1.0,2019-04-23
351.48,-1.0,2019-05-24
354.51,1.0,2019-06-18
353.77,-1.0,2019-07-08
354.20,1.0,2019-07-24
350.75,-1.0,2019-08-19
355.24,1.0,2019-09-19
355.19,-1.0,2019-09-26
356.72,1.0,2019-10-24
354.47,-1.0,2019-11-13
364.05,1.0,2020-01-20
