name,value,min,max
G,0.011939330513096369,-0.020240953554812924,0.017726674743390625
A,-0.005911998449312006,-0.012074114511415934,0.023801663805625095
F,0.019679899424592584,-0.023798191337458308,0.019679899424592584
A,0.008761537978525302,-0.021606475716064888,0.012350763360382544
