pred_price,direction,date
297.38,1.0,2020-02-16
292.85,-1.0,2020-03-23
302.15,1.0,2020-05-18
297.77,-1.0,2020-06-20
304.99,1.0,2020-08-12
298.65,-1.0,2020-09-19
303.42,1.0,2020-10-24
294.89,-1.0,2020-12-17
299.73,1.0,2021-01-19
