name,value,min,max
G,0.03261059286697843,-0.0043109149427088544,0.03261059286697843
A,0.0069586573884568015,-0.019993471519503814,0.018765638031693177
F,0.01402234067836905,-0.029212400646870584,0.027559889760440992
A,0.021628400041369344,-0.016073306772908302,0.021628400041369344
