name,value,min,max
G,-0.012233338360732815,-0.0750192871470452,0.01975122373575866
A,-0.026957022256331453,-0.026957022256331453,0.04908556336273495
F,-0.02047658345368264,-0.02047658345368264,0.017181053840931604
A,-0.015149573197303257,-0.015149573197303257,0.03242810997359036
