get_type,hash,hash_get,date,size
DUBS,00000000000000000020123b288b24ef91c4d80a9cd8adec92a1bb7ab30b8f,ee,2018-09-26 21:32:34,1274595
DUBS,000000000000000000230c5f921547504b6080b61de9d18ae090fdc1df5989,cc,2018-09-26 13:27:55,1107985
DUBS,000000000000000000029b40f4bf5afaf9c7d4e29a033318813d5534365cdb,22,2018-09-26 07:11:26,497631
DUBS,0000000000000000002688279b4b7ff61bfcb96d4826acd24c7700896413d4,cc,2018-09-26 07:04:24,575574
DUBS,0000000000000000002753cb506dd1ee79d766785513be387ddb311233cd66,77,2018-09-26 06:42:09,514303
