date,mercury_dist,venus_dist,mars_dist,jupiter_dist,total,mercury_diff,venus_diff,mars_diff,jupiter_diff,total_diff
2020-04-29,1.9446599318612208,0.4558969903738705,1.9474908116100889,3.842266599491899,8.19031433333708,-0.5641184377910927,-0.6056038315153631,-0.7868372858785947,-0.11697028808682883,-0.7804094979428111
2020-04-30,1.9155739497856898,0.44829493860666075,1.9321184383987022,3.8394716980324604,8.135459024823513,-0.6012855980236584,-0.5877612023193595,-0.7856210243591389,-0.12454270440001192,-0.8055691333427145
2020-05-01,1.8846743360648517,0.4409324878376871,1.9167717935047905,3.836508385526893,8.078887002934222,-0.6387782494875608,-0.5692361810339723,-0.7843061520975986,-0.1320472148237557,-0.8307796616170824
2020-05-02,1.851960153844645,0.4338184825343167,1.9014527334689137,3.8333782084145476,8.020609578262423,-0.6762902682484998,-0.5500273397835618,-0.7828963994115189,-0.13948281486130737,-0.8558240899273307
2020-05-03,1.817448310752853,0.4269617213736729,1.886163035487296,3.8300827132286304,7.960655780842453,-0.7134527607993136,-0.5301382188924403,-0.7813958212752025,-0.146849500330418,-0.8804422021665503
2020-05-04,1.7811765652934024,0.42037087769869014,1.8709043976293847,3.8266234191092128,7.89907525973069,-0.749834683364376,-0.5095785087147156,-0.7798084615443817,-0.1541484918877343,-0.9043312008814395
2020-05-05,1.7432062957807122,0.41405440469850285,1.8556784502081956,3.823001788062449,7.835940938749859,-0.7849477508364545,-0.4883652306896243,-0.7781377829815248,-0.16138233545935016,-0.9271492880972603
2020-05-06,1.7036247872017158,0.4080204296583226,1.8404867819117847,3.819219198987319,7.771351197759142,-0.8182564025102099,-0.46652358244635916,-0.7763859128732392,-0.16855473435733923,-0.9485226331350314
2020-05-07,1.6625467759278585,0.40227664627091475,1.8253309801761202,3.815276933730374,7.705431336105267,-0.8491931443223598,-0.4440870876736885,-0.7745529152087759,-0.1756700133037038,-0.9680559140315499
2020-05-08,1.620115007913633,0.3968302170719714,1.8102126797067373,3.8111761822295396,7.638334086921882,-0.8771789427422649,-0.4210968133795242,-0.7726363742280288,-0.18273226780912852,-0.9853462561599157
2020-05-09,1.5764996182044924,0.39168769538046716,1.7951336078706794,3.8069180681703174,7.570238989625956,-0.9016475914821548,-0.3975998618411585,-0.7706315543688403,-0.18974445012659524,-1.0
