name,value,min,max
G,-0.050926543127583046,-0.06170219334125682,0.048840671497544896
A,-0.03522113969299767,-0.0790921357644534,0.07202164030506797
F,-0.04461529827711985,-0.06400132530785796,0.05126843657817104
A,-0.03797401444112014,-0.052853889084683026,0.05065505578665008
