get_type,hash,hash_get,date,size
DUBS,0000000000000000001704fea05a6e9b77c05b0be14c3dbcc9f670f1036210,bb,2019-07-18 22:28:02,1112728
DUBS,00000000000000000000817b3bc21f0923a73344e7ae6d88de8c8dfe3ca553,ff,2019-07-18 17:50:48,1299780
DUBS,00000000000000000014d4ca4b5fa82dd3153ed2972daf23061cd5fd05cf8a,66,2019-07-18 16:45:58,1422969
DUBS,0000000000000000000588e1578a8748de57b2317423d8099cb8c3d2afd960,33,2019-07-18 15:12:21,1322403
DUBS,000000000000000000057c81d2bba8e408cd2dcc986fcd0381686ab2354ec3,dd,2019-07-18 14:36:48,1310038
DUBS,0000000000000000000f7fba04c5e7fc3f33dbc3189b7d80eae99744d83479,44,2019-07-18 13:56:26,1028573
DUBS,0000000000000000000545bd99458040debdc27d0176f57c35dcd3c6ec3bc3,00,2019-07-18 11:20:48,1254458
DUBS,000000000000000000082c22427e1e10f857777db3c0515493d4a8af930124,22,2019-07-18 07:06:02,1260682
DUBS,00000000000000000012c52117485dac82176d83a0bb91380f8934f0d4e29c,dd,2019-07-18 05:48:11,1268950
DUBS,000000000000000000072678c3bb5d08c06e5262609519a59402b6751f0a53,55,2019-07-18 03:27:48,1236290
DUBS,0000000000000000001698f5610f678d67710604c69078e58a889c32db2aff,ee,2019-07-18 03:05:03,1276394
