pred_price,direction,date
623.23,1.0,2021-01-27
608.41,-1.0,2021-03-13
621.38,1.0,2021-04-25
607.70,-1.0,2021-06-09
620.56,1.0,2021-07-22
606.90,-1.0,2021-09-05
619.79,1.0,2021-10-18
607.39,-1.0,2021-11-30
