name,value,min,max
G,0.0031852578349247374,-0.026321623994536858,0.027792895758499192
A,0.009426693859052815,-0.023373570233735652,0.022037173352962736
F,-0.0025197053882931586,-0.02822732404968009,0.03426263678999475
A,-0.011512882132677538,-0.033307310575248494,0.03351032113347907
