pred_price,direction,date
147.77,1.0,2018-09-24
147.30,-1.0,2018-10-16
147.76,1.0,2018-11-08
147.19,-1.0,2018-11-27
149.84,1.0,2019-02-03
148.71,-1.0,2019-02-26
149.27,1.0,2019-03-15
145.01,-1.0,2019-05-28
145.19,1.0,2019-06-09
144.44,-1.0,2019-07-07
145.16,1.0,2019-08-02
144.96,-1.0,2019-08-15
