get_type,hash,hash_get,date,size
DUBS,00000000000000000013b135d9f15a068d3dae54bff7485d3fbe34937edc0e,88,2019-06-20 21:24:15,1207985
DUBS,0000000000000000001f12b6487b52da079115e84b1c1fe080660f54b1f5cf,33,2019-06-20 21:20:44,1457265
DUBS,0000000000000000001744cb0508849ca2a21526fa78d83de92da3ca31b0fd,99,2019-06-20 20:49:30,1363438
TRIPS,0000000000000000001e797dd2698b2ef62df3de98299d55ee8cd75a590a1,aaa,2019-06-20 20:22:58,1133865
DUBS,0000000000000000001fde11ee0a5614e3a01942af6ed24437cf366f19e7b8,66,2019-06-20 05:52:02,1172041
DUBS,000000000000000000203f058bf0ada3d39834c093d5f3377c0a2a154c8e3e,88,2019-06-20 01:57:56,1147522
QUADS,0000000000000000000b48ff9be4fa5d62f6d3ab26f171be4b1c8c8668db,0000,2019-06-20 00:52:00,1300858
DUBS,00000000000000000011b0c9d5703894c72278937671c90dcf3c729cff96b7,33,2019-06-20 00:04:19,1210408
