name,value,min,max
G,0.0028526087252829235,-0.016540518285530825,0.007479606497281521
A,-0.0011111111111110628,-0.02979902979902982,0.0017760674905646923
F,0.021223063035378242,-0.029065666877018392,0.021223063035378242
A,0.004326037337223587,-0.023535032134197387,0.012141513329968268
