<?xml version="1.0" encoding="utf-8" standalone="no"?>
<!DOCTYPE svg PUBLIC "-//W3C//DTD SVG 1.1//EN"
  "http://www.w3.org/Graphics/SVG/1.1/DTD/svg11.dtd">
<!-- Created with matplotlib (http://matplotlib.org/) -->
<svg height="360pt" version="1.1" viewBox="0 0 360 360" width="360pt" xmlns="http://www.w3.org/2000/svg" xmlns:xlink="http://www.w3.org/1999/xlink">
 <defs>
  <style type="text/css">
*{stroke-linecap:butt;stroke-linejoin:round;}
  </style>
 </defs>
 <g id="figure_1">
  <g id="patch_1">
   <path d="M 0 360 
L 360 360 
L 360 0 
L 0 0 
z
" style="fill:#ffffff;"/>
  </g>
  <g id="axes_1">
   <g id="patch_2">
    <path d="M 69.455 237.44 
L 346.68 237.44 
L 346.68 13.32 
L 69.455 13.32 
z
" style="fill:#ffffff;"/>
   </g>
   <g id="matplotlib.axis_1">
    <g id="xtick_1">
     <g id="line2d_1">
      <path clip-path="url(#p2dd156839b)" d="M 82.056136 237.44 
L 82.056136 13.32 
" style="fill:none;stroke:#0000ff;stroke-linecap:square;stroke-width:0.1;"/>
     </g>
     <g id="line2d_2">
      <defs>
       <path d="M 0 0 
L 0 3.5 
" id="mf148d82b55" style="stroke:#000000;stroke-width:0.8;"/>
      </defs>
      <g>
       <use style="stroke:#000000;stroke-width:0.8;" x="82.056136" xlink:href="#mf148d82b55" y="237.44"/>
      </g>
     </g>
     <g id="text_1">
      <!-- 2018-11-07 23:30:15 -->
      <defs>
       <path d="M 48.09375 0 
L 8.296875 0 
L 7.5 6.59375 
Q 24.09375 20 31.09375 27.84375 
Q 38.09375 35.703125 38.09375 42.796875 
Q 38.09375 49 31.796875 52.046875 
Q 25.5 55.09375 9.40625 55.203125 
L 10.09375 62.796875 
Q 46.09375 63.203125 46.09375 44.703125 
Q 46.09375 35.796875 39.390625 27.6875 
Q 32.703125 19.59375 17.203125 7.09375 
L 48.09375 7.09375 
z
" id="OperatorMono-Book-32"/>
       <path d="M 26.796875 -1.203125 
Q 16.59375 -1.203125 11.09375 7.046875 
Q 5.59375 15.296875 5.59375 30.09375 
Q 5.59375 45.203125 11.6875 54.203125 
Q 17.796875 63.203125 28.203125 63.203125 
Q 38.5 63.203125 44 55 
Q 49.5 46.796875 49.5 31.90625 
Q 49.5 16.90625 43.34375 7.84375 
Q 37.203125 -1.203125 26.796875 -1.203125 
z
M 13.40625 31.5 
Q 13.40625 29.796875 13.59375 26.796875 
L 40.796875 41 
Q 38.09375 56.5 27.59375 56.5 
Q 20.59375 56.5 17 50 
Q 13.40625 43.5 13.40625 31.5 
z
M 27.5 5.5 
Q 34.5 5.5 38.046875 12 
Q 41.59375 18.5 41.59375 30.5 
Q 41.59375 33.40625 41.5 34.796875 
L 14.296875 20.59375 
Q 17.203125 5.5 27.5 5.5 
z
" id="OperatorMono-Book-30"/>
       <path d="M 48.59375 0 
L 9 0 
L 9 6.90625 
L 26.09375 6.90625 
L 26.09375 49.40625 
L 10.296875 48.59375 
L 10.203125 54.5 
L 26.09375 56.40625 
L 26.09375 63.5 
L 34 64.203125 
L 34 6.90625 
L 49.296875 6.90625 
z
" id="OperatorMono-Book-31"/>
       <path d="M 26.40625 -1.203125 
Q 17.90625 -1.203125 12.5 2.890625 
Q 7.09375 7 7.09375 13.703125 
Q 7.09375 24.203125 20.90625 31.296875 
Q 14.90625 34.796875 11.546875 38.546875 
Q 8.203125 42.296875 8.203125 47.203125 
Q 8.203125 53.59375 13.640625 58.390625 
Q 19.09375 63.203125 28.296875 63.203125 
Q 36.296875 63.203125 41.546875 59.25 
Q 46.796875 55.296875 46.796875 48.796875 
Q 46.796875 38.59375 33.5 32.203125 
Q 40.40625 28.40625 44.203125 24.65625 
Q 48 20.90625 48 15.5 
Q 48 8.40625 42 3.59375 
Q 36 -1.203125 26.40625 -1.203125 
z
M 16 48.203125 
Q 16 44.09375 19.34375 41.09375 
Q 22.703125 38.09375 29.09375 34.703125 
Q 39.203125 39.796875 39.203125 47.296875 
Q 39.203125 51.59375 36.140625 54.25 
Q 33.09375 56.90625 27.59375 56.90625 
Q 22.09375 56.90625 19.046875 54.34375 
Q 16 51.796875 16 48.203125 
z
M 27.5 5.09375 
Q 33.203125 5.09375 36.640625 7.75 
Q 40.09375 10.40625 40.09375 14.40625 
Q 40.09375 17.296875 37.6875 20.046875 
Q 35.296875 22.796875 32.796875 24.34375 
Q 30.296875 25.90625 25.296875 28.703125 
Q 14.90625 23.59375 14.90625 15.5 
Q 14.90625 10.796875 18.203125 7.9375 
Q 21.5 5.09375 27.5 5.09375 
z
" id="OperatorMono-Book-38"/>
       <path d="M 43.59375 32.703125 
L 43 25.796875 
L 11.90625 25.796875 
L 11.90625 32.703125 
z
" id="OperatorMono-Book-2d"/>
       <path d="M 23.203125 -0.5 
L 14.90625 0.40625 
Q 24.40625 27.90625 40.703125 54.296875 
L 40.40625 54.703125 
L 8.09375 54.703125 
L 8.703125 62 
L 48.703125 62 
L 48.703125 55.09375 
Q 32.90625 28.203125 23.203125 -0.5 
z
" id="OperatorMono-Book-37"/>
       <path id="OperatorMono-Book-20"/>
       <path d="M 9.5 -1.203125 
L 9 6.296875 
Q 25.5 7.203125 32.59375 10 
Q 39.703125 12.796875 39.703125 17.59375 
Q 39.703125 27.296875 13.90625 30.203125 
L 13.90625 34.09375 
L 37.90625 54.90625 
L 9.703125 54.90625 
L 9.703125 62 
L 45.703125 62 
L 46.203125 55 
L 23 34.796875 
Q 47.5 30.796875 47.5 18.203125 
Q 47.5 10 38.203125 4.84375 
Q 28.90625 -0.296875 9.5 -1.203125 
z
" id="OperatorMono-Book-33"/>
       <path d="M 33.796875 32.90625 
L 22 32.90625 
L 22.09375 44.59375 
L 34 44.59375 
z
M 33 0 
L 21.09375 0 
L 21.5 11.59375 
L 33.40625 11.59375 
z
" id="OperatorMono-Book-3a"/>
       <path d="M 47.09375 20.59375 
Q 47.09375 11.796875 37.75 6 
Q 28.40625 0.203125 9.5 -1.203125 
L 9 6.296875 
Q 25.5 7.796875 32.5 11.140625 
Q 39.5 14.5 39.5 20.203125 
Q 39.5 30.09375 10.40625 32.296875 
L 12.40625 62 
L 45.203125 62 
L 44.5 54.90625 
L 19.203125 54.90625 
L 18.09375 37.796875 
Q 47.09375 34.796875 47.09375 20.59375 
z
" id="OperatorMono-Book-35"/>
      </defs>
      <g transform="translate(84.685824 348.94)rotate(-90)scale(0.1 -0.1)">
       <use xlink:href="#OperatorMono-Book-32"/>
       <use x="54.999985" xlink:href="#OperatorMono-Book-30"/>
       <use x="109.999969" xlink:href="#OperatorMono-Book-31"/>
       <use x="164.999954" xlink:href="#OperatorMono-Book-38"/>
       <use x="219.999939" xlink:href="#OperatorMono-Book-2d"/>
       <use x="274.999924" xlink:href="#OperatorMono-Book-31"/>
       <use x="329.999908" xlink:href="#OperatorMono-Book-31"/>
       <use x="384.999893" xlink:href="#OperatorMono-Book-2d"/>
       <use x="439.999878" xlink:href="#OperatorMono-Book-30"/>
       <use x="494.999863" xlink:href="#OperatorMono-Book-37"/>
       <use x="549.999847" xlink:href="#OperatorMono-Book-20"/>
       <use x="604.999832" xlink:href="#OperatorMono-Book-32"/>
       <use x="659.999817" xlink:href="#OperatorMono-Book-33"/>
       <use x="714.999802" xlink:href="#OperatorMono-Book-3a"/>
       <use x="769.999786" xlink:href="#OperatorMono-Book-33"/>
       <use x="824.999771" xlink:href="#OperatorMono-Book-30"/>
       <use x="879.999756" xlink:href="#OperatorMono-Book-3a"/>
       <use x="934.999741" xlink:href="#OperatorMono-Book-31"/>
       <use x="989.999725" xlink:href="#OperatorMono-Book-35"/>
      </g>
     </g>
    </g>
    <g id="xtick_2">
     <g id="line2d_3">
      <path clip-path="url(#p2dd156839b)" d="M 137.186108 237.44 
L 137.186108 13.32 
" style="fill:none;stroke:#0000ff;stroke-linecap:square;stroke-width:0.1;"/>
     </g>
     <g id="line2d_4">
      <g>
       <use style="stroke:#000000;stroke-width:0.8;" x="137.186108" xlink:href="#mf148d82b55" y="237.44"/>
      </g>
     </g>
     <g id="text_2">
      <!-- 2018-11-07 23:35:30 -->
      <g transform="translate(139.815795 348.94)rotate(-90)scale(0.1 -0.1)">
       <use xlink:href="#OperatorMono-Book-32"/>
       <use x="54.999985" xlink:href="#OperatorMono-Book-30"/>
       <use x="109.999969" xlink:href="#OperatorMono-Book-31"/>
       <use x="164.999954" xlink:href="#OperatorMono-Book-38"/>
       <use x="219.999939" xlink:href="#OperatorMono-Book-2d"/>
       <use x="274.999924" xlink:href="#OperatorMono-Book-31"/>
       <use x="329.999908" xlink:href="#OperatorMono-Book-31"/>
       <use x="384.999893" xlink:href="#OperatorMono-Book-2d"/>
       <use x="439.999878" xlink:href="#OperatorMono-Book-30"/>
       <use x="494.999863" xlink:href="#OperatorMono-Book-37"/>
       <use x="549.999847" xlink:href="#OperatorMono-Book-20"/>
       <use x="604.999832" xlink:href="#OperatorMono-Book-32"/>
       <use x="659.999817" xlink:href="#OperatorMono-Book-33"/>
       <use x="714.999802" xlink:href="#OperatorMono-Book-3a"/>
       <use x="769.999786" xlink:href="#OperatorMono-Book-33"/>
       <use x="824.999771" xlink:href="#OperatorMono-Book-35"/>
       <use x="879.999756" xlink:href="#OperatorMono-Book-3a"/>
       <use x="934.999741" xlink:href="#OperatorMono-Book-33"/>
       <use x="989.999725" xlink:href="#OperatorMono-Book-30"/>
      </g>
     </g>
    </g>
    <g id="xtick_3">
     <g id="line2d_5">
      <path clip-path="url(#p2dd156839b)" d="M 184.440369 237.44 
L 184.440369 13.32 
" style="fill:none;stroke:#0000ff;stroke-linecap:square;stroke-width:0.1;"/>
     </g>
     <g id="line2d_6">
      <g>
       <use style="stroke:#000000;stroke-width:0.8;" x="184.440369" xlink:href="#mf148d82b55" y="237.44"/>
      </g>
     </g>
     <g id="text_3">
      <!-- 2018-11-07 23:40:00 -->
      <defs>
       <path d="M 50.296875 12.796875 
L 43.5 12.796875 
L 43.5 0 
L 35.90625 0 
L 35.90625 12.796875 
L 8.203125 12.796875 
Q 7.703125 33.59375 14.90625 62.703125 
L 23.59375 62.09375 
Q 15.09375 26.40625 14.59375 19.90625 
L 35.90625 19.90625 
L 35.90625 41.59375 
L 43.5 42.5 
L 43.5 19.90625 
L 51.09375 19.90625 
z
" id="OperatorMono-Book-34"/>
      </defs>
      <g transform="translate(187.070057 348.94)rotate(-90)scale(0.1 -0.1)">
       <use xlink:href="#OperatorMono-Book-32"/>
       <use x="54.999985" xlink:href="#OperatorMono-Book-30"/>
       <use x="109.999969" xlink:href="#OperatorMono-Book-31"/>
       <use x="164.999954" xlink:href="#OperatorMono-Book-38"/>
       <use x="219.999939" xlink:href="#OperatorMono-Book-2d"/>
       <use x="274.999924" xlink:href="#OperatorMono-Book-31"/>
       <use x="329.999908" xlink:href="#OperatorMono-Book-31"/>
       <use x="384.999893" xlink:href="#OperatorMono-Book-2d"/>
       <use x="439.999878" xlink:href="#OperatorMono-Book-30"/>
       <use x="494.999863" xlink:href="#OperatorMono-Book-37"/>
       <use x="549.999847" xlink:href="#OperatorMono-Book-20"/>
       <use x="604.999832" xlink:href="#OperatorMono-Book-32"/>
       <use x="659.999817" xlink:href="#OperatorMono-Book-33"/>
       <use x="714.999802" xlink:href="#OperatorMono-Book-3a"/>
       <use x="769.999786" xlink:href="#OperatorMono-Book-34"/>
       <use x="824.999771" xlink:href="#OperatorMono-Book-30"/>
       <use x="879.999756" xlink:href="#OperatorMono-Book-3a"/>
       <use x="934.999741" xlink:href="#OperatorMono-Book-30"/>
       <use x="989.999725" xlink:href="#OperatorMono-Book-30"/>
      </g>
     </g>
    </g>
    <g id="xtick_4">
     <g id="line2d_7">
      <path clip-path="url(#p2dd156839b)" d="M 234.319867 237.44 
L 234.319867 13.32 
" style="fill:none;stroke:#0000ff;stroke-linecap:square;stroke-width:0.1;"/>
     </g>
     <g id="line2d_8">
      <g>
       <use style="stroke:#000000;stroke-width:0.8;" x="234.319867" xlink:href="#mf148d82b55" y="237.44"/>
      </g>
     </g>
     <g id="text_4">
      <!-- 2018-11-07 23:44:45 -->
      <g transform="translate(236.949555 348.94)rotate(-90)scale(0.1 -0.1)">
       <use xlink:href="#OperatorMono-Book-32"/>
       <use x="54.999985" xlink:href="#OperatorMono-Book-30"/>
       <use x="109.999969" xlink:href="#OperatorMono-Book-31"/>
       <use x="164.999954" xlink:href="#OperatorMono-Book-38"/>
       <use x="219.999939" xlink:href="#OperatorMono-Book-2d"/>
       <use x="274.999924" xlink:href="#OperatorMono-Book-31"/>
       <use x="329.999908" xlink:href="#OperatorMono-Book-31"/>
       <use x="384.999893" xlink:href="#OperatorMono-Book-2d"/>
       <use x="439.999878" xlink:href="#OperatorMono-Book-30"/>
       <use x="494.999863" xlink:href="#OperatorMono-Book-37"/>
       <use x="549.999847" xlink:href="#OperatorMono-Book-20"/>
       <use x="604.999832" xlink:href="#OperatorMono-Book-32"/>
       <use x="659.999817" xlink:href="#OperatorMono-Book-33"/>
       <use x="714.999802" xlink:href="#OperatorMono-Book-3a"/>
       <use x="769.999786" xlink:href="#OperatorMono-Book-34"/>
       <use x="824.999771" xlink:href="#OperatorMono-Book-34"/>
       <use x="879.999756" xlink:href="#OperatorMono-Book-3a"/>
       <use x="934.999741" xlink:href="#OperatorMono-Book-34"/>
       <use x="989.999725" xlink:href="#OperatorMono-Book-35"/>
      </g>
     </g>
    </g>
    <g id="xtick_5">
     <g id="line2d_9">
      <path clip-path="url(#p2dd156839b)" d="M 294.700313 237.44 
L 294.700313 13.32 
" style="fill:none;stroke:#0000ff;stroke-linecap:square;stroke-width:0.1;"/>
     </g>
     <g id="line2d_10">
      <g>
       <use style="stroke:#000000;stroke-width:0.8;" x="294.700313" xlink:href="#mf148d82b55" y="237.44"/>
      </g>
     </g>
     <g id="text_5">
      <!-- 2018-11-07 23:50:30 -->
      <g transform="translate(297.33 348.94)rotate(-90)scale(0.1 -0.1)">
       <use xlink:href="#OperatorMono-Book-32"/>
       <use x="54.999985" xlink:href="#OperatorMono-Book-30"/>
       <use x="109.999969" xlink:href="#OperatorMono-Book-31"/>
       <use x="164.999954" xlink:href="#OperatorMono-Book-38"/>
       <use x="219.999939" xlink:href="#OperatorMono-Book-2d"/>
       <use x="274.999924" xlink:href="#OperatorMono-Book-31"/>
       <use x="329.999908" xlink:href="#OperatorMono-Book-31"/>
       <use x="384.999893" xlink:href="#OperatorMono-Book-2d"/>
       <use x="439.999878" xlink:href="#OperatorMono-Book-30"/>
       <use x="494.999863" xlink:href="#OperatorMono-Book-37"/>
       <use x="549.999847" xlink:href="#OperatorMono-Book-20"/>
       <use x="604.999832" xlink:href="#OperatorMono-Book-32"/>
       <use x="659.999817" xlink:href="#OperatorMono-Book-33"/>
       <use x="714.999802" xlink:href="#OperatorMono-Book-3a"/>
       <use x="769.999786" xlink:href="#OperatorMono-Book-35"/>
       <use x="824.999771" xlink:href="#OperatorMono-Book-30"/>
       <use x="879.999756" xlink:href="#OperatorMono-Book-3a"/>
       <use x="934.999741" xlink:href="#OperatorMono-Book-33"/>
       <use x="989.999725" xlink:href="#OperatorMono-Book-30"/>
      </g>
     </g>
    </g>
   </g>
   <g id="matplotlib.axis_2">
    <g id="ytick_1">
     <g id="line2d_11">
      <path clip-path="url(#p2dd156839b)" d="M 69.455 237.65675 
L 346.68 237.65675 
" style="fill:none;stroke:#0000ff;stroke-linecap:square;stroke-width:0.1;"/>
     </g>
     <g id="line2d_12">
      <defs>
       <path d="M 0 0 
L -3.5 0 
" id="m632b7af918" style="stroke:#000000;stroke-width:0.8;"/>
      </defs>
      <g>
       <use style="stroke:#000000;stroke-width:0.8;" x="69.455" xlink:href="#m632b7af918" y="237.65675"/>
      </g>
     </g>
     <g id="text_6">
      <!-- 49.90 -->
      <defs>
       <path d="M 17.40625 -2.203125 
L 14 4.796875 
Q 26 9.90625 32.09375 16.203125 
Q 38.203125 22.5 39.796875 30.703125 
Q 32.90625 24.796875 25.09375 24.296875 
Q 17.296875 23.796875 12 28.640625 
Q 6.703125 33.5 6.703125 42 
Q 6.703125 51.40625 12.84375 57.25 
Q 19 63.09375 27.59375 63.09375 
Q 36.90625 63.09375 42.5 56.84375 
Q 48.09375 50.59375 48.09375 39 
Q 48.09375 12.296875 17.40625 -2.203125 
z
M 14.296875 43 
Q 14.296875 36.40625 18.1875 32.953125 
Q 22.09375 29.5 28.1875 30.296875 
Q 34.296875 31.09375 40.5 36 
L 40.5 38.09375 
Q 40.5 47.09375 36.75 51.796875 
Q 33 56.5 26.796875 56.5 
Q 21.5 56.5 17.890625 52.796875 
Q 14.296875 49.09375 14.296875 43 
z
" id="OperatorMono-Book-39"/>
       <path d="M 32.90625 0 
L 21 0 
L 21.59375 11.59375 
L 33.5 11.59375 
z
" id="OperatorMono-Book-2e"/>
      </defs>
      <g transform="translate(34.955 241.146594)scale(0.1 -0.1)">
       <use xlink:href="#OperatorMono-Book-34"/>
       <use x="54.999985" xlink:href="#OperatorMono-Book-39"/>
       <use x="109.999969" xlink:href="#OperatorMono-Book-2e"/>
       <use x="164.999954" xlink:href="#OperatorMono-Book-39"/>
       <use x="219.999939" xlink:href="#OperatorMono-Book-30"/>
      </g>
     </g>
    </g>
    <g id="ytick_2">
     <g id="line2d_13">
      <path clip-path="url(#p2dd156839b)" d="M 69.455 194.306654 
L 346.68 194.306654 
" style="fill:none;stroke:#0000ff;stroke-linecap:square;stroke-width:0.1;"/>
     </g>
     <g id="line2d_14">
      <g>
       <use style="stroke:#000000;stroke-width:0.8;" x="69.455" xlink:href="#m632b7af918" y="194.306654"/>
      </g>
     </g>
     <g id="text_7">
      <!-- 49.95 -->
      <g transform="translate(34.955 197.796498)scale(0.1 -0.1)">
       <use xlink:href="#OperatorMono-Book-34"/>
       <use x="54.999985" xlink:href="#OperatorMono-Book-39"/>
       <use x="109.999969" xlink:href="#OperatorMono-Book-2e"/>
       <use x="164.999954" xlink:href="#OperatorMono-Book-39"/>
       <use x="219.999939" xlink:href="#OperatorMono-Book-35"/>
      </g>
     </g>
    </g>
    <g id="ytick_3">
     <g id="line2d_15">
      <path clip-path="url(#p2dd156839b)" d="M 69.455 150.956557 
L 346.68 150.956557 
" style="fill:none;stroke:#0000ff;stroke-linecap:square;stroke-width:0.1;"/>
     </g>
     <g id="line2d_16">
      <g>
       <use style="stroke:#000000;stroke-width:0.8;" x="69.455" xlink:href="#m632b7af918" y="150.956557"/>
      </g>
     </g>
     <g id="text_8">
      <!-- 50.00 -->
      <g transform="translate(34.955 154.446401)scale(0.1 -0.1)">
       <use xlink:href="#OperatorMono-Book-35"/>
       <use x="54.999985" xlink:href="#OperatorMono-Book-30"/>
       <use x="109.999969" xlink:href="#OperatorMono-Book-2e"/>
       <use x="164.999954" xlink:href="#OperatorMono-Book-30"/>
       <use x="219.999939" xlink:href="#OperatorMono-Book-30"/>
      </g>
     </g>
    </g>
    <g id="ytick_4">
     <g id="line2d_17">
      <path clip-path="url(#p2dd156839b)" d="M 69.455 107.60646 
L 346.68 107.60646 
" style="fill:none;stroke:#0000ff;stroke-linecap:square;stroke-width:0.1;"/>
     </g>
     <g id="line2d_18">
      <g>
       <use style="stroke:#000000;stroke-width:0.8;" x="69.455" xlink:href="#m632b7af918" y="107.60646"/>
      </g>
     </g>
     <g id="text_9">
      <!-- 50.05 -->
      <g transform="translate(34.955 111.096304)scale(0.1 -0.1)">
       <use xlink:href="#OperatorMono-Book-35"/>
       <use x="54.999985" xlink:href="#OperatorMono-Book-30"/>
       <use x="109.999969" xlink:href="#OperatorMono-Book-2e"/>
       <use x="164.999954" xlink:href="#OperatorMono-Book-30"/>
       <use x="219.999939" xlink:href="#OperatorMono-Book-35"/>
      </g>
     </g>
    </g>
    <g id="ytick_5">
     <g id="line2d_19">
      <path clip-path="url(#p2dd156839b)" d="M 69.455 64.256364 
L 346.68 64.256364 
" style="fill:none;stroke:#0000ff;stroke-linecap:square;stroke-width:0.1;"/>
     </g>
     <g id="line2d_20">
      <g>
       <use style="stroke:#000000;stroke-width:0.8;" x="69.455" xlink:href="#m632b7af918" y="64.256364"/>
      </g>
     </g>
     <g id="text_10">
      <!-- 50.10 -->
      <g transform="translate(34.955 67.746207)scale(0.1 -0.1)">
       <use xlink:href="#OperatorMono-Book-35"/>
       <use x="54.999985" xlink:href="#OperatorMono-Book-30"/>
       <use x="109.999969" xlink:href="#OperatorMono-Book-2e"/>
       <use x="164.999954" xlink:href="#OperatorMono-Book-31"/>
       <use x="219.999939" xlink:href="#OperatorMono-Book-30"/>
      </g>
     </g>
    </g>
    <g id="ytick_6">
     <g id="line2d_21">
      <path clip-path="url(#p2dd156839b)" d="M 69.455 20.906267 
L 346.68 20.906267 
" style="fill:none;stroke:#0000ff;stroke-linecap:square;stroke-width:0.1;"/>
     </g>
     <g id="line2d_22">
      <g>
       <use style="stroke:#000000;stroke-width:0.8;" x="69.455" xlink:href="#m632b7af918" y="20.906267"/>
      </g>
     </g>
     <g id="text_11">
      <!-- 50.15 -->
      <g transform="translate(34.955 24.396111)scale(0.1 -0.1)">
       <use xlink:href="#OperatorMono-Book-35"/>
       <use x="54.999985" xlink:href="#OperatorMono-Book-30"/>
       <use x="109.999969" xlink:href="#OperatorMono-Book-2e"/>
       <use x="164.999954" xlink:href="#OperatorMono-Book-31"/>
       <use x="219.999939" xlink:href="#OperatorMono-Book-35"/>
      </g>
     </g>
    </g>
    <g id="text_12">
     <!-- UK National Grid Frequency (Hz) -->
     <defs>
      <path d="M 27 -1.5 
Q 17.796875 -1.5 12.640625 4.09375 
Q 7.5 9.703125 7.5 20 
L 7.5 62 
L 15.90625 62 
L 15.90625 20.59375 
Q 15.90625 5.703125 27.796875 5.703125 
Q 33.59375 5.703125 36.34375 8.890625 
Q 39.09375 12.09375 39.09375 19.09375 
L 39.09375 62 
L 47.40625 62 
L 47.40625 20.40625 
Q 47.40625 10 42 4.25 
Q 36.59375 -1.5 27 -1.5 
z
" id="OperatorMono-Book-55"/>
      <path d="M 42.796875 -0.59375 
L 23.796875 27.90625 
L 17.40625 27.90625 
L 17.40625 0 
L 9.09375 0 
L 9.09375 62 
L 17.40625 62 
L 17.40625 34.703125 
L 24.203125 34.703125 
L 41.5 62 
L 50.40625 62 
L 30.703125 31.703125 
L 51.90625 0.5 
z
" id="OperatorMono-Book-4b"/>
      <path d="M 39.203125 0 
L 15.90625 48.09375 
L 15.40625 48.09375 
L 15.703125 0 
L 8 0 
L 8 62 
L 16.703125 62 
L 39.203125 14.796875 
L 39.59375 14.796875 
L 39.296875 62 
L 47.09375 62 
L 47.09375 0 
z
" id="OperatorMono-Book-4e"/>
      <path d="M 24.796875 5.203125 
Q 32 5.203125 38.703125 10.5 
Q 38.5 16.90625 38.5 22.09375 
Q 14.703125 24.59375 14.703125 13.40625 
Q 14.703125 9.5 17.453125 7.34375 
Q 20.203125 5.203125 24.796875 5.203125 
z
M 39.796875 -0.296875 
Q 39.796875 -0.09375 39.5 2.296875 
Q 39.203125 4.703125 39.09375 6 
Q 31.296875 -1.203125 21.703125 -1.203125 
Q 14.90625 -1.203125 10.796875 2.1875 
Q 6.703125 5.59375 6.703125 11.5 
Q 6.703125 19.5 14.796875 24.140625 
Q 22.90625 28.796875 38.40625 27.90625 
Q 37.90625 36.296875 32.046875 39.296875 
Q 26.203125 42.296875 9.59375 42.90625 
L 10.5 49.90625 
Q 24.90625 49.5 32.5 47 
Q 40.09375 44.5 43.25 39.25 
Q 46.40625 34 46.40625 24.296875 
Q 46.40625 14.203125 47.203125 0.203125 
z
" id="OperatorMono-Book-61"/>
      <path d="M 46 -0.796875 
Q 30.296875 -1 24 2.75 
Q 17.703125 6.5 17.703125 15.703125 
L 17.703125 42.703125 
L 7.59375 42.703125 
L 8.40625 49 
L 17.703125 49 
L 17.703125 62.59375 
L 25.796875 63.296875 
L 25.796875 49 
L 45.796875 49 
L 45.796875 42.703125 
L 25.796875 42.703125 
L 25.796875 17 
Q 25.796875 10.703125 30.140625 8.453125 
Q 34.5 6.203125 46.90625 6 
z
" id="OperatorMono-Book-74"/>
      <path d="M 33.203125 56.90625 
L 24.90625 56.90625 
L 25.5 70.5 
L 34.09375 70.5 
z
M 51.40625 0 
L 7.09375 0 
L 7.09375 6.203125 
L 25.5 6.203125 
L 25.5 42.5 
L 7.203125 43.296875 
L 7.796875 49 
L 33.59375 49 
L 33.59375 6.203125 
L 52 6.203125 
z
" id="OperatorMono-Book-69"/>
      <path d="M 26.40625 -1.40625 
Q 17.09375 -1.40625 11.296875 5.296875 
Q 5.5 12 5.5 23.59375 
Q 5.5 35.296875 12.25 42.796875 
Q 19 50.296875 28.703125 50.296875 
Q 38 50.296875 43.75 43.640625 
Q 49.5 37 49.5 25.40625 
Q 49.5 13.5 42.796875 6.046875 
Q 36.09375 -1.40625 26.40625 -1.40625 
z
M 27.703125 5.296875 
Q 33.90625 5.296875 37.65625 10.140625 
Q 41.40625 15 41.40625 23.90625 
Q 41.40625 33.296875 37.546875 38.5 
Q 33.703125 43.703125 27.296875 43.703125 
Q 21.203125 43.703125 17.453125 38.796875 
Q 13.703125 33.90625 13.703125 25.09375 
Q 13.703125 15.703125 17.5 10.5 
Q 21.296875 5.296875 27.703125 5.296875 
z
" id="OperatorMono-Book-6f"/>
      <path d="M 29.09375 43.203125 
Q 22.796875 43.203125 16.5 38.90625 
Q 16.90625 21.09375 16.90625 0 
L 8.796875 0 
Q 8.796875 32.90625 8.09375 48.703125 
L 15.59375 49.203125 
L 16.09375 43.59375 
Q 23.90625 50.09375 32.5 50.09375 
Q 47.09375 50.09375 47.09375 33.203125 
L 47.09375 0 
L 39 0 
L 39 30.5 
Q 39 37.296875 36.5 40.25 
Q 34 43.203125 29.09375 43.203125 
z
" id="OperatorMono-Book-6e"/>
      <path d="M 47.203125 0 
L 7.796875 0 
L 7.796875 6.203125 
L 23.703125 6.203125 
L 23.703125 63.296875 
L 8.59375 64 
L 9.296875 69.796875 
L 31.90625 69.796875 
L 31.90625 6.203125 
L 47.90625 6.203125 
z
" id="OperatorMono-Book-6c"/>
      <path d="M 47.703125 0.703125 
Q 26.5 -3.796875 15.953125 4.203125 
Q 5.40625 12.203125 5.40625 29.40625 
Q 5.40625 61.40625 45 62.796875 
L 45.5 54.796875 
Q 37.703125 54.796875 32 53.59375 
Q 26.296875 52.40625 22.84375 50.40625 
Q 19.40625 48.40625 17.34375 45.25 
Q 15.296875 42.09375 14.59375 38.75 
Q 13.90625 35.40625 13.90625 30.90625 
Q 13.90625 17.796875 19.90625 11.390625 
Q 25.90625 5 40.09375 5.90625 
Q 39.796875 26 39.796875 31.09375 
L 47.59375 31.09375 
Q 47.59375 4.703125 47.703125 0.703125 
z
" id="OperatorMono-Book-47"/>
      <path d="M 43.5 0 
L 6.703125 0 
L 6.703125 6.203125 
L 19.703125 6.203125 
Q 19.296875 35.796875 19.09375 42.5 
L 6.703125 43.203125 
L 7.296875 49 
L 26.296875 49 
Q 26.703125 44.796875 26.90625 40.59375 
Q 35.09375 49.09375 49.296875 50.796875 
L 49.703125 42.203125 
Q 35.5 41.09375 27.203125 35.703125 
Q 27.203125 33 27.34375 22.84375 
Q 27.5 12.703125 27.59375 6.203125 
L 44.203125 6.203125 
z
" id="OperatorMono-Book-72"/>
      <path d="M 27.09375 5.5 
Q 32.796875 5.5 38 9.703125 
Q 37.703125 22.5 37.703125 41.796875 
Q 33.296875 43.203125 29.59375 43.203125 
Q 22.59375 43.203125 18.09375 38.140625 
Q 13.59375 33.09375 13.59375 24.09375 
Q 13.59375 15 17.296875 10.25 
Q 21 5.5 27.09375 5.5 
z
M 38.90625 -0.203125 
L 38.40625 4.90625 
Q 31.90625 -1.203125 24 -1.203125 
Q 15.90625 -1.203125 10.75 5.046875 
Q 5.59375 11.296875 5.59375 22 
Q 5.59375 34.90625 13.59375 42.5 
Q 21.59375 50.09375 33.296875 50.09375 
Q 35.59375 50.09375 37.703125 49.796875 
L 37.703125 69.90625 
L 45.796875 70.59375 
L 45.796875 48.796875 
Q 45.796875 15.703125 46.5 0.203125 
z
" id="OperatorMono-Book-64"/>
      <path d="M 45.09375 27 
L 19.5 27 
L 19.5 0 
L 11.09375 0 
L 11.09375 62 
L 49.203125 62 
L 49.203125 54.90625 
L 19.5 54.90625 
L 19.5 33.5 
L 45.09375 33.5 
z
" id="OperatorMono-Book-46"/>
      <path d="M 45.59375 -1.09375 
Q 34.296875 -1.09375 26.59375 0.546875 
Q 18.90625 2.203125 14.546875 5.5 
Q 10.203125 8.796875 8.390625 13.1875 
Q 6.59375 17.59375 6.59375 23.796875 
Q 6.59375 34.90625 13.34375 42.546875 
Q 20.09375 50.203125 29.703125 50.203125 
Q 39.59375 50.203125 44.546875 42.84375 
Q 49.5 35.5 48.09375 23.203125 
L 14.59375 22.40625 
Q 15.203125 13.59375 22.046875 9.890625 
Q 28.90625 6.203125 46.40625 5.796875 
z
M 28.296875 43.5 
Q 22.203125 43.5 18.59375 39.34375 
Q 15 35.203125 14.59375 27.40625 
Q 21.90625 27.703125 40.5 28.203125 
Q 40.40625 35.40625 37.34375 39.453125 
Q 34.296875 43.5 28.296875 43.5 
z
" id="OperatorMono-Book-65"/>
      <path d="M 37.90625 -17.09375 
L 37.90625 4.40625 
Q 31.5 -1.296875 24 -1.296875 
Q 15.90625 -1.296875 10.75 5 
Q 5.59375 11.296875 5.59375 22 
Q 5.59375 34.796875 13.546875 42.4375 
Q 21.5 50.09375 32.5 50.09375 
Q 39.5 50.09375 46 47.59375 
L 46 -16.40625 
z
M 27 5.5 
Q 32.5 5.5 37.90625 9.703125 
L 37.90625 41.59375 
Q 33.5 43.203125 29.5 43.203125 
Q 22.5 43.203125 18.046875 38.140625 
Q 13.59375 33.09375 13.59375 24 
Q 13.59375 15 17.25 10.25 
Q 20.90625 5.5 27 5.5 
z
" id="OperatorMono-Book-71"/>
      <path d="M 39.40625 -0.203125 
L 38.90625 5.40625 
Q 30.90625 -1.203125 22.59375 -1.203125 
Q 8.203125 -1.203125 8.203125 15.796875 
L 8.203125 48.703125 
L 16.296875 49.296875 
L 16.296875 18.5 
Q 16.296875 11.59375 18.75 8.640625 
Q 21.203125 5.703125 26 5.703125 
Q 32.296875 5.703125 38.5 10.203125 
Q 38.09375 27.796875 38.09375 49 
L 46.203125 49 
Q 46.203125 16.09375 46.90625 0.296875 
z
" id="OperatorMono-Book-75"/>
      <path d="M 8 23.703125 
Q 8 29 9.953125 33.390625 
Q 11.90625 37.796875 16.046875 41.5 
Q 20.203125 45.203125 27.75 47.34375 
Q 35.296875 49.5 45.59375 49.703125 
L 46.203125 42 
Q 37 42 30.84375 40.84375 
Q 24.703125 39.703125 21.546875 37.296875 
Q 18.40625 34.90625 17.203125 31.953125 
Q 16 29 16 24.796875 
Q 16 14.59375 22.796875 10.09375 
Q 29.59375 5.59375 46.90625 6.40625 
L 46 -0.40625 
Q 35.203125 -1.09375 27.59375 0.34375 
Q 20 1.796875 15.796875 5.296875 
Q 11.59375 8.796875 9.796875 13.25 
Q 8 17.703125 8 23.703125 
z
" id="OperatorMono-Book-63"/>
      <path d="M 7 -17.796875 
L 6.296875 -10.296875 
Q 15.703125 -8.90625 19.140625 -6.796875 
Q 22.59375 -4.703125 25.09375 1.296875 
L 24.203125 1.5 
Q 17.203125 16.703125 4.203125 48.703125 
L 12.5 49.203125 
Q 22.703125 23.203125 28.5 10 
L 29.5 10 
Q 31.40625 15.203125 36.5 30.453125 
Q 41.59375 45.703125 42.796875 49 
L 50.59375 49 
Q 43.09375 26.796875 34.90625 6.09375 
Q 29.90625 -7.09375 24.59375 -11.6875 
Q 19.296875 -16.296875 7 -17.796875 
z
" id="OperatorMono-Book-79"/>
      <path d="M 41.40625 72.5 
L 46.90625 67.40625 
Q 32 55.796875 25.546875 45.796875 
Q 19.09375 35.796875 19.09375 25.890625 
Q 19.09375 16 25.546875 6.046875 
Q 32 -3.90625 46.59375 -15.5 
L 41 -20.59375 
Q 25.296875 -7.703125 18.1875 3.5 
Q 11.09375 14.703125 11.09375 25.59375 
Q 11.09375 36.703125 18.296875 48.09375 
Q 25.5 59.5 41.40625 72.5 
z
" id="OperatorMono-Book-28"/>
      <path d="M 38.59375 0 
L 38.59375 28.203125 
L 16.40625 28.203125 
L 16.40625 0 
L 7.90625 0 
L 7.90625 62 
L 16.40625 62 
L 16.40625 34.59375 
L 38.59375 34.59375 
L 38.59375 62 
L 47.09375 62 
L 47.09375 0 
z
" id="OperatorMono-Book-48"/>
      <path d="M 48 0 
L 7.296875 0 
L 7.296875 6.90625 
L 38.40625 42 
L 7.59375 41.796875 
L 8.203125 49 
L 47.703125 49 
L 47.703125 42.203125 
L 16.59375 7 
L 48.59375 7.203125 
z
" id="OperatorMono-Book-7a"/>
      <path d="M 13.59375 -20.59375 
L 8.09375 -15.5 
Q 23 -3.796875 29.453125 6.140625 
Q 35.90625 16.09375 35.90625 26.09375 
Q 35.90625 35.90625 29.5 45.84375 
Q 23.09375 55.796875 8.5 67.296875 
L 14 72.59375 
Q 29.703125 59.59375 36.796875 48.390625 
Q 43.90625 37.203125 43.90625 26.40625 
Q 43.90625 15.296875 36.703125 3.890625 
Q 29.5 -7.5 13.59375 -20.59375 
z
" id="OperatorMono-Book-29"/>
     </defs>
     <g transform="translate(18.799688 210.63)rotate(-90)scale(0.1 -0.1)">
      <use xlink:href="#OperatorMono-Book-55"/>
      <use x="54.999985" xlink:href="#OperatorMono-Book-4b"/>
      <use x="109.999969" xlink:href="#OperatorMono-Book-20"/>
      <use x="164.999954" xlink:href="#OperatorMono-Book-4e"/>
      <use x="219.999939" xlink:href="#OperatorMono-Book-61"/>
      <use x="274.999924" xlink:href="#OperatorMono-Book-74"/>
      <use x="329.999908" xlink:href="#OperatorMono-Book-69"/>
      <use x="384.999893" xlink:href="#OperatorMono-Book-6f"/>
      <use x="439.999878" xlink:href="#OperatorMono-Book-6e"/>
      <use x="494.999863" xlink:href="#OperatorMono-Book-61"/>
      <use x="549.999847" xlink:href="#OperatorMono-Book-6c"/>
      <use x="604.999832" xlink:href="#OperatorMono-Book-20"/>
      <use x="659.999817" xlink:href="#OperatorMono-Book-47"/>
      <use x="714.999802" xlink:href="#OperatorMono-Book-72"/>
      <use x="769.999786" xlink:href="#OperatorMono-Book-69"/>
      <use x="824.999771" xlink:href="#OperatorMono-Book-64"/>
      <use x="879.999756" xlink:href="#OperatorMono-Book-20"/>
      <use x="934.999741" xlink:href="#OperatorMono-Book-46"/>
      <use x="989.999725" xlink:href="#OperatorMono-Book-72"/>
      <use x="1044.99971" xlink:href="#OperatorMono-Book-65"/>
      <use x="1099.999695" xlink:href="#OperatorMono-Book-71"/>
      <use x="1154.99968" xlink:href="#OperatorMono-Book-75"/>
      <use x="1209.999664" xlink:href="#OperatorMono-Book-65"/>
      <use x="1264.999649" xlink:href="#OperatorMono-Book-6e"/>
      <use x="1319.999634" xlink:href="#OperatorMono-Book-63"/>
      <use x="1374.999619" xlink:href="#OperatorMono-Book-79"/>
      <use x="1429.999603" xlink:href="#OperatorMono-Book-20"/>
      <use x="1484.999588" xlink:href="#OperatorMono-Book-28"/>
      <use x="1539.999573" xlink:href="#OperatorMono-Book-48"/>
      <use x="1594.999557" xlink:href="#OperatorMono-Book-7a"/>
      <use x="1649.999542" xlink:href="#OperatorMono-Book-29"/>
     </g>
     <!--  -->
     <g transform="translate(29.234688 125.38)rotate(-90)scale(0.1 -0.1)"/>
    </g>
   </g>
   <g id="line2d_23">
    <path clip-path="url(#p2dd156839b)" d="M 82.056136 23.507273 
L 84.681373 29.576286 
L 87.30661 38.246306 
L 89.931847 98.936441 
L 92.557083 107.60646 
L 95.18232 116.27648 
L 97.807557 142.286538 
L 100.432794 159.626576 
L 103.05803 159.626576 
L 105.683267 162.227582 
L 108.308504 172.631605 
L 110.933741 163.961586 
L 113.558977 185.636634 
L 116.184214 194.306654 
L 118.809451 183.902631 
L 121.434688 188.23764 
L 124.059924 189.971644 
L 126.685161 181.301625 
L 129.310398 196.90766 
L 131.935634 201.242669 
L 134.560871 211.646692 
L 137.186108 227.252727 
L 139.811345 205.577679 
L 142.436581 179.567621 
L 145.061818 196.90766 
L 147.687055 207.311683 
L 150.312292 214.247698 
L 152.937528 194.306654 
L 155.562765 194.306654 
L 158.188002 202.976673 
L 160.813239 175.232611 
L 163.438475 188.23764 
L 166.063712 170.897602 
L 168.688949 183.902631 
L 171.314186 176.966615 
L 173.939422 179.567621 
L 176.564659 120.611489 
L 179.189896 120.611489 
L 181.815133 110.207466 
L 184.440369 98.936441 
L 187.065606 111.94147 
L 189.690843 116.27648 
L 192.31608 131.882515 
L 194.941316 163.961586 
L 197.566553 146.621547 
L 200.19179 163.961586 
L 202.817027 136.217524 
L 205.442263 111.94147 
L 208.0675 124.946499 
L 210.692737 114.542476 
L 213.317973 107.60646 
L 215.94321 107.60646 
L 218.568447 129.281509 
L 221.193684 124.946499 
L 223.81892 133.616518 
L 226.444157 142.286538 
L 229.069394 162.227582 
L 231.694631 157.892573 
L 234.319867 176.966615 
L 236.945104 144.887544 
L 239.570341 163.961586 
L 242.195578 166.562592 
L 244.820814 157.892573 
L 247.446051 163.961586 
L 250.071288 175.232611 
L 252.696525 157.892573 
L 255.321761 116.27648 
L 257.946998 131.882515 
L 260.572235 131.882515 
L 263.197472 105.872456 
L 265.822708 107.60646 
L 268.447945 111.94147 
L 271.073182 127.547505 
L 273.698419 120.611489 
L 276.323655 114.542476 
L 278.948892 124.946499 
L 281.574129 98.936441 
L 284.199366 90.266422 
L 286.824602 94.601431 
L 289.449839 88.532418 
L 292.075076 98.936441 
L 294.700313 79.862398 
L 297.325549 88.532418 
L 299.950786 90.266422 
L 302.576023 97.202437 
L 305.201259 103.271451 
L 307.826496 111.94147 
L 310.451733 136.217524 
L 313.07697 136.217524 
L 315.702206 144.887544 
L 318.327443 159.626576 
L 320.95268 162.227582 
L 323.577917 176.966615 
L 326.203153 150.956557 
L 328.82839 157.892573 
L 331.453627 162.227582 
L 334.078864 137.951528 
" style="fill:none;stroke:#000000;stroke-linecap:square;stroke-width:0.5;"/>
   </g>
   <g id="line2d_24">
    <path clip-path="url(#p2dd156839b)" d="M 82.056136 23.507273 
L 137.186108 227.252727 
L 184.440369 98.936441 
L 234.319867 176.966615 
L 294.700313 79.862398 
" style="fill:none;stroke:#ff0000;stroke-linecap:square;"/>
   </g>
   <g id="patch_3">
    <path d="M 69.455 237.44 
L 69.455 13.32 
" style="fill:none;stroke:#000000;stroke-linecap:square;stroke-linejoin:miter;stroke-width:0.8;"/>
   </g>
   <g id="patch_4">
    <path d="M 346.68 237.44 
L 346.68 13.32 
" style="fill:none;stroke:#000000;stroke-linecap:square;stroke-linejoin:miter;stroke-width:0.8;"/>
   </g>
   <g id="patch_5">
    <path d="M 69.455 237.44 
L 346.68 237.44 
" style="fill:none;stroke:#000000;stroke-linecap:square;stroke-linejoin:miter;stroke-width:0.8;"/>
   </g>
   <g id="patch_6">
    <path d="M 69.455 13.32 
L 346.68 13.32 
" style="fill:none;stroke:#000000;stroke-linecap:square;stroke-linejoin:miter;stroke-width:0.8;"/>
   </g>
  </g>
 </g>
 <defs>
  <clipPath id="p2dd156839b">
   <rect height="224.12" width="277.225" x="69.455" y="13.32"/>
  </clipPath>
 </defs>
</svg>
