date,mercury_dist,venus_dist,mars_dist,jupiter_dist,total,mercury_diff,venus_diff,mars_diff,jupiter_diff,total_diff
2019-09-03,0.6990064151760707,1.4326520778911,3.135708339280122,0.5264365590733863,5.793803391420679,0.944596554394406,0.06099283481470836,0.6516532994945968,0.5849702429735046,0.8795618916653398
2019-09-04,0.7440838149421849,1.4335354085475243,3.1473141769065713,0.5402120704401104,5.865145470836391,0.930526284447293,0.06935452135714695,0.6446169619995865,0.6026954394287828,0.8759196451834316
2019-09-05,0.7884046445250228,1.4345242302751333,3.158792667748886,0.5543703039935785,5.936091846542621,0.9149085148949114,0.07763713070198143,0.6375438062523213,0.6194400023258028,0.8710612971278852
2019-09-06,0.8319105153351107,1.4356174342545873,3.170143203393298,0.5688901500601061,6.006561303043102,0.8980854380821535,0.08583268132873438,0.6304368576977407,0.6352609912284649,0.865205806162358
2019-09-07,0.8745562980725438,1.4368137939647987,3.1813652032025783,0.5837518025850054,6.076487097824926,0.8803307636178415,0.09393193190935502,0.6232976591135723,0.6502154410593051,0.8585308678425602
2019-09-08,0.9163075108413642,1.4381119568058782,3.1924580950636585,0.5989367298605159,6.1458142925714165,0.8618642843313198,0.10192498339315814,0.6161266839528478,0.6643591060521394,0.8511814110444079
2019-09-09,0.9571382300691215,1.439510441498767,3.2034213028910656,0.6144276261251307,6.214497600584084,0.8428626684646672,0.10980173256209882,0.6089237115783522,0.6777456228521742,0.8432759358459384
2019-09-10,0.9970294007462865,1.4410076389785074,3.2142542388005793,0.6302083519077746,6.282499630433148,0.8234677027750622,0.11755214633313592,0.6016880866584422,0.6904260180896211,0.8349113783194014
2019-09-11,1.0359674590553711,1.442601814886141,3.22495629793414,0.6462638684611527,6.349789440336806,0.8037927411505588,0.1251663872740443,0.5944188664240786,0.7024484497736232,0.8261669255787216
2019-09-12,1.0739432039957295,1.4442911124487285,3.2355268545351215,0.6625801698945336,6.416341340874113,0.7839278445921753,0.13263484407676554,0.5871148901170551,0.7138581066397444,0.8171070647554239
2019-09-13,1.110950869576645,1.446073555141991,3.2459652583462035,0.6791442148998705,6.48213389796471,0.7639439215161672,0.13994811448997585,0.5797747969082333,0.7246971903579982,0.8077840418233421
