date,mercury_dist,venus_dist,mars_dist,jupiter_dist,total,mercury_diff,venus_diff,mars_diff,jupiter_diff,total_diff
2020-05-27,0.8494006720750436,0.35383412697122557,1.5329828316425043,3.7049550535837805,6.441172684272553,-0.5570447511385866,0.040956289074380495,-0.7142074212685786,-0.3043683839776106,-0.6761979977618129
2020-05-28,0.8248922588639547,0.3546243793527077,1.5190933880672934,3.6980018430766193,6.396611869360575,-0.5066549190593734,0.062046500107788574,-0.7098343723045295,-0.3098397755312313,-0.6379867238736805
2020-05-29,0.8028605953817535,0.35567318207719,1.5052919277832861,3.690928477670818,6.354754182913048,-0.4554538305755157,0.08234652610042677,-0.7053378952536993,-0.3151939592978904,-0.5992854551322564
2020-05-30,0.7833217883464126,0.35696997846949574,1.4915807976105366,3.6837376062971217,6.315610170723566,-0.4039197728447107,0.10181769695406918,-0.7007214815379388,-0.3204301049141763,-0.5604332000069798
2020-05-31,0.7662678844620687,0.35850378399732574,1.477962277937286,3.676431874153512,6.279165820550192,-0.3525501311630903,0.12042641955642712,-0.6959885262237344,-0.3255483787145589,-0.5217815611483815
2020-06-01,0.7516663706068981,0.36026324830894946,1.4644385916061284,3.6690138994565475,6.245382109978523,-0.3018526232897273,0.13814397167151302,-0.6911419702408717,-0.3305499830095191,-0.4836886145482429
2020-06-02,0.7394602931815861,0.36223671530148205,1.4510119217931503,3.661486251605675,6.214195181881894,-0.2523324997293504,0.15494634731152887,-0.6861838407872175,-0.3354370931227185,-0.44650992409710866
2020-06-03,0.7295691409364985,0.3644122839979944,1.437684439740933,3.6538514345460285,6.185517299221454,-0.2044767605709943,0.17081432024221097,-0.6811147477368966,-0.3402126257426766,-0.4105873836084104
2020-06-04,0.7218905559198895,0.36677787435314063,1.4244583412387835,3.646111880188668,6.159238651700481,-0.15873703599547354,0.18573383094434284,-0.6759334366041132,-0.34487979075659236,-0.37623702063917275
2020-06-05,0.7163028386532267,0.3693213024043855,1.411335887227977,3.638269956134359,6.135229984419949,-0.11551316746148063,0.19969672038158612,-0.6706365777301775,-0.34944145387481734,-0.34373722772207754
2020-06-06,0.7126681156811298,0.37203036606431467,1.3983194408845303,3.6303279886799995,6.113345911309974,-0.07513951463809311,0.21270156548285712,-0.6652189463029582,-0.35389945562567504,-0.3133189582826043
